%!PS-Adobe-3.0 EPSF-3.0
%%Creator: (MATLAB, The Mathworks, Inc. Version 9.5.0.944444 \(R2018b\). Operating System: Windows 10)
%%Title: C:/Users/Ed/git_clones/clothoid-composition-method/Exploration/straightlinesremoved-8-6-60.eps
%%CreationDate: 2019-12-06T11:45:21
%%Pages: (atend)
%%BoundingBox: 0 0 420 315
%%LanguageLevel: 3
%%EndComments
%%BeginProlog
%%BeginResource: procset (Apache XML Graphics Std ProcSet) 1.2 0
%%Version: 1.2 0
%%Copyright: (Copyright 2001-2003,2010 The Apache Software Foundation. License terms: http://www.apache.org/licenses/LICENSE-2.0)
/bd{bind def}bind def
/ld{load def}bd
/GR/grestore ld
/GS/gsave ld
/RM/rmoveto ld
/C/curveto ld
/t/show ld
/L/lineto ld
/ML/setmiterlimit ld
/CT/concat ld
/f/fill ld
/N/newpath ld
/S/stroke ld
/CC/setcmykcolor ld
/A/ashow ld
/cp/closepath ld
/RC/setrgbcolor ld
/LJ/setlinejoin ld
/GC/setgray ld
/LW/setlinewidth ld
/M/moveto ld
/re {4 2 roll M
1 index 0 rlineto
0 exch rlineto
neg 0 rlineto
cp } bd
/_ctm matrix def
/_tm matrix def
/BT { _ctm currentmatrix pop matrix _tm copy pop 0 0 moveto } bd
/ET { _ctm setmatrix } bd
/iTm { _ctm setmatrix _tm concat } bd
/Tm { _tm astore pop iTm 0 0 moveto } bd
/ux 0.0 def
/uy 0.0 def
/F {
  /Tp exch def
  /Tf exch def
  Tf findfont Tp scalefont setfont
  /cf Tf def  /cs Tp def
} bd
/ULS {currentpoint /uy exch def /ux exch def} bd
/ULE {
  /Tcx currentpoint pop def
  gsave
  newpath
  cf findfont cs scalefont dup
  /FontMatrix get 0 get /Ts exch def /FontInfo get dup
  /UnderlinePosition get Ts mul /To exch def
  /UnderlineThickness get Ts mul /Tt exch def
  ux uy To add moveto  Tcx uy To add lineto
  Tt setlinewidth stroke
  grestore
} bd
/OLE {
  /Tcx currentpoint pop def
  gsave
  newpath
  cf findfont cs scalefont dup
  /FontMatrix get 0 get /Ts exch def /FontInfo get dup
  /UnderlinePosition get Ts mul /To exch def
  /UnderlineThickness get Ts mul /Tt exch def
  ux uy To add cs add moveto Tcx uy To add cs add lineto
  Tt setlinewidth stroke
  grestore
} bd
/SOE {
  /Tcx currentpoint pop def
  gsave
  newpath
  cf findfont cs scalefont dup
  /FontMatrix get 0 get /Ts exch def /FontInfo get dup
  /UnderlinePosition get Ts mul /To exch def
  /UnderlineThickness get Ts mul /Tt exch def
  ux uy To add cs 10 mul 26 idiv add moveto Tcx uy To add cs 10 mul 26 idiv add lineto
  Tt setlinewidth stroke
  grestore
} bd
/QT {
/Y22 exch store
/X22 exch store
/Y21 exch store
/X21 exch store
currentpoint
/Y21 load 2 mul add 3 div exch
/X21 load 2 mul add 3 div exch
/X21 load 2 mul /X22 load add 3 div
/Y21 load 2 mul /Y22 load add 3 div
/X22 load /Y22 load curveto
} bd
/SSPD {
dup length /d exch dict def
{
/v exch def
/k exch def
currentpagedevice k known {
/cpdv currentpagedevice k get def
v cpdv ne {
/upd false def
/nullv v type /nulltype eq def
/nullcpdv cpdv type /nulltype eq def
nullv nullcpdv or
{
/upd true def
} {
/sametype v type cpdv type eq def
sametype {
v type /arraytype eq {
/vlen v length def
/cpdvlen cpdv length def
vlen cpdvlen eq {
0 1 vlen 1 sub {
/i exch def
/obj v i get def
/cpdobj cpdv i get def
obj cpdobj ne {
/upd true def
exit
} if
} for
} {
/upd true def
} ifelse
} {
v type /dicttype eq {
v {
/dv exch def
/dk exch def
/cpddv cpdv dk get def
dv cpddv ne {
/upd true def
exit
} if
} forall
} {
/upd true def
} ifelse
} ifelse
} if
} ifelse
upd true eq {
d k v put
} if
} if
} if
} forall
d length 0 gt {
d setpagedevice
} if
} bd
/RE { % /NewFontName [NewEncodingArray] /FontName RE -
  findfont dup length dict begin
  {
    1 index /FID ne
    {def} {pop pop} ifelse
  } forall
  /Encoding exch def
  /FontName 1 index def
  currentdict definefont pop
  end
} bind def
%%EndResource
%%BeginResource: procset (Apache XML Graphics EPS ProcSet) 1.0 0
%%Version: 1.0 0
%%Copyright: (Copyright 2002-2003 The Apache Software Foundation. License terms: http://www.apache.org/licenses/LICENSE-2.0)
/BeginEPSF { %def
/b4_Inc_state save def         % Save state for cleanup
/dict_count countdictstack def % Count objects on dict stack
/op_count count 1 sub def      % Count objects on operand stack
userdict begin                 % Push userdict on dict stack
/showpage { } def              % Redefine showpage, { } = null proc
0 setgray 0 setlinecap         % Prepare graphics state
1 setlinewidth 0 setlinejoin
10 setmiterlimit [ ] 0 setdash newpath
/languagelevel where           % If level not equal to 1 then
{pop languagelevel             % set strokeadjust and
1 ne                           % overprint to their defaults.
{false setstrokeadjust false setoverprint
} if
} if
} bd
/EndEPSF { %def
count op_count sub {pop} repeat            % Clean up stacks
countdictstack dict_count sub {end} repeat
b4_Inc_state restore
} bd
%%EndResource
%FOPBeginFontDict
%%IncludeResource: font Courier-Oblique
%%IncludeResource: font Courier-BoldOblique
%%IncludeResource: font Courier-Bold
%%IncludeResource: font ZapfDingbats
%%IncludeResource: font Symbol
%%IncludeResource: font Helvetica
%%IncludeResource: font Helvetica-Oblique
%%IncludeResource: font Helvetica-Bold
%%IncludeResource: font Helvetica-BoldOblique
%%IncludeResource: font Times-Roman
%%IncludeResource: font Times-Italic
%%IncludeResource: font Times-Bold
%%IncludeResource: font Times-BoldItalic
%%IncludeResource: font Courier
%FOPEndFontDict
%%BeginResource: encoding WinAnsiEncoding
/WinAnsiEncoding [
/.notdef /.notdef /.notdef /.notdef /.notdef
/.notdef /.notdef /.notdef /.notdef /.notdef
/.notdef /.notdef /.notdef /.notdef /.notdef
/.notdef /.notdef /.notdef /.notdef /.notdef
/.notdef /.notdef /.notdef /.notdef /.notdef
/.notdef /.notdef /.notdef /.notdef /.notdef
/.notdef /.notdef /space /exclam /quotedbl
/numbersign /dollar /percent /ampersand /quotesingle
/parenleft /parenright /asterisk /plus /comma
/hyphen /period /slash /zero /one
/two /three /four /five /six
/seven /eight /nine /colon /semicolon
/less /equal /greater /question /at
/A /B /C /D /E
/F /G /H /I /J
/K /L /M /N /O
/P /Q /R /S /T
/U /V /W /X /Y
/Z /bracketleft /backslash /bracketright /asciicircum
/underscore /quoteleft /a /b /c
/d /e /f /g /h
/i /j /k /l /m
/n /o /p /q /r
/s /t /u /v /w
/x /y /z /braceleft /bar
/braceright /asciitilde /bullet /Euro /bullet
/quotesinglbase /florin /quotedblbase /ellipsis /dagger
/daggerdbl /circumflex /perthousand /Scaron /guilsinglleft
/OE /bullet /Zcaron /bullet /bullet
/quoteleft /quoteright /quotedblleft /quotedblright /bullet
/endash /emdash /asciitilde /trademark /scaron
/guilsinglright /oe /bullet /zcaron /Ydieresis
/space /exclamdown /cent /sterling /currency
/yen /brokenbar /section /dieresis /copyright
/ordfeminine /guillemotleft /logicalnot /sfthyphen /registered
/macron /degree /plusminus /twosuperior /threesuperior
/acute /mu /paragraph /middot /cedilla
/onesuperior /ordmasculine /guillemotright /onequarter /onehalf
/threequarters /questiondown /Agrave /Aacute /Acircumflex
/Atilde /Adieresis /Aring /AE /Ccedilla
/Egrave /Eacute /Ecircumflex /Edieresis /Igrave
/Iacute /Icircumflex /Idieresis /Eth /Ntilde
/Ograve /Oacute /Ocircumflex /Otilde /Odieresis
/multiply /Oslash /Ugrave /Uacute /Ucircumflex
/Udieresis /Yacute /Thorn /germandbls /agrave
/aacute /acircumflex /atilde /adieresis /aring
/ae /ccedilla /egrave /eacute /ecircumflex
/edieresis /igrave /iacute /icircumflex /idieresis
/eth /ntilde /ograve /oacute /ocircumflex
/otilde /odieresis /divide /oslash /ugrave
/uacute /ucircumflex /udieresis /yacute /thorn
/ydieresis
] def
%%EndResource
%FOPBeginFontReencode
/Courier-Oblique findfont
dup length dict begin
  {1 index /FID ne {def} {pop pop} ifelse} forall
  /Encoding WinAnsiEncoding def
  currentdict
end
/Courier-Oblique exch definefont pop
/Courier-BoldOblique findfont
dup length dict begin
  {1 index /FID ne {def} {pop pop} ifelse} forall
  /Encoding WinAnsiEncoding def
  currentdict
end
/Courier-BoldOblique exch definefont pop
/Courier-Bold findfont
dup length dict begin
  {1 index /FID ne {def} {pop pop} ifelse} forall
  /Encoding WinAnsiEncoding def
  currentdict
end
/Courier-Bold exch definefont pop
/Helvetica findfont
dup length dict begin
  {1 index /FID ne {def} {pop pop} ifelse} forall
  /Encoding WinAnsiEncoding def
  currentdict
end
/Helvetica exch definefont pop
/Helvetica-Oblique findfont
dup length dict begin
  {1 index /FID ne {def} {pop pop} ifelse} forall
  /Encoding WinAnsiEncoding def
  currentdict
end
/Helvetica-Oblique exch definefont pop
/Helvetica-Bold findfont
dup length dict begin
  {1 index /FID ne {def} {pop pop} ifelse} forall
  /Encoding WinAnsiEncoding def
  currentdict
end
/Helvetica-Bold exch definefont pop
/Helvetica-BoldOblique findfont
dup length dict begin
  {1 index /FID ne {def} {pop pop} ifelse} forall
  /Encoding WinAnsiEncoding def
  currentdict
end
/Helvetica-BoldOblique exch definefont pop
/Times-Roman findfont
dup length dict begin
  {1 index /FID ne {def} {pop pop} ifelse} forall
  /Encoding WinAnsiEncoding def
  currentdict
end
/Times-Roman exch definefont pop
/Times-Italic findfont
dup length dict begin
  {1 index /FID ne {def} {pop pop} ifelse} forall
  /Encoding WinAnsiEncoding def
  currentdict
end
/Times-Italic exch definefont pop
/Times-Bold findfont
dup length dict begin
  {1 index /FID ne {def} {pop pop} ifelse} forall
  /Encoding WinAnsiEncoding def
  currentdict
end
/Times-Bold exch definefont pop
/Times-BoldItalic findfont
dup length dict begin
  {1 index /FID ne {def} {pop pop} ifelse} forall
  /Encoding WinAnsiEncoding def
  currentdict
end
/Times-BoldItalic exch definefont pop
/Courier findfont
dup length dict begin
  {1 index /FID ne {def} {pop pop} ifelse} forall
  /Encoding WinAnsiEncoding def
  currentdict
end
/Courier exch definefont pop
%FOPEndFontReencode
%%EndProlog
%%Page: 1 1
%%PageBoundingBox: 0 0 420 315
%%BeginPageSetup
[1 0 0 -1 0 315] CT
%%EndPageSetup
GS
[0.5 0 0 0.5 0 0] CT
1 GC
N
0 0 840 630 re
f
GR
GS
[0.5 0 0 0.5 0 0] CT
1 GC
N
0 0 840 630 re
f
GR
GS
[0.5 0 0 0.5 0 0] CT
1 GC
N
110.412 261 M
758.588 261 L
758.588 47 L
110.412 47 L
cp
f
GR
GS
[0.5 0 0 0.5 0 0] CT
0.149 GC
2 setlinecap
1 LJ
N
110.412 261 M
758.588 261 L
S
GR
GS
[0.5 0 0 0.5 0 0] CT
0.149 GC
2 setlinecap
1 LJ
N
161.369 261 M
161.369 254.518 L
S
GR
GS
[0.5 0 0 0.5 0 0] CT
0.149 GC
2 setlinecap
1 LJ
N
228.809 261 M
228.809 254.518 L
S
GR
GS
[0.5 0 0 0.5 0 0] CT
0.149 GC
2 setlinecap
1 LJ
N
296.249 261 M
296.249 254.518 L
S
GR
GS
[0.5 0 0 0.5 0 0] CT
0.149 GC
2 setlinecap
1 LJ
N
363.688 261 M
363.688 254.518 L
S
GR
GS
[0.5 0 0 0.5 0 0] CT
0.149 GC
2 setlinecap
1 LJ
N
431.128 261 M
431.128 254.518 L
S
GR
GS
[0.5 0 0 0.5 0 0] CT
0.149 GC
2 setlinecap
1 LJ
N
498.568 261 M
498.568 254.518 L
S
GR
GS
[0.5 0 0 0.5 0 0] CT
0.149 GC
2 setlinecap
1 LJ
N
566.007 261 M
566.007 254.518 L
S
GR
GS
[0.5 0 0 0.5 0 0] CT
0.149 GC
2 setlinecap
1 LJ
N
633.447 261 M
633.447 254.518 L
S
GR
GS
[0.5 0 0 0.5 0 0] CT
0.149 GC
2 setlinecap
1 LJ
N
700.887 261 M
700.887 254.518 L
S
GR
GS
[0.5 0 0 0.5 80.68461 133.3] CT
0.149 GC
/Helvetica 18 F
GS
[1 0 0 1 0 0] CT
-8.5 19 moveto 
1 -1 scale
(-4) t 
GR
GR
GS
[0.5 0 0 0.5 114.40446 133.3] CT
0.149 GC
/Helvetica 18 F
GS
[1 0 0 1 0 0] CT
-8.5 19 moveto 
1 -1 scale
(-2) t 
GR
GR
GS
[0.5 0 0 0.5 148.12431 133.3] CT
0.149 GC
/Helvetica 18 F
GS
[1 0 0 1 0 0] CT
-5.5 19 moveto 
1 -1 scale
(0) t 
GR
GR
GS
[0.5 0 0 0.5 181.84416 133.3] CT
0.149 GC
/Helvetica 18 F
GS
[1 0 0 1 0 0] CT
-5.5 19 moveto 
1 -1 scale
(2) t 
GR
GR
GS
[0.5 0 0 0.5 215.56401 133.3] CT
0.149 GC
/Helvetica 18 F
GS
[1 0 0 1 0 0] CT
-5.5 19 moveto 
1 -1 scale
(4) t 
GR
GR
GS
[0.5 0 0 0.5 249.28386 133.3] CT
0.149 GC
/Helvetica 18 F
GS
[1 0 0 1 0 0] CT
-5.5 19 moveto 
1 -1 scale
(6) t 
GR
GR
GS
[0.5 0 0 0.5 283.00372 133.3] CT
0.149 GC
/Helvetica 18 F
GS
[1 0 0 1 0 0] CT
-5.5 19 moveto 
1 -1 scale
(8) t 
GR
GR
GS
[0.5 0 0 0.5 316.72357 133.3] CT
0.149 GC
/Helvetica 18 F
GS
[1 0 0 1 0 0] CT
-10.5 19 moveto 
1 -1 scale
(10) t 
GR
GR
GS
[0.5 0 0 0.5 350.44342 133.3] CT
0.149 GC
/Helvetica 18 F
GS
[1 0 0 1 0 0] CT
-10.5 19 moveto 
1 -1 scale
(12) t 
GR
GR
GS
[0.5 0 0 0.5 217.25015 145.3] CT
0.149 GC
/Helvetica 19.8 F
GS
[1 0 0 1 0 0] CT
-19 20 moveto 
1 -1 scale
(x[m]) t 
GR
GR
GS
[0.5 0 0 0.5 0 0] CT
0.149 GC
2 setlinecap
1 LJ
N
110.412 261 M
110.412 47 L
S
GR
GS
[0.5 0 0 0.5 0 0] CT
0.149 GC
2 setlinecap
1 LJ
N
110.412 261 M
116.894 261 L
S
GR
GS
[0.5 0 0 0.5 0 0] CT
0.149 GC
2 setlinecap
1 LJ
N
110.412 193.56 M
116.894 193.56 L
S
GR
GS
[0.5 0 0 0.5 0 0] CT
0.149 GC
2 setlinecap
1 LJ
N
110.412 126.121 M
116.894 126.121 L
S
GR
GS
[0.5 0 0 0.5 0 0] CT
0.149 GC
2 setlinecap
1 LJ
N
110.412 58.681 M
116.894 58.681 L
S
GR
GS
[0.5 0 0 0.5 52.40615 130.5] CT
0.149 GC
/Helvetica 18 F
GS
[1 0 0 1 0 0] CT
-11 7.5 moveto 
1 -1 scale
(0) t 
GR
GR
GS
[0.5 0 0 0.5 52.40615 96.78015] CT
0.149 GC
/Helvetica 18 F
GS
[1 0 0 1 0 0] CT
-11 7.5 moveto 
1 -1 scale
(2) t 
GR
GR
GS
[0.5 0 0 0.5 52.40615 63.0603] CT
0.149 GC
/Helvetica 18 F
GS
[1 0 0 1 0 0] CT
-11 7.5 moveto 
1 -1 scale
(4) t 
GR
GR
GS
[0.5 0 0 0.5 52.40615 29.34045] CT
0.149 GC
/Helvetica 18 F
GS
[1 0 0 1 0 0] CT
-11 7.5 moveto 
1 -1 scale
(6) t 
GR
GR
GS
[0 -0.5 0.5 0 44.90615 76.99995] CT
0.149 GC
/Helvetica 19.8 F
GS
[1 0 0 1 0 0] CT
-19 -5 moveto 
1 -1 scale
(y[m]) t 
GR
GR
GS
[0.5 0 0 0.5 141 16] CT
/Helvetica-Bold 19.8 F
GS
[1 0 0 1 0 0] CT
0 0 moveto 
1 -1 scale
(X) t 
GR
GR
GS
[0.5 0 0 0.5 148 20.5] CT
/Helvetica-Bold 15.84 F
GS
[1 0 0 1 0 0] CT
0 0 moveto 
1 -1 scale
(G) t 
GR
GR
GS
[0.5 0 0 0.5 154.5 16] CT
/Helvetica-Bold 19.8 F
GS
[1 0 0 1 0 0] CT
0 0 moveto 
1 -1 scale
( =[8           6      1.0472           0]) t 
GR
GR
GS
[0.5 0 0 0.5 148.12431 130.5] CT
0 0 1 RC
10.0 ML
N
6 0 M
6 -3.314 3.314 -6 0 -6 C
-3.314 -6 -6 -3.314 -6 0 C
-6 3.314 -3.314 6 0 6 C
3.314 6 6 3.314 6 0 C
cp
S
GR
GS
[0.5 0 0 0.5 178.09422 128.74718] CT
0 0 1 RC
10.0 ML
N
6 0 M
6 -3.314 3.314 -6 0 -6 C
-3.314 -6 -6 -3.314 -6 0 C
-6 3.314 -3.314 6 0 6 C
3.314 6 6 3.314 6 0 C
cp
S
GR
GS
[0.5 0 0 0.5 283.00372 29.34045] CT
0 0 1 RC
10.0 ML
N
6 0 M
6 -3.314 3.314 -6 0 -6 C
-3.314 -6 -6 -3.314 -6 0 C
-6 3.314 -3.314 6 0 6 C
3.314 6 6 3.314 6 0 C
cp
S
GR
GS
[0.5 0 0 0.5 283.00372 29.34045] CT
0 0 1 RC
10.0 ML
N
6 0 M
6 -3.314 3.314 -6 0 -6 C
-3.314 -6 -6 -3.314 -6 0 C
-6 3.314 -3.314 6 0 6 C
3.314 6 6 3.314 6 0 C
cp
S
GR
GS
[0.5 0 0 0.5 0 0] CT
0 0.447 0.741 RC
1 LJ
N
296.249 261 M
296.249 261 L
296.249 261 L
296.585 261 L
296.92 261 L
297.256 261 L
297.592 261 L
297.928 261 L
298.264 261 L
298.6 261 L
298.936 261 L
299.272 260.999 L
299.608 260.999 L
299.943 260.999 L
300.279 260.999 L
300.615 260.999 L
300.951 260.998 L
301.287 260.998 L
301.623 260.997 L
301.959 260.997 L
302.295 260.996 L
302.631 260.995 L
302.966 260.995 L
303.302 260.994 L
303.638 260.993 L
303.974 260.992 L
304.31 260.991 L
304.646 260.99 L
304.982 260.989 L
305.318 260.987 L
305.654 260.986 L
305.989 260.984 L
306.325 260.983 L
306.661 260.981 L
306.997 260.979 L
307.333 260.977 L
307.669 260.975 L
308.005 260.973 L
308.341 260.97 L
308.676 260.968 L
309.012 260.965 L
309.348 260.962 L
309.684 260.959 L
310.02 260.956 L
310.356 260.953 L
310.692 260.95 L
311.028 260.946 L
311.363 260.942 L
311.699 260.938 L
312.035 260.934 L
312.371 260.93 L
312.707 260.926 L
313.043 260.921 L
313.379 260.916 L
313.715 260.911 L
314.05 260.906 L
314.386 260.901 L
314.722 260.895 L
315.058 260.89 L
315.394 260.884 L
315.73 260.877 L
316.065 260.871 L
316.401 260.864 L
316.737 260.858 L
317.073 260.85 L
317.409 260.843 L
317.744 260.836 L
318.08 260.828 L
318.416 260.82 L
318.752 260.812 L
319.088 260.803 L
319.423 260.794 L
319.759 260.785 L
320.095 260.776 L
320.431 260.767 L
320.766 260.757 L
321.102 260.747 L
321.438 260.736 L
321.774 260.726 L
322.109 260.715 L
322.445 260.704 L
322.781 260.692 L
323.116 260.68 L
323.452 260.668 L
323.788 260.656 L
324.123 260.643 L
324.459 260.63 L
324.795 260.617 L
325.13 260.604 L
325.466 260.59 L
325.801 260.575 L
326.137 260.561 L
326.473 260.546 L
326.808 260.531 L
327.144 260.515 L
327.479 260.499 L
327.815 260.483 L
328.15 260.467 L
328.486 260.45 L
328.821 260.432 L
329.157 260.415 L
329.492 260.397 L
329.827 260.378 L
330.163 260.36 L
330.498 260.34 L
330.833 260.321 L
331.169 260.301 L
331.504 260.281 L
331.839 260.26 L
332.174 260.239 L
332.51 260.218 L
332.845 260.196 L
333.18 260.174 L
333.515 260.151 L
333.85 260.128 L
334.185 260.105 L
334.52 260.081 L
334.855 260.057 L
335.19 260.032 L
335.525 260.007 L
335.86 259.981 L
336.195 259.955 L
336.53 259.929 L
336.865 259.902 L
337.199 259.874 L
337.534 259.847 L
337.869 259.818 L
338.204 259.79 L
338.538 259.761 L
338.873 259.731 L
339.207 259.701 L
339.542 259.67 L
339.876 259.639 L
340.211 259.608 L
340.545 259.576 L
340.879 259.544 L
341.214 259.511 L
341.548 259.477 L
341.882 259.443 L
342.216 259.409 L
342.55 259.374 L
342.884 259.338 L
343.218 259.302 L
343.552 259.266 L
343.886 259.229 L
344.22 259.191 L
344.553 259.153 L
344.887 259.115 L
345.221 259.076 L
345.554 259.036 L
345.888 258.996 L
346.221 258.955 L
346.555 258.914 L
346.888 258.872 L
347.221 258.83 L
347.554 258.787 L
347.887 258.744 L
348.22 258.7 L
348.553 258.655 L
348.886 258.61 L
349.219 258.564 L
349.551 258.518 L
349.884 258.471 L
350.217 258.423 L
350.549 258.375 L
350.881 258.327 L
351.214 258.277 L
351.546 258.228 L
351.878 258.177 L
352.21 258.126 L
352.542 258.074 L
352.874 258.022 L
353.205 257.969 L
353.537 257.916 L
353.868 257.862 L
354.2 257.807 L
354.531 257.751 L
354.862 257.695 L
355.193 257.639 L
355.524 257.582 L
355.855 257.524 L
356.186 257.465 L
356.518 257.406 L
356.849 257.345 L
357.181 257.285 L
357.513 257.223 L
357.844 257.161 L
358.175 257.099 L
358.506 257.035 L
358.837 256.971 L
359.168 256.907 L
359.499 256.841 L
359.83 256.775 L
360.16 256.709 L
360.49 256.642 L
360.821 256.574 L
361.151 256.505 L
361.481 256.436 L
361.811 256.366 L
362.14 256.296 L
362.47 256.225 L
362.799 256.153 L
363.128 256.081 L
363.458 256.008 L
363.787 255.935 L
364.116 255.86 L
364.444 255.786 L
364.773 255.71 L
365.101 255.634 L
365.43 255.557 L
365.758 255.48 L
366.086 255.402 L
366.414 255.324 L
366.741 255.244 L
367.069 255.165 L
367.396 255.084 L
367.723 255.003 L
368.051 254.922 L
368.377 254.839 L
368.704 254.756 L
369.031 254.673 L
369.357 254.589 L
369.684 254.504 L
370.01 254.419 L
370.336 254.333 L
370.662 254.246 L
370.987 254.159 L
371.313 254.071 L
371.638 253.983 L
371.963 253.894 L
372.288 253.804 L
372.613 253.714 L
372.938 253.623 L
373.262 253.532 L
373.587 253.44 L
373.911 253.347 L
374.235 253.254 L
374.559 253.16 L
374.882 253.066 L
375.206 252.971 L
375.529 252.875 L
375.852 252.779 L
376.175 252.682 L
376.498 252.585 L
376.82 252.487 L
377.143 252.389 L
377.465 252.29 L
377.787 252.19 L
378.109 252.09 L
378.431 251.989 L
378.752 251.887 L
379.073 251.785 L
379.395 251.683 L
379.716 251.579 L
380.036 251.476 L
380.357 251.371 L
380.677 251.266 L
380.997 251.161 L
381.317 251.055 L
381.637 250.948 L
381.957 250.841 L
382.276 250.733 L
382.596 250.625 L
382.915 250.516 L
383.233 250.406 L
383.552 250.296 L
383.871 250.185 L
384.189 250.074 L
384.507 249.962 L
384.825 249.85 L
385.142 249.737 L
385.46 249.624 L
385.777 249.51 L
386.094 249.395 L
386.411 249.28 L
386.728 249.164 L
387.044 249.048 L
387.36 248.931 L
387.676 248.814 L
387.992 248.696 L
388.308 248.577 L
388.623 248.458 L
388.939 248.339 L
389.254 248.219 L
389.568 248.098 L
389.883 247.977 L
390.197 247.855 L
390.511 247.733 L
390.825 247.61 L
391.139 247.487 L
391.453 247.363 L
391.766 247.238 L
392.079 247.113 L
392.392 246.988 L
392.705 246.862 L
393.017 246.735 L
393.329 246.608 L
393.641 246.48 L
393.953 246.352 L
394.265 246.223 L
394.576 246.094 L
394.887 245.964 L
395.198 245.834 L
395.509 245.703 L
395.819 245.571 L
396.129 245.44 L
396.44 245.307 L
396.749 245.174 L
397.059 245.041 L
397.368 244.907 L
397.677 244.772 L
397.986 244.637 L
398.295 244.502 L
398.603 244.365 L
398.912 244.229 L
399.22 244.092 L
399.527 243.954 L
399.835 243.816 L
400.142 243.677 L
400.449 243.538 L
400.756 243.398 L
401.063 243.258 L
401.369 243.118 L
401.675 242.976 L
401.981 242.835 L
402.287 242.693 L
402.592 242.55 L
402.897 242.407 L
403.202 242.263 L
403.507 242.119 L
403.812 241.974 L
404.116 241.829 L
404.42 241.683 L
404.724 241.537 L
405.027 241.39 L
405.331 241.243 L
405.634 241.095 L
405.936 240.947 L
406.239 240.799 L
406.541 240.649 L
406.843 240.5 L
407.145 240.35 L
407.447 240.199 L
407.748 240.048 L
408.049 239.896 L
408.35 239.744 L
408.651 239.592 L
408.951 239.439 L
409.252 239.285 L
409.551 239.131 L
409.851 238.977 L
410.151 238.822 L
410.45 238.667 L
410.749 238.511 L
411.047 238.354 L
411.346 238.198 L
411.644 238.04 L
411.942 237.882 L
412.24 237.724 L
412.537 237.566 L
412.834 237.406 L
413.131 237.247 L
413.428 237.087 L
413.724 236.926 L
414.02 236.765 L
414.316 236.604 L
414.612 236.442 L
414.908 236.279 L
415.203 236.116 L
415.498 235.953 L
415.792 235.789 L
416.087 235.625 L
416.381 235.46 L
416.675 235.295 L
416.968 235.13 L
417.262 234.964 L
417.555 234.797 L
417.848 234.63 L
418.141 234.463 L
418.433 234.295 L
418.725 234.127 L
419.017 233.958 L
419.309 233.789 L
419.6 233.619 L
419.891 233.449 L
420.182 233.279 L
420.472 233.108 L
420.763 232.936 L
421.053 232.764 L
421.343 232.592 L
421.632 232.419 L
421.921 232.246 L
422.21 232.073 L
422.499 231.899 L
422.788 231.724 L
423.076 231.55 L
423.364 231.374 L
423.652 231.199 L
423.939 231.022 L
424.226 230.846 L
424.513 230.669 L
424.8 230.491 L
425.086 230.314 L
425.372 230.135 L
425.658 229.957 L
425.944 229.778 L
426.229 229.598 L
426.514 229.418 L
426.799 229.238 L
427.084 229.057 L
427.368 228.876 L
427.652 228.694 L
427.936 228.512 L
428.219 228.33 L
428.503 228.147 L
428.786 227.964 L
429.068 227.78 L
429.351 227.596 L
429.633 227.412 L
429.915 227.227 L
430.197 227.041 L
430.478 226.856 L
430.759 226.67 L
431.04 226.483 L
431.32 226.296 L
431.601 226.109 L
431.881 225.921 L
432.161 225.733 L
432.44 225.545 L
432.719 225.356 L
432.998 225.167 L
433.277 224.977 L
433.556 224.787 L
433.834 224.596 L
434.112 224.406 L
434.389 224.214 L
434.667 224.023 L
434.944 223.831 L
435.221 223.638 L
435.497 223.445 L
435.773 223.252 L
436.049 223.059 L
436.325 222.865 L
436.601 222.67 L
436.876 222.476 L
437.151 222.281 L
437.426 222.085 L
437.7 221.889 L
437.974 221.693 L
438.248 221.497 L
438.522 221.3 L
438.795 221.102 L
439.068 220.905 L
439.341 220.706 L
439.613 220.508 L
439.886 220.309 L
440.158 220.11 L
440.429 219.91 L
440.701 219.711 L
440.972 219.51 L
441.243 219.31 L
441.513 219.109 L
441.784 218.907 L
442.054 218.705 L
442.324 218.503 L
442.593 218.301 L
442.863 218.098 L
443.132 217.895 L
443.4 217.691 L
443.669 217.487 L
443.937 217.283 L
444.205 217.078 L
444.473 216.873 L
444.74 216.668 L
445.007 216.462 L
445.274 216.256 L
445.54 216.05 L
445.807 215.843 L
446.073 215.636 L
446.339 215.429 L
446.604 215.221 L
446.869 215.013 L
447.134 214.804 L
447.399 214.596 L
447.663 214.386 L
447.927 214.177 L
448.191 213.967 L
448.455 213.757 L
448.718 213.546 L
448.981 213.336 L
449.244 213.124 L
449.507 212.913 L
449.769 212.701 L
450.031 212.489 L
450.293 212.276 L
450.554 212.063 L
450.815 211.85 L
451.076 211.637 L
451.337 211.423 L
451.597 211.209 L
451.857 210.994 L
452.117 210.779 L
452.376 210.564 L
452.636 210.349 L
452.895 210.133 L
453.153 209.917 L
453.412 209.7 L
453.67 209.483 L
453.928 209.266 L
454.186 209.049 L
454.443 208.831 L
454.7 208.613 L
454.957 208.395 L
455.214 208.176 L
455.47 207.957 L
455.726 207.738 L
455.982 207.518 L
456.237 207.298 L
456.492 207.078 L
456.747 206.857 L
457.002 206.637 L
457.257 206.415 L
457.511 206.194 L
457.765 205.972 L
458.018 205.75 L
458.272 205.528 L
458.525 205.305 L
458.777 205.082 L
459.03 204.858 L
459.282 204.635 L
459.534 204.411 L
459.786 204.187 L
460.038 203.962 L
460.289 203.737 L
460.54 203.512 L
460.79 203.287 L
461.041 203.061 L
461.291 202.835 L
461.541 202.609 L
461.79 202.382 L
462.04 202.155 L
462.289 201.928 L
462.538 201.701 L
462.786 201.473 L
463.035 201.245 L
463.283 201.017 L
463.53 200.788 L
463.778 200.559 L
464.025 200.33 L
464.272 200.1 L
464.519 199.871 L
464.765 199.641 L
465.011 199.41 L
465.257 199.18 L
465.503 198.949 L
465.748 198.718 L
465.994 198.486 L
466.238 198.254 L
466.483 198.022 L
466.727 197.79 L
466.971 197.558 L
467.215 197.325 L
467.459 197.092 L
467.702 196.858 L
467.945 196.625 L
468.188 196.391 L
468.43 196.156 L
468.673 195.922 L
468.915 195.687 L
469.156 195.452 L
469.398 195.217 L
469.639 194.982 L
469.88 194.746 L
470.121 194.51 L
470.361 194.273 L
470.601 194.037 L
470.841 193.8 L
471.081 193.563 L
471.32 193.325 L
471.56 193.088 L
471.798 192.85 L
472.037 192.612 L
472.275 192.373 L
472.514 192.135 L
472.751 191.896 L
472.989 191.657 L
473.226 191.417 L
473.463 191.178 L
473.7 190.938 L
473.937 190.698 L
474.173 190.457 L
474.409 190.216 L
474.645 189.975 L
474.881 189.734 L
475.116 189.493 L
475.351 189.251 L
475.586 189.009 L
475.82 188.767 L
476.055 188.525 L
476.289 188.282 L
476.523 188.039 L
476.756 187.796 L
476.989 187.553 L
477.222 187.309 L
477.455 187.065 L
477.688 186.821 L
477.92 186.577 L
478.152 186.332 L
478.384 186.087 L
478.615 185.842 L
478.847 185.597 L
479.078 185.352 L
479.309 185.106 L
479.539 184.86 L
479.769 184.614 L
479.999 184.367 L
480.229 184.121 L
480.459 183.874 L
480.688 183.627 L
480.917 183.379 L
481.146 183.132 L
481.375 182.884 L
481.603 182.636 L
481.831 182.387 L
482.059 182.139 L
482.286 181.89 L
482.514 181.641 L
482.741 181.392 L
482.968 181.143 L
483.194 180.893 L
483.421 180.643 L
483.647 180.393 L
483.873 180.143 L
484.098 179.893 L
484.324 179.642 L
484.549 179.391 L
484.774 179.14 L
484.999 178.889 L
485.223 178.637 L
485.447 178.385 L
485.671 178.133 L
485.895 177.881 L
486.118 177.629 L
486.342 177.376 L
486.565 177.123 L
486.787 176.87 L
487.01 176.617 L
487.232 176.363 L
487.454 176.11 L
487.676 175.856 L
487.898 175.602 L
488.119 175.348 L
488.34 175.093 L
488.561 174.838 L
488.782 174.584 L
489.002 174.328 L
489.222 174.073 L
489.442 173.818 L
489.662 173.562 L
489.882 173.306 L
490.101 173.05 L
490.32 172.794 L
490.539 172.537 L
490.757 172.281 L
490.975 172.024 L
491.194 171.767 L
491.411 171.509 L
491.629 171.252 L
491.847 170.994 L
492.064 170.736 L
492.281 170.478 L
492.497 170.22 L
492.714 169.962 L
492.93 169.703 L
493.146 169.444 L
493.362 169.185 L
493.578 168.926 L
493.793 168.667 L
494.008 168.407 L
494.223 168.147 L
494.438 167.888 L
494.652 167.627 L
494.867 167.367 L
495.081 167.107 L
495.294 166.846 L
495.508 166.585 L
495.721 166.324 L
495.935 166.063 L
496.148 165.802 L
496.36 165.54 L
496.573 165.278 L
496.785 165.016 L
496.997 164.754 L
497.209 164.492 L
497.421 164.23 L
497.632 163.967 L
497.843 163.704 L
498.054 163.441 L
498.265 163.178 L
498.475 162.915 L
498.686 162.651 L
498.896 162.388 L
499.106 162.124 L
499.315 161.86 L
499.525 161.596 L
499.734 161.331 L
499.943 161.067 L
500.152 160.802 L
500.361 160.537 L
500.569 160.272 L
500.777 160.007 L
500.985 159.742 L
501.193 159.477 L
501.401 159.211 L
501.608 158.945 L
501.815 158.679 L
502.022 158.413 L
502.229 158.147 L
502.435 157.88 L
502.642 157.614 L
502.848 157.347 L
503.054 157.08 L
503.259 156.813 L
503.465 156.545 L
503.67 156.278 L
503.875 156.01 L
504.08 155.743 L
504.285 155.475 L
504.489 155.207 L
504.693 154.939 L
504.898 154.67 L
505.101 154.402 L
505.305 154.133 L
505.509 153.864 L
505.712 153.595 L
505.915 153.326 L
506.118 153.057 L
506.321 152.788 L
506.523 152.518 L
506.725 152.248 L
506.927 151.979 L
507.129 151.709 L
507.331 151.438 L
507.533 151.168 L
507.734 150.898 L
507.935 150.627 L
508.136 150.356 L
508.337 150.086 L
508.537 149.815 L
508.737 149.543 L
508.938 149.272 L
509.138 149.001 L
509.337 148.729 L
509.537 148.458 L
509.736 148.186 L
509.936 147.914 L
510.135 147.642 L
510.333 147.369 L
510.532 147.097 L
510.731 146.824 L
510.929 146.552 L
511.127 146.279 L
511.325 146.006 L
511.522 145.733 L
511.72 145.46 L
511.917 145.186 L
512.115 144.913 L
512.312 144.639 L
512.508 144.366 L
512.705 144.092 L
512.901 143.818 L
513.098 143.544 L
513.294 143.269 L
513.49 142.995 L
513.685 142.721 L
513.881 142.446 L
514.076 142.171 L
514.271 141.896 L
514.466 141.621 L
514.661 141.346 L
514.856 141.071 L
515.05 140.796 L
515.245 140.52 L
515.439 140.244 L
515.633 139.969 L
515.827 139.693 L
516.02 139.417 L
516.214 139.141 L
516.407 138.864 L
516.6 138.588 L
516.793 138.312 L
516.986 138.035 L
517.178 137.758 L
517.371 137.481 L
517.563 137.205 L
517.755 136.927 L
517.947 136.65 L
518.139 136.373 L
518.33 136.096 L
518.522 135.818 L
518.713 135.54 L
518.904 135.263 L
519.095 134.985 L
519.286 134.707 L
519.476 134.429 L
519.667 134.151 L
519.857 133.872 L
520.047 133.594 L
520.237 133.315 L
520.427 133.037 L
520.616 132.758 L
520.806 132.479 L
520.995 132.2 L
521.184 131.921 L
521.373 131.642 L
521.562 131.363 L
521.751 131.083 L
521.939 130.804 L
522.128 130.524 L
522.316 130.244 L
522.504 129.965 L
522.692 129.685 L
522.88 129.405 L
523.067 129.125 L
523.255 128.844 L
523.442 128.564 L
523.629 128.284 L
523.816 128.003 L
524.003 127.723 L
524.19 127.442 L
524.376 127.161 L
524.562 126.88 L
524.749 126.599 L
524.935 126.318 L
525.121 126.037 L
525.307 125.755 L
525.492 125.474 L
525.678 125.193 L
525.863 124.911 L
526.048 124.629 L
526.234 124.348 L
526.418 124.066 L
526.603 123.784 L
526.788 123.502 L
526.972 123.22 L
527.157 122.937 L
527.341 122.655 L
527.525 122.373 L
527.709 122.09 L
527.893 121.807 L
528.077 121.525 L
528.26 121.242 L
528.444 120.959 L
528.627 120.676 L
528.81 120.393 L
528.993 120.11 L
529.176 119.827 L
529.359 119.544 L
529.541 119.26 L
529.724 118.977 L
529.906 118.693 L
530.089 118.41 L
530.271 118.126 L
530.453 117.842 L
530.634 117.558 L
530.816 117.274 L
530.998 116.99 L
531.179 116.706 L
531.361 116.422 L
531.542 116.137 L
531.723 115.853 L
531.904 115.569 L
532.085 115.284 L
532.265 115 L
532.446 114.715 L
532.626 114.43 L
532.807 114.145 L
532.987 113.86 L
533.167 113.575 L
533.347 113.29 L
533.527 113.005 L
533.707 112.72 L
533.886 112.435 L
534.066 112.149 L
534.245 111.864 L
534.425 111.578 L
534.604 111.293 L
534.783 111.007 L
534.962 110.721 L
535.141 110.436 L
535.319 110.15 L
535.498 109.864 L
535.676 109.578 L
535.855 109.292 L
536.033 109.006 L
536.211 108.719 L
536.389 108.433 L
536.567 108.147 L
536.745 107.86 L
536.923 107.574 L
537.1 107.287 L
537.278 107.001 L
537.455 106.714 L
537.632 106.427 L
537.81 106.14 L
537.987 105.854 L
538.164 105.567 L
538.341 105.28 L
538.517 104.993 L
538.694 104.705 L
538.871 104.418 L
539.047 104.131 L
539.223 103.844 L
539.4 103.556 L
539.576 103.269 L
539.752 102.981 L
539.928 102.694 L
540.104 102.406 L
540.28 102.119 L
540.455 101.831 L
540.631 101.543 L
540.807 101.255 L
540.982 100.967 L
541.157 100.679 L
541.332 100.391 L
541.508 100.103 L
541.683 99.815 L
541.858 99.527 L
542.032 99.239 L
542.207 98.951 L
542.382 98.662 L
542.557 98.374 L
542.731 98.085 L
542.905 97.797 L
543.08 97.508 L
543.254 97.22 L
543.428 96.931 L
543.602 96.642 L
543.776 96.354 L
543.95 96.065 L
544.124 95.776 L
544.298 95.487 L
544.471 95.198 L
544.645 94.909 L
544.819 94.62 L
544.992 94.331 L
545.165 94.042 L
545.339 93.753 L
545.512 93.463 L
545.685 93.174 L
545.858 92.885 L
546.031 92.595 L
546.204 92.306 L
546.377 92.016 L
546.549 91.727 L
546.722 91.437 L
546.895 91.148 L
547.067 90.858 L
547.24 90.569 L
547.412 90.279 L
547.585 89.989 L
547.757 89.699 L
547.929 89.409 L
548.101 89.12 L
548.273 88.83 L
548.445 88.54 L
548.617 88.25 L
548.789 87.96 L
548.961 87.67 L
549.132 87.379 L
549.304 87.089 L
549.476 86.799 L
549.647 86.509 L
549.819 86.219 L
549.99 85.928 L
550.161 85.638 L
550.333 85.348 L
550.504 85.057 L
550.675 84.767 L
550.846 84.476 L
551.017 84.186 L
551.188 83.895 L
551.359 83.605 L
551.53 83.314 L
551.701 83.023 L
551.872 82.733 L
552.043 82.442 L
552.213 82.151 L
552.384 81.861 L
552.554 81.57 L
552.725 81.279 L
552.895 80.988 L
553.066 80.697 L
553.236 80.406 L
553.407 80.115 L
553.577 79.824 L
553.747 79.533 L
553.917 79.242 L
554.087 78.951 L
554.258 78.66 L
554.428 78.369 L
554.598 78.078 L
554.768 77.787 L
554.938 77.496 L
555.107 77.205 L
555.277 76.913 L
555.447 76.622 L
555.617 76.331 L
555.787 76.04 L
555.956 75.748 L
556.126 75.457 L
556.296 75.166 L
556.465 74.874 L
556.635 74.583 L
556.804 74.291 L
556.974 74 L
557.143 73.709 L
557.313 73.417 L
557.482 73.126 L
557.651 72.834 L
557.82 72.543 L
557.99 72.251 L
558.159 71.959 L
558.328 71.668 L
558.497 71.376 L
558.667 71.085 L
558.836 70.793 L
559.005 70.501 L
559.174 70.21 L
559.343 69.918 L
559.512 69.626 L
559.681 69.335 L
559.85 69.043 L
560.019 68.751 L
560.188 68.459 L
560.357 68.168 L
560.526 67.876 L
560.695 67.584 L
560.863 67.292 L
561.032 67 L
561.201 66.709 L
561.37 66.417 L
561.539 66.125 L
561.707 65.833 L
561.876 65.541 L
562.045 65.249 L
562.214 64.958 L
562.382 64.666 L
562.551 64.374 L
562.72 64.082 L
562.888 63.79 L
563.057 63.498 L
563.226 63.206 L
563.394 62.914 L
563.563 62.622 L
563.732 62.33 L
563.9 62.038 L
564.069 61.747 L
564.237 61.455 L
564.406 61.163 L
564.575 60.871 L
564.743 60.579 L
564.912 60.287 L
565.08 59.995 L
565.249 59.703 L
565.417 59.411 L
565.586 59.119 L
565.755 58.827 L
565.923 58.535 L
565.923 58.535 L
565.923 58.535 L
S
GR
GS
[0.5 0 0 0.5 283.00372 29.34045] CT
0 1 1 RC
10.0 ML
N
-4.243 -4.243 M
4.243 4.243 L
-4.243 4.243 M
4.243 -4.243 L
S
GR
GS
[0.5 0 0 0.5 0 0] CT
0 1 1 RC
1 LJ
N
566.007 58.681 M
572.751 47 L
S
GR
GS
[0.5 0 0 0.5 0 0] CT
1 GC
N
109 560 M
760 560 L
760 346 L
109 346 L
cp
f
GR
GS
[0.5 0 0 0.5 0 0] CT
0.149 GC
2 setlinecap
1 LJ
N
109 560 M
760 560 L
S
GR
GS
[0.5 0 0 0.5 0 0] CT
0.149 GC
2 setlinecap
1 LJ
N
109 346 M
760 346 L
S
GR
GS
[0.5 0 0 0.5 0 0] CT
0.149 GC
2 setlinecap
1 LJ
N
109 560 M
109 553.49 L
S
GR
GS
[0.5 0 0 0.5 0 0] CT
0.149 GC
2 setlinecap
1 LJ
N
217.5 560 M
217.5 553.49 L
S
GR
GS
[0.5 0 0 0.5 0 0] CT
0.149 GC
2 setlinecap
1 LJ
N
326 560 M
326 553.49 L
S
GR
GS
[0.5 0 0 0.5 0 0] CT
0.149 GC
2 setlinecap
1 LJ
N
434.5 560 M
434.5 553.49 L
S
GR
GS
[0.5 0 0 0.5 0 0] CT
0.149 GC
2 setlinecap
1 LJ
N
543 560 M
543 553.49 L
S
GR
GS
[0.5 0 0 0.5 0 0] CT
0.149 GC
2 setlinecap
1 LJ
N
651.5 560 M
651.5 553.49 L
S
GR
GS
[0.5 0 0 0.5 0 0] CT
0.149 GC
2 setlinecap
1 LJ
N
760 560 M
760 553.49 L
S
GR
GS
[0.5 0 0 0.5 0 0] CT
0.149 GC
2 setlinecap
1 LJ
N
109 346 M
109 352.51 L
S
GR
GS
[0.5 0 0 0.5 0 0] CT
0.149 GC
2 setlinecap
1 LJ
N
217.5 346 M
217.5 352.51 L
S
GR
GS
[0.5 0 0 0.5 0 0] CT
0.149 GC
2 setlinecap
1 LJ
N
326 346 M
326 352.51 L
S
GR
GS
[0.5 0 0 0.5 0 0] CT
0.149 GC
2 setlinecap
1 LJ
N
434.5 346 M
434.5 352.51 L
S
GR
GS
[0.5 0 0 0.5 0 0] CT
0.149 GC
2 setlinecap
1 LJ
N
543 346 M
543 352.51 L
S
GR
GS
[0.5 0 0 0.5 0 0] CT
0.149 GC
2 setlinecap
1 LJ
N
651.5 346 M
651.5 352.51 L
S
GR
GS
[0.5 0 0 0.5 0 0] CT
0.149 GC
2 setlinecap
1 LJ
N
760 346 M
760 352.51 L
S
GR
GS
[0.5 0 0 0.5 54.5 282.79999] CT
0.149 GC
/Helvetica 18 F
GS
[1 0 0 1 0 0] CT
-5.5 19 moveto 
1 -1 scale
(0) t 
GR
GR
GS
[0.5 0 0 0.5 108.75 282.79999] CT
0.149 GC
/Helvetica 18 F
GS
[1 0 0 1 0 0] CT
-5.5 19 moveto 
1 -1 scale
(2) t 
GR
GR
GS
[0.5 0 0 0.5 163 282.79999] CT
0.149 GC
/Helvetica 18 F
GS
[1 0 0 1 0 0] CT
-5.5 19 moveto 
1 -1 scale
(4) t 
GR
GR
GS
[0.5 0 0 0.5 217.25 282.79999] CT
0.149 GC
/Helvetica 18 F
GS
[1 0 0 1 0 0] CT
-5.5 19 moveto 
1 -1 scale
(6) t 
GR
GR
GS
[0.5 0 0 0.5 271.5 282.79999] CT
0.149 GC
/Helvetica 18 F
GS
[1 0 0 1 0 0] CT
-5.5 19 moveto 
1 -1 scale
(8) t 
GR
GR
GS
[0.5 0 0 0.5 325.75 282.79999] CT
0.149 GC
/Helvetica 18 F
GS
[1 0 0 1 0 0] CT
-10.5 19 moveto 
1 -1 scale
(10) t 
GR
GR
GS
[0.5 0 0 0.5 380 282.79999] CT
0.149 GC
/Helvetica 18 F
GS
[1 0 0 1 0 0] CT
-10.5 19 moveto 
1 -1 scale
(12) t 
GR
GR
GS
[0.5 0 0 0.5 217.25015 294.79999] CT
0.149 GC
/Helvetica 19.8 F
GS
[1 0 0 1 0 0] CT
-19 20 moveto 
1 -1 scale
(s[m]) t 
GR
GR
GS
[0.5 0 0 0.5 0 0] CT
0.149 GC
2 setlinecap
1 LJ
N
109 560 M
109 346 L
S
GR
GS
[0.5 0 0 0.5 0 0] CT
0.149 GC
2 setlinecap
1 LJ
N
760 560 M
760 346 L
S
GR
GS
[0.5 0 0 0.5 0 0] CT
0.149 GC
2 setlinecap
1 LJ
N
109 560 M
115.51 560 L
S
GR
GS
[0.5 0 0 0.5 0 0] CT
0.149 GC
2 setlinecap
1 LJ
N
109 517.2 M
115.51 517.2 L
S
GR
GS
[0.5 0 0 0.5 0 0] CT
0.149 GC
2 setlinecap
1 LJ
N
109 474.4 M
115.51 474.4 L
S
GR
GS
[0.5 0 0 0.5 0 0] CT
0.149 GC
2 setlinecap
1 LJ
N
109 431.6 M
115.51 431.6 L
S
GR
GS
[0.5 0 0 0.5 0 0] CT
0.149 GC
2 setlinecap
1 LJ
N
109 388.8 M
115.51 388.8 L
S
GR
GS
[0.5 0 0 0.5 0 0] CT
0.149 GC
2 setlinecap
1 LJ
N
109 346 M
115.51 346 L
S
GR
GS
[0.5 0 0 0.5 0 0] CT
0.149 GC
2 setlinecap
1 LJ
N
760 560 M
753.49 560 L
S
GR
GS
[0.5 0 0 0.5 0 0] CT
0.149 GC
2 setlinecap
1 LJ
N
760 517.2 M
753.49 517.2 L
S
GR
GS
[0.5 0 0 0.5 0 0] CT
0.149 GC
2 setlinecap
1 LJ
N
760 474.4 M
753.49 474.4 L
S
GR
GS
[0.5 0 0 0.5 0 0] CT
0.149 GC
2 setlinecap
1 LJ
N
760 431.6 M
753.49 431.6 L
S
GR
GS
[0.5 0 0 0.5 0 0] CT
0.149 GC
2 setlinecap
1 LJ
N
760 388.8 M
753.49 388.8 L
S
GR
GS
[0.5 0 0 0.5 0 0] CT
0.149 GC
2 setlinecap
1 LJ
N
760 346 M
753.49 346 L
S
GR
GS
[0.5 0 0 0.5 51.7 280] CT
0.149 GC
/Helvetica 18 F
GS
[1 0 0 1 0 0] CT
-32 7.5 moveto 
1 -1 scale
(-0.4) t 
GR
GR
GS
[0.5 0 0 0.5 51.7 258.60001] CT
0.149 GC
/Helvetica 18 F
GS
[1 0 0 1 0 0] CT
-32 7.5 moveto 
1 -1 scale
(-0.2) t 
GR
GR
GS
[0.5 0 0 0.5 51.7 237.2] CT
0.149 GC
/Helvetica 18 F
GS
[1 0 0 1 0 0] CT
-11 7.5 moveto 
1 -1 scale
(0) t 
GR
GR
GS
[0.5 0 0 0.5 51.7 215.8] CT
0.149 GC
/Helvetica 18 F
GS
[1 0 0 1 0 0] CT
-26 7.5 moveto 
1 -1 scale
(0.2) t 
GR
GR
GS
[0.5 0 0 0.5 51.7 194.39999] CT
0.149 GC
/Helvetica 18 F
GS
[1 0 0 1 0 0] CT
-26 7.5 moveto 
1 -1 scale
(0.4) t 
GR
GR
GS
[0.5 0 0 0.5 51.7 173] CT
0.149 GC
/Helvetica 18 F
GS
[1 0 0 1 0 0] CT
-26 7.5 moveto 
1 -1 scale
(0.6) t 
GR
GR
GS
[0.5 0 0 0.5 0 0] CT
1 0 0 RC
1 LJ
N
109 474.4 M
109 474.4 L
S
GR
GS
[0.5 0 0 0.5 0 0] CT
0 1 0 RC
1 LJ
N
109 474.4 M
109 474.4 L
S
GR
GS
[0.5 0 0 0.5 54.5 237.2] CT
0 1 0 RC
10.0 ML
N
6 0 M
6 -3.314 3.314 -6 0 -6 C
-3.314 -6 -6 -3.314 -6 0 C
-6 3.314 -3.314 6 0 6 C
3.314 6 6 3.314 6 0 C
cp
S
GR
GS
[0.5 0 0 0.5 102.86536 216.16013] CT
0 1 0 RC
10.0 ML
N
6 0 M
6 -3.314 3.314 -6 0 -6 C
-3.314 -6 -6 -3.314 -6 0 C
-6 3.314 -3.314 6 0 6 C
3.314 6 6 3.314 6 0 C
cp
S
GR
GS
[0.5 0 0 0.5 343.41434 237.2] CT
0 1 0 RC
10.0 ML
N
6 0 M
6 -3.314 3.314 -6 0 -6 C
-3.314 -6 -6 -3.314 -6 0 C
-6 3.314 -3.314 6 0 6 C
3.314 6 6 3.314 6 0 C
cp
S
GR
GS
[0.5 0 0 0.5 343.41434 237.2] CT
0 1 0 RC
10.0 ML
N
6 0 M
6 -3.314 3.314 -6 0 -6 C
-3.314 -6 -6 -3.314 -6 0 C
-6 3.314 -3.314 6 0 6 C
3.314 6 6 3.314 6 0 C
cp
S
GR
GS
[0.5 0 0 0.5 54.5 237.2] CT
1 0 0 RC
10.0 ML
N
6 0 M
6 -3.314 3.314 -6 0 -6 C
-3.314 -6 -6 -3.314 -6 0 C
-6 3.314 -3.314 6 0 6 C
3.314 6 6 3.314 6 0 C
cp
S
GR
GS
[0.5 0 0 0.5 54.5 237.2] CT
1 0 0 RC
10.0 ML
N
6 0 M
6 -3.314 3.314 -6 0 -6 C
-3.314 -6 -6 -3.314 -6 0 C
-6 3.314 -3.314 6 0 6 C
3.314 6 6 3.314 6 0 C
cp
S
GR
GS
[0.5 0 0 0.5 54.5 225.4001] CT
1 0 0 RC
10.0 ML
N
6 0 M
6 -3.314 3.314 -6 0 -6 C
-3.314 -6 -6 -3.314 -6 0 C
-6 3.314 -3.314 6 0 6 C
3.314 6 6 3.314 6 0 C
cp
S
GR
GS
[0.5 0 0 0.5 102.86536 225.4001] CT
1 0 0 RC
10.0 ML
N
6 0 M
6 -3.314 3.314 -6 0 -6 C
-3.314 -6 -6 -3.314 -6 0 C
-6 3.314 -3.314 6 0 6 C
3.314 6 6 3.314 6 0 C
cp
S
GR
GS
[0.5 0 0 0.5 102.86536 239.57251] CT
1 0 0 RC
10.0 ML
N
6 0 M
6 -3.314 3.314 -6 0 -6 C
-3.314 -6 -6 -3.314 -6 0 C
-6 3.314 -3.314 6 0 6 C
3.314 6 6 3.314 6 0 C
cp
S
GR
GS
[0.5 0 0 0.5 343.41434 239.57251] CT
1 0 0 RC
10.0 ML
N
6 0 M
6 -3.314 3.314 -6 0 -6 C
-3.314 -6 -6 -3.314 -6 0 C
-6 3.314 -3.314 6 0 6 C
3.314 6 6 3.314 6 0 C
cp
S
GR
GS
[0.5 0 0 0.5 343.41434 237.2] CT
1 0 0 RC
10.0 ML
N
6 0 M
6 -3.314 3.314 -6 0 -6 C
-3.314 -6 -6 -3.314 -6 0 C
-6 3.314 -3.314 6 0 6 C
3.314 6 6 3.314 6 0 C
cp
S
GR
GS
[0.5 0 0 0.5 343.41434 237.2] CT
1 0 0 RC
10.0 ML
N
6 0 M
6 -3.314 3.314 -6 0 -6 C
-3.314 -6 -6 -3.314 -6 0 C
-6 3.314 -3.314 6 0 6 C
3.314 6 6 3.314 6 0 C
cp
S
GR
GS
[0.5 0 0 0.5 0 0] CT
1 0 0 RC
1 LJ
N
109 474.4 M
109 474.4 L
109 450.8 L
205.731 450.8 L
205.731 479.145 L
686.829 479.145 L
686.829 474.4 L
686.829 474.4 L
S
GR
GS
[0.5 0 0 0.5 0 0] CT
0 1 0 RC
1 LJ
N
109 474.4 M
109 474.4 L
109 474.4 L
109.54 474.165 L
110.081 473.93 L
110.621 473.695 L
111.162 473.46 L
111.702 473.225 L
112.242 472.99 L
112.783 472.754 L
113.323 472.519 L
113.864 472.284 L
114.404 472.049 L
114.944 471.814 L
115.485 471.579 L
116.025 471.344 L
116.566 471.109 L
117.106 470.874 L
117.646 470.639 L
118.187 470.404 L
118.727 470.169 L
119.268 469.933 L
119.808 469.698 L
120.348 469.463 L
120.889 469.228 L
121.429 468.993 L
121.969 468.758 L
122.51 468.523 L
123.05 468.288 L
123.591 468.053 L
124.131 467.818 L
124.671 467.583 L
125.212 467.348 L
125.752 467.112 L
126.293 466.877 L
126.833 466.642 L
127.373 466.407 L
127.914 466.172 L
128.454 465.937 L
128.995 465.702 L
129.535 465.467 L
130.075 465.232 L
130.616 464.997 L
131.156 464.762 L
131.697 464.527 L
132.237 464.291 L
132.777 464.056 L
133.318 463.821 L
133.858 463.586 L
134.399 463.351 L
134.939 463.116 L
135.479 462.881 L
136.02 462.646 L
136.56 462.411 L
137.101 462.176 L
137.641 461.941 L
138.181 461.706 L
138.722 461.47 L
139.262 461.235 L
139.803 461 L
140.343 460.765 L
140.883 460.53 L
141.424 460.295 L
141.964 460.06 L
142.505 459.825 L
143.045 459.59 L
143.585 459.355 L
144.126 459.12 L
144.666 458.885 L
145.206 458.649 L
145.747 458.414 L
146.287 458.179 L
146.828 457.944 L
147.368 457.709 L
147.908 457.474 L
148.449 457.239 L
148.989 457.004 L
149.53 456.769 L
150.07 456.534 L
150.61 456.299 L
151.151 456.064 L
151.691 455.828 L
152.232 455.593 L
152.772 455.358 L
153.312 455.123 L
153.853 454.888 L
154.393 454.653 L
154.934 454.418 L
155.474 454.183 L
156.014 453.948 L
156.555 453.713 L
157.095 453.478 L
157.636 453.243 L
158.176 453.008 L
158.716 452.772 L
159.257 452.537 L
159.797 452.302 L
160.338 452.067 L
160.878 451.832 L
161.418 451.597 L
161.959 451.362 L
162.499 451.127 L
163.04 450.892 L
163.58 450.657 L
164.12 450.422 L
164.661 450.187 L
165.201 449.951 L
165.741 449.716 L
166.282 449.481 L
166.822 449.246 L
167.363 449.011 L
167.903 448.776 L
168.443 448.541 L
168.984 448.306 L
169.524 448.071 L
170.065 447.836 L
170.605 447.601 L
171.145 447.366 L
171.686 447.13 L
172.226 446.895 L
172.767 446.66 L
173.307 446.425 L
173.847 446.19 L
174.388 445.955 L
174.928 445.72 L
175.469 445.485 L
176.009 445.25 L
176.549 445.015 L
177.09 444.78 L
177.63 444.545 L
178.171 444.309 L
178.711 444.074 L
179.251 443.839 L
179.792 443.604 L
180.332 443.369 L
180.873 443.134 L
181.413 442.899 L
181.953 442.664 L
182.494 442.429 L
183.034 442.194 L
183.575 441.959 L
184.115 441.724 L
184.655 441.488 L
185.196 441.253 L
185.736 441.018 L
186.276 440.783 L
186.817 440.548 L
187.357 440.313 L
187.898 440.078 L
188.438 439.843 L
188.978 439.608 L
189.519 439.373 L
190.059 439.138 L
190.6 438.903 L
191.14 438.667 L
191.68 438.432 L
192.221 438.197 L
192.761 437.962 L
193.302 437.727 L
193.842 437.492 L
194.382 437.257 L
194.923 437.022 L
195.463 436.787 L
196.004 436.552 L
196.544 436.317 L
197.084 436.082 L
197.625 435.846 L
198.165 435.611 L
198.706 435.376 L
199.246 435.141 L
199.786 434.906 L
200.327 434.671 L
200.867 434.436 L
201.408 434.201 L
201.948 433.966 L
202.488 433.731 L
203.029 433.496 L
203.569 433.261 L
204.11 433.026 L
204.65 432.79 L
205.19 432.555 L
205.731 432.32 L
206.273 432.368 L
206.815 432.415 L
207.358 432.463 L
207.9 432.51 L
208.443 432.557 L
208.985 432.605 L
209.527 432.652 L
210.07 432.7 L
210.612 432.747 L
211.155 432.795 L
211.697 432.842 L
212.239 432.89 L
212.782 432.937 L
213.324 432.984 L
213.867 433.032 L
214.409 433.079 L
214.951 433.127 L
215.494 433.174 L
216.036 433.222 L
216.578 433.269 L
217.121 433.317 L
217.663 433.364 L
218.206 433.411 L
218.748 433.459 L
219.29 433.506 L
219.833 433.554 L
220.375 433.601 L
220.918 433.649 L
221.46 433.696 L
222.002 433.743 L
222.545 433.791 L
223.087 433.838 L
223.63 433.886 L
224.172 433.933 L
224.714 433.981 L
225.257 434.028 L
225.799 434.076 L
226.341 434.123 L
226.884 434.17 L
227.426 434.218 L
227.969 434.265 L
228.511 434.313 L
229.053 434.36 L
229.596 434.408 L
230.138 434.455 L
230.681 434.503 L
231.223 434.55 L
231.765 434.597 L
232.308 434.645 L
232.85 434.692 L
233.392 434.74 L
233.935 434.787 L
234.477 434.835 L
235.02 434.882 L
235.562 434.93 L
236.104 434.977 L
236.647 435.024 L
237.189 435.072 L
237.732 435.119 L
238.274 435.167 L
238.816 435.214 L
239.359 435.262 L
239.901 435.309 L
240.444 435.356 L
240.986 435.404 L
241.528 435.451 L
242.071 435.499 L
242.613 435.546 L
243.155 435.594 L
243.698 435.641 L
244.24 435.689 L
244.783 435.736 L
245.325 435.783 L
245.867 435.831 L
246.41 435.878 L
246.952 435.926 L
247.495 435.973 L
248.037 436.021 L
248.579 436.068 L
249.122 436.116 L
249.664 436.163 L
250.207 436.21 L
250.749 436.258 L
251.291 436.305 L
251.834 436.353 L
252.376 436.4 L
252.918 436.448 L
253.461 436.495 L
254.003 436.542 L
254.546 436.59 L
255.088 436.637 L
255.63 436.685 L
256.173 436.732 L
256.715 436.78 L
257.258 436.827 L
257.8 436.875 L
258.342 436.922 L
258.885 436.969 L
259.427 437.017 L
259.969 437.064 L
260.512 437.112 L
261.054 437.159 L
261.597 437.207 L
262.139 437.254 L
262.681 437.302 L
263.224 437.349 L
263.766 437.396 L
264.309 437.444 L
264.851 437.491 L
265.393 437.539 L
265.936 437.586 L
266.478 437.634 L
267.021 437.681 L
267.563 437.728 L
268.105 437.776 L
268.648 437.823 L
269.19 437.871 L
269.732 437.918 L
270.275 437.966 L
270.817 438.013 L
271.36 438.061 L
271.902 438.108 L
272.444 438.155 L
272.987 438.203 L
273.529 438.25 L
274.072 438.298 L
274.614 438.345 L
275.156 438.393 L
275.699 438.44 L
276.241 438.488 L
276.784 438.535 L
277.326 438.582 L
277.868 438.63 L
278.411 438.677 L
278.953 438.725 L
279.495 438.772 L
280.038 438.82 L
280.58 438.867 L
281.123 438.914 L
281.665 438.962 L
282.207 439.009 L
282.75 439.057 L
283.292 439.104 L
283.835 439.152 L
284.377 439.199 L
284.919 439.247 L
285.462 439.294 L
286.004 439.341 L
286.547 439.389 L
287.089 439.436 L
287.631 439.484 L
288.174 439.531 L
288.716 439.579 L
289.258 439.626 L
289.801 439.674 L
290.343 439.721 L
290.886 439.768 L
291.428 439.816 L
291.97 439.863 L
292.513 439.911 L
293.055 439.958 L
293.598 440.006 L
294.14 440.053 L
294.682 440.1 L
295.225 440.148 L
295.767 440.195 L
296.309 440.243 L
296.852 440.29 L
297.394 440.338 L
297.937 440.385 L
298.479 440.433 L
299.021 440.48 L
299.564 440.527 L
300.106 440.575 L
300.649 440.622 L
301.191 440.67 L
301.733 440.717 L
302.276 440.765 L
302.818 440.812 L
303.361 440.86 L
303.903 440.907 L
304.445 440.954 L
304.988 441.002 L
305.53 441.049 L
306.072 441.097 L
306.615 441.144 L
307.157 441.192 L
307.7 441.239 L
308.242 441.287 L
308.784 441.334 L
309.327 441.381 L
309.869 441.429 L
310.412 441.476 L
310.954 441.524 L
311.496 441.571 L
312.039 441.619 L
312.581 441.666 L
313.124 441.714 L
313.666 441.761 L
314.208 441.808 L
314.751 441.856 L
315.293 441.903 L
315.835 441.951 L
316.378 441.998 L
316.92 442.046 L
317.463 442.093 L
318.005 442.14 L
318.547 442.188 L
319.09 442.235 L
319.632 442.283 L
320.175 442.33 L
320.717 442.378 L
321.259 442.425 L
321.802 442.473 L
322.344 442.52 L
322.887 442.567 L
323.429 442.615 L
323.971 442.662 L
324.514 442.71 L
325.056 442.757 L
325.598 442.805 L
326.141 442.852 L
326.683 442.9 L
327.226 442.947 L
327.768 442.994 L
328.31 443.042 L
328.853 443.089 L
329.395 443.137 L
329.938 443.184 L
330.48 443.232 L
331.022 443.279 L
331.565 443.326 L
332.107 443.374 L
332.649 443.421 L
333.192 443.469 L
333.734 443.516 L
334.277 443.564 L
334.819 443.611 L
335.361 443.659 L
335.904 443.706 L
336.446 443.753 L
336.989 443.801 L
337.531 443.848 L
338.073 443.896 L
338.616 443.943 L
339.158 443.991 L
339.701 444.038 L
340.243 444.086 L
340.785 444.133 L
341.328 444.18 L
341.87 444.228 L
342.412 444.275 L
342.955 444.323 L
343.497 444.37 L
344.04 444.418 L
344.582 444.465 L
345.124 444.512 L
345.667 444.56 L
346.209 444.607 L
346.752 444.655 L
347.294 444.702 L
347.836 444.75 L
348.379 444.797 L
348.921 444.845 L
349.463 444.892 L
350.006 444.939 L
350.548 444.987 L
351.091 445.034 L
351.633 445.082 L
352.175 445.129 L
352.718 445.177 L
353.26 445.224 L
353.803 445.272 L
354.345 445.319 L
354.887 445.366 L
355.43 445.414 L
355.972 445.461 L
356.515 445.509 L
357.057 445.556 L
357.599 445.604 L
358.142 445.651 L
358.684 445.698 L
359.226 445.746 L
359.769 445.793 L
360.311 445.841 L
360.854 445.888 L
361.396 445.936 L
361.938 445.983 L
362.481 446.031 L
363.023 446.078 L
363.566 446.125 L
364.108 446.173 L
364.65 446.22 L
365.193 446.268 L
365.735 446.315 L
366.277 446.363 L
366.82 446.41 L
367.362 446.458 L
367.905 446.505 L
368.447 446.552 L
368.989 446.6 L
369.532 446.647 L
370.074 446.695 L
370.617 446.742 L
371.159 446.79 L
371.701 446.837 L
372.244 446.884 L
372.786 446.932 L
373.329 446.979 L
373.871 447.027 L
374.413 447.074 L
374.956 447.122 L
375.498 447.169 L
376.04 447.217 L
376.583 447.264 L
377.125 447.311 L
377.668 447.359 L
378.21 447.406 L
378.752 447.454 L
379.295 447.501 L
379.837 447.549 L
380.38 447.596 L
380.922 447.644 L
381.464 447.691 L
382.007 447.738 L
382.549 447.786 L
383.092 447.833 L
383.634 447.881 L
384.176 447.928 L
384.719 447.976 L
385.261 448.023 L
385.803 448.071 L
386.346 448.118 L
386.888 448.165 L
387.431 448.213 L
387.973 448.26 L
388.515 448.308 L
389.058 448.355 L
389.6 448.403 L
390.143 448.45 L
390.685 448.497 L
391.227 448.545 L
391.77 448.592 L
392.312 448.64 L
392.855 448.687 L
393.397 448.735 L
393.939 448.782 L
394.482 448.83 L
395.024 448.877 L
395.566 448.924 L
396.109 448.972 L
396.651 449.019 L
397.194 449.067 L
397.736 449.114 L
398.278 449.162 L
398.821 449.209 L
399.363 449.257 L
399.906 449.304 L
400.448 449.351 L
400.99 449.399 L
401.533 449.446 L
402.075 449.494 L
402.617 449.541 L
403.16 449.589 L
403.702 449.636 L
404.245 449.684 L
404.787 449.731 L
405.329 449.778 L
405.872 449.826 L
406.414 449.873 L
406.957 449.921 L
407.499 449.968 L
408.041 450.016 L
408.584 450.063 L
409.126 450.11 L
409.669 450.158 L
410.211 450.205 L
410.753 450.253 L
411.296 450.3 L
411.838 450.348 L
412.38 450.395 L
412.923 450.443 L
413.465 450.49 L
414.008 450.537 L
414.55 450.585 L
415.092 450.632 L
415.635 450.68 L
416.177 450.727 L
416.72 450.775 L
417.262 450.822 L
417.804 450.87 L
418.347 450.917 L
418.889 450.964 L
419.432 451.012 L
419.974 451.059 L
420.516 451.107 L
421.059 451.154 L
421.601 451.202 L
422.143 451.249 L
422.686 451.296 L
423.228 451.344 L
423.771 451.391 L
424.313 451.439 L
424.855 451.486 L
425.398 451.534 L
425.94 451.581 L
426.483 451.629 L
427.025 451.676 L
427.567 451.723 L
428.11 451.771 L
428.652 451.818 L
429.194 451.866 L
429.737 451.913 L
430.279 451.961 L
430.822 452.008 L
431.364 452.056 L
431.906 452.103 L
432.449 452.15 L
432.991 452.198 L
433.534 452.245 L
434.076 452.293 L
434.618 452.34 L
435.161 452.388 L
435.703 452.435 L
436.246 452.482 L
436.788 452.53 L
437.33 452.577 L
437.873 452.625 L
438.415 452.672 L
438.957 452.72 L
439.5 452.767 L
440.042 452.815 L
440.585 452.862 L
441.127 452.909 L
441.669 452.957 L
442.212 453.004 L
442.754 453.052 L
443.297 453.099 L
443.839 453.147 L
444.381 453.194 L
444.924 453.242 L
445.466 453.289 L
446.009 453.336 L
446.551 453.384 L
447.093 453.431 L
447.636 453.479 L
448.178 453.526 L
448.72 453.574 L
449.263 453.621 L
449.805 453.668 L
450.348 453.716 L
450.89 453.763 L
451.432 453.811 L
451.975 453.858 L
452.517 453.906 L
453.06 453.953 L
453.602 454.001 L
454.144 454.048 L
454.687 454.095 L
455.229 454.143 L
455.771 454.19 L
456.314 454.238 L
456.856 454.285 L
457.399 454.333 L
457.941 454.38 L
458.483 454.428 L
459.026 454.475 L
459.568 454.522 L
460.111 454.57 L
460.653 454.617 L
461.195 454.665 L
461.738 454.712 L
462.28 454.76 L
462.823 454.807 L
463.365 454.855 L
463.907 454.902 L
464.45 454.949 L
464.992 454.997 L
465.534 455.044 L
466.077 455.092 L
466.619 455.139 L
467.162 455.187 L
467.704 455.234 L
468.246 455.281 L
468.789 455.329 L
469.331 455.376 L
469.874 455.424 L
470.416 455.471 L
470.958 455.519 L
471.501 455.566 L
472.043 455.614 L
472.586 455.661 L
473.128 455.708 L
473.67 455.756 L
474.213 455.803 L
474.755 455.851 L
475.297 455.898 L
475.84 455.946 L
476.382 455.993 L
476.925 456.041 L
477.467 456.088 L
478.009 456.135 L
478.552 456.183 L
479.094 456.23 L
479.637 456.278 L
480.179 456.325 L
480.721 456.373 L
481.264 456.42 L
481.806 456.467 L
482.349 456.515 L
482.891 456.562 L
483.433 456.61 L
483.976 456.657 L
484.518 456.705 L
485.06 456.752 L
485.603 456.8 L
486.145 456.847 L
486.688 456.894 L
487.23 456.942 L
487.772 456.989 L
488.315 457.037 L
488.857 457.084 L
489.4 457.132 L
489.942 457.179 L
490.484 457.227 L
491.027 457.274 L
491.569 457.321 L
492.112 457.369 L
492.654 457.416 L
493.196 457.464 L
493.739 457.511 L
494.281 457.559 L
494.823 457.606 L
495.366 457.654 L
495.908 457.701 L
496.451 457.748 L
496.993 457.796 L
497.535 457.843 L
498.078 457.891 L
498.62 457.938 L
499.163 457.986 L
499.705 458.033 L
500.247 458.08 L
500.79 458.128 L
501.332 458.175 L
501.874 458.223 L
502.417 458.27 L
502.959 458.318 L
503.502 458.365 L
504.044 458.413 L
504.586 458.46 L
505.129 458.507 L
505.671 458.555 L
506.214 458.602 L
506.756 458.65 L
507.298 458.697 L
507.841 458.745 L
508.383 458.792 L
508.926 458.84 L
509.468 458.887 L
510.01 458.934 L
510.553 458.982 L
511.095 459.029 L
511.637 459.077 L
512.18 459.124 L
512.722 459.172 L
513.265 459.219 L
513.807 459.266 L
514.349 459.314 L
514.892 459.361 L
515.434 459.409 L
515.977 459.456 L
516.519 459.504 L
517.061 459.551 L
517.604 459.599 L
518.146 459.646 L
518.688 459.693 L
519.231 459.741 L
519.773 459.788 L
520.316 459.836 L
520.858 459.883 L
521.4 459.931 L
521.943 459.978 L
522.485 460.026 L
523.028 460.073 L
523.57 460.12 L
524.112 460.168 L
524.655 460.215 L
525.197 460.263 L
525.74 460.31 L
526.282 460.358 L
526.824 460.405 L
527.367 460.452 L
527.909 460.5 L
528.451 460.547 L
528.994 460.595 L
529.536 460.642 L
530.079 460.69 L
530.621 460.737 L
531.163 460.785 L
531.706 460.832 L
532.248 460.879 L
532.791 460.927 L
533.333 460.974 L
533.875 461.022 L
534.418 461.069 L
534.96 461.117 L
535.503 461.164 L
536.045 461.212 L
536.587 461.259 L
537.13 461.306 L
537.672 461.354 L
538.214 461.401 L
538.757 461.449 L
539.299 461.496 L
539.842 461.544 L
540.384 461.591 L
540.926 461.638 L
541.469 461.686 L
542.011 461.733 L
542.554 461.781 L
543.096 461.828 L
543.638 461.876 L
544.181 461.923 L
544.723 461.971 L
545.266 462.018 L
545.808 462.065 L
546.35 462.113 L
546.893 462.16 L
547.435 462.208 L
547.977 462.255 L
548.52 462.303 L
549.062 462.35 L
549.605 462.398 L
550.147 462.445 L
550.689 462.492 L
551.232 462.54 L
551.774 462.587 L
552.317 462.635 L
552.859 462.682 L
553.401 462.73 L
553.944 462.777 L
554.486 462.825 L
555.029 462.872 L
555.571 462.919 L
556.113 462.967 L
556.656 463.014 L
557.198 463.062 L
557.74 463.109 L
558.283 463.157 L
558.825 463.204 L
559.368 463.251 L
559.91 463.299 L
560.452 463.346 L
560.995 463.394 L
561.537 463.441 L
562.08 463.489 L
562.622 463.536 L
563.164 463.584 L
563.707 463.631 L
564.249 463.678 L
564.791 463.726 L
565.334 463.773 L
565.876 463.821 L
566.419 463.868 L
566.961 463.916 L
567.503 463.963 L
568.046 464.011 L
568.588 464.058 L
569.131 464.105 L
569.673 464.153 L
570.215 464.2 L
570.758 464.248 L
571.3 464.295 L
571.843 464.343 L
572.385 464.39 L
572.927 464.438 L
573.47 464.485 L
574.012 464.532 L
574.554 464.58 L
575.097 464.627 L
575.639 464.675 L
576.182 464.722 L
576.724 464.77 L
577.266 464.817 L
577.809 464.864 L
578.351 464.912 L
578.894 464.959 L
579.436 465.007 L
579.978 465.054 L
580.521 465.102 L
581.063 465.149 L
581.606 465.197 L
582.148 465.244 L
582.69 465.291 L
583.233 465.339 L
583.775 465.386 L
584.317 465.434 L
584.86 465.481 L
585.402 465.529 L
585.945 465.576 L
586.487 465.624 L
587.029 465.671 L
587.572 465.718 L
588.114 465.766 L
588.656 465.813 L
589.199 465.861 L
589.741 465.908 L
590.284 465.956 L
590.826 466.003 L
591.368 466.05 L
591.911 466.098 L
592.453 466.145 L
592.996 466.193 L
593.538 466.24 L
594.08 466.288 L
594.623 466.335 L
595.165 466.383 L
595.708 466.43 L
596.25 466.477 L
596.792 466.525 L
597.335 466.572 L
597.877 466.62 L
598.419 466.667 L
598.962 466.715 L
599.504 466.762 L
600.047 466.81 L
600.589 466.857 L
601.131 466.904 L
601.674 466.952 L
602.216 466.999 L
602.759 467.047 L
603.301 467.094 L
603.843 467.142 L
604.386 467.189 L
604.928 467.236 L
605.471 467.284 L
606.013 467.331 L
606.555 467.379 L
607.098 467.426 L
607.64 467.474 L
608.182 467.521 L
608.725 467.569 L
609.267 467.616 L
609.81 467.663 L
610.352 467.711 L
610.894 467.758 L
611.437 467.806 L
611.979 467.853 L
612.522 467.901 L
613.064 467.948 L
613.606 467.996 L
614.149 468.043 L
614.691 468.09 L
615.234 468.138 L
615.776 468.185 L
616.318 468.233 L
616.861 468.28 L
617.403 468.328 L
617.945 468.375 L
618.488 468.422 L
619.03 468.47 L
619.573 468.517 L
620.115 468.565 L
620.657 468.612 L
621.2 468.66 L
621.742 468.707 L
622.285 468.755 L
622.827 468.802 L
623.369 468.849 L
623.912 468.897 L
624.454 468.944 L
624.997 468.992 L
625.539 469.039 L
626.081 469.087 L
626.624 469.134 L
627.166 469.182 L
627.708 469.229 L
628.251 469.276 L
628.793 469.324 L
629.336 469.371 L
629.878 469.419 L
630.42 469.466 L
630.963 469.514 L
631.505 469.561 L
632.048 469.609 L
632.59 469.656 L
633.132 469.703 L
633.675 469.751 L
634.217 469.798 L
634.76 469.846 L
635.302 469.893 L
635.844 469.941 L
636.387 469.988 L
636.929 470.035 L
637.471 470.083 L
638.014 470.13 L
638.556 470.178 L
639.099 470.225 L
639.641 470.273 L
640.183 470.32 L
640.726 470.368 L
641.268 470.415 L
641.811 470.462 L
642.353 470.51 L
642.895 470.557 L
643.438 470.605 L
643.98 470.652 L
644.522 470.7 L
645.065 470.747 L
645.607 470.795 L
646.15 470.842 L
646.692 470.889 L
647.234 470.937 L
647.777 470.984 L
648.319 471.032 L
648.862 471.079 L
649.404 471.127 L
649.946 471.174 L
650.489 471.221 L
651.031 471.269 L
651.574 471.316 L
652.116 471.364 L
652.658 471.411 L
653.201 471.459 L
653.743 471.506 L
654.285 471.554 L
654.828 471.601 L
655.37 471.648 L
655.913 471.696 L
656.455 471.743 L
656.997 471.791 L
657.54 471.838 L
658.082 471.886 L
658.625 471.933 L
659.167 471.981 L
659.709 472.028 L
660.252 472.075 L
660.794 472.123 L
661.336 472.17 L
661.879 472.218 L
662.421 472.265 L
662.964 472.313 L
663.506 472.36 L
664.048 472.408 L
664.591 472.455 L
665.133 472.502 L
665.676 472.55 L
666.218 472.597 L
666.76 472.645 L
667.303 472.692 L
667.845 472.74 L
668.388 472.787 L
668.93 472.834 L
669.472 472.882 L
670.015 472.929 L
670.557 472.977 L
671.099 473.024 L
671.642 473.072 L
672.184 473.119 L
672.727 473.167 L
673.269 473.214 L
673.811 473.261 L
674.354 473.309 L
674.896 473.356 L
675.439 473.404 L
675.981 473.451 L
676.523 473.499 L
677.066 473.546 L
677.608 473.594 L
678.151 473.641 L
678.693 473.688 L
679.235 473.736 L
679.778 473.783 L
680.32 473.831 L
680.862 473.878 L
681.405 473.926 L
681.947 473.973 L
682.49 474.02 L
683.032 474.068 L
683.574 474.115 L
684.117 474.163 L
684.659 474.21 L
685.202 474.258 L
685.744 474.305 L
686.286 474.353 L
686.829 474.4 L
686.829 474.4 L
686.829 474.4 L
S
GR
GS
[0.5 0 0 0.5 0 0] CT
1 GC
N
744 417 M
744 358 L
523 358 L
523 417 L
cp
f
GR
GS
[0.5 0 0 0.5 296.5 191.5] CT
/Helvetica 16.2 F
GS
[1 0 0 1 0 0] CT
0 0 moveto 
1 -1 scale
(Sharpness [rad.m) t 
GR
GR
GS
[0.5 0 0 0.5 360.5 187.5] CT
/Helvetica 12.96 F
GS
[1 0 0 1 0 0] CT
0 0 moveto 
1 -1 scale
(-2) t 
GR
GR
GS
[0.5 0 0 0.5 366.5 191.5] CT
/Helvetica 16.2 F
GS
[1 0 0 1 0 0] CT
0 0 moveto 
1 -1 scale
(]) t 
GR
GR
GS
[0.5 0 0 0.5 0 0] CT
1 0 0 RC
1 LJ
N
528.986 374.068 M
588.851 374.068 L
S
GR
GS
[0.5 0 0 0.5 296.5 205] CT
/Helvetica 16.2 F
GS
[1 0 0 1 0 0] CT
0 0 moveto 
1 -1 scale
(Curvature [rad.m) t 
GR
GR
GS
[0.5 0 0 0.5 357.5 201] CT
/Helvetica 12.96 F
GS
[1 0 0 1 0 0] CT
0 0 moveto 
1 -1 scale
(-1) t 
GR
GR
GS
[0.5 0 0 0.5 363.5 205] CT
/Helvetica 16.2 F
GS
[1 0 0 1 0 0] CT
0 0 moveto 
1 -1 scale
(]) t 
GR
GR
GS
[0.5 0 0 0.5 0 0] CT
0 1 0 RC
1 LJ
N
528.986 400.932 M
588.851 400.932 L
S
GR
GS
[0.5 0 0 0.5 0 0] CT
0.149 GC
10.0 ML
N
523 417 M
523 358 L
744 358 L
744 417 L
cp
S
GR
%%Trailer
%%Pages: 1
%%EOF
