%!PS-Adobe-3.0 EPSF-3.0
%%Creator: (MATLAB, The Mathworks, Inc. Version 9.5.0.944444 \(R2018b\). Operating System: Windows 10)
%%Title: C:/Users/Ed/git_clones/clothoid-composition-method/Exploration/straightlinesUnitary-8-6-60.eps
%%CreationDate: 2019-11-19T17:13:35
%%Pages: (atend)
%%BoundingBox: 0 0 605 460
%%LanguageLevel: 3
%%EndComments
%%BeginProlog
%%BeginResource: procset (Apache XML Graphics Std ProcSet) 1.2 0
%%Version: 1.2 0
%%Copyright: (Copyright 2001-2003,2010 The Apache Software Foundation. License terms: http://www.apache.org/licenses/LICENSE-2.0)
/bd{bind def}bind def
/ld{load def}bd
/GR/grestore ld
/GS/gsave ld
/RM/rmoveto ld
/C/curveto ld
/t/show ld
/L/lineto ld
/ML/setmiterlimit ld
/CT/concat ld
/f/fill ld
/N/newpath ld
/S/stroke ld
/CC/setcmykcolor ld
/A/ashow ld
/cp/closepath ld
/RC/setrgbcolor ld
/LJ/setlinejoin ld
/GC/setgray ld
/LW/setlinewidth ld
/M/moveto ld
/re {4 2 roll M
1 index 0 rlineto
0 exch rlineto
neg 0 rlineto
cp } bd
/_ctm matrix def
/_tm matrix def
/BT { _ctm currentmatrix pop matrix _tm copy pop 0 0 moveto } bd
/ET { _ctm setmatrix } bd
/iTm { _ctm setmatrix _tm concat } bd
/Tm { _tm astore pop iTm 0 0 moveto } bd
/ux 0.0 def
/uy 0.0 def
/F {
  /Tp exch def
  /Tf exch def
  Tf findfont Tp scalefont setfont
  /cf Tf def  /cs Tp def
} bd
/ULS {currentpoint /uy exch def /ux exch def} bd
/ULE {
  /Tcx currentpoint pop def
  gsave
  newpath
  cf findfont cs scalefont dup
  /FontMatrix get 0 get /Ts exch def /FontInfo get dup
  /UnderlinePosition get Ts mul /To exch def
  /UnderlineThickness get Ts mul /Tt exch def
  ux uy To add moveto  Tcx uy To add lineto
  Tt setlinewidth stroke
  grestore
} bd
/OLE {
  /Tcx currentpoint pop def
  gsave
  newpath
  cf findfont cs scalefont dup
  /FontMatrix get 0 get /Ts exch def /FontInfo get dup
  /UnderlinePosition get Ts mul /To exch def
  /UnderlineThickness get Ts mul /Tt exch def
  ux uy To add cs add moveto Tcx uy To add cs add lineto
  Tt setlinewidth stroke
  grestore
} bd
/SOE {
  /Tcx currentpoint pop def
  gsave
  newpath
  cf findfont cs scalefont dup
  /FontMatrix get 0 get /Ts exch def /FontInfo get dup
  /UnderlinePosition get Ts mul /To exch def
  /UnderlineThickness get Ts mul /Tt exch def
  ux uy To add cs 10 mul 26 idiv add moveto Tcx uy To add cs 10 mul 26 idiv add lineto
  Tt setlinewidth stroke
  grestore
} bd
/QT {
/Y22 exch store
/X22 exch store
/Y21 exch store
/X21 exch store
currentpoint
/Y21 load 2 mul add 3 div exch
/X21 load 2 mul add 3 div exch
/X21 load 2 mul /X22 load add 3 div
/Y21 load 2 mul /Y22 load add 3 div
/X22 load /Y22 load curveto
} bd
/SSPD {
dup length /d exch dict def
{
/v exch def
/k exch def
currentpagedevice k known {
/cpdv currentpagedevice k get def
v cpdv ne {
/upd false def
/nullv v type /nulltype eq def
/nullcpdv cpdv type /nulltype eq def
nullv nullcpdv or
{
/upd true def
} {
/sametype v type cpdv type eq def
sametype {
v type /arraytype eq {
/vlen v length def
/cpdvlen cpdv length def
vlen cpdvlen eq {
0 1 vlen 1 sub {
/i exch def
/obj v i get def
/cpdobj cpdv i get def
obj cpdobj ne {
/upd true def
exit
} if
} for
} {
/upd true def
} ifelse
} {
v type /dicttype eq {
v {
/dv exch def
/dk exch def
/cpddv cpdv dk get def
dv cpddv ne {
/upd true def
exit
} if
} forall
} {
/upd true def
} ifelse
} ifelse
} if
} ifelse
upd true eq {
d k v put
} if
} if
} if
} forall
d length 0 gt {
d setpagedevice
} if
} bd
/RE { % /NewFontName [NewEncodingArray] /FontName RE -
  findfont dup length dict begin
  {
    1 index /FID ne
    {def} {pop pop} ifelse
  } forall
  /Encoding exch def
  /FontName 1 index def
  currentdict definefont pop
  end
} bind def
%%EndResource
%%BeginResource: procset (Apache XML Graphics EPS ProcSet) 1.0 0
%%Version: 1.0 0
%%Copyright: (Copyright 2002-2003 The Apache Software Foundation. License terms: http://www.apache.org/licenses/LICENSE-2.0)
/BeginEPSF { %def
/b4_Inc_state save def         % Save state for cleanup
/dict_count countdictstack def % Count objects on dict stack
/op_count count 1 sub def      % Count objects on operand stack
userdict begin                 % Push userdict on dict stack
/showpage { } def              % Redefine showpage, { } = null proc
0 setgray 0 setlinecap         % Prepare graphics state
1 setlinewidth 0 setlinejoin
10 setmiterlimit [ ] 0 setdash newpath
/languagelevel where           % If level not equal to 1 then
{pop languagelevel             % set strokeadjust and
1 ne                           % overprint to their defaults.
{false setstrokeadjust false setoverprint
} if
} if
} bd
/EndEPSF { %def
count op_count sub {pop} repeat            % Clean up stacks
countdictstack dict_count sub {end} repeat
b4_Inc_state restore
} bd
%%EndResource
%FOPBeginFontDict
%%IncludeResource: font Courier-Oblique
%%IncludeResource: font Courier-BoldOblique
%%IncludeResource: font Courier-Bold
%%IncludeResource: font ZapfDingbats
%%IncludeResource: font Symbol
%%IncludeResource: font Helvetica
%%IncludeResource: font Helvetica-Oblique
%%IncludeResource: font Helvetica-Bold
%%IncludeResource: font Helvetica-BoldOblique
%%IncludeResource: font Times-Roman
%%IncludeResource: font Times-Italic
%%IncludeResource: font Times-Bold
%%IncludeResource: font Times-BoldItalic
%%IncludeResource: font Courier
%FOPEndFontDict
%%BeginResource: encoding WinAnsiEncoding
/WinAnsiEncoding [
/.notdef /.notdef /.notdef /.notdef /.notdef
/.notdef /.notdef /.notdef /.notdef /.notdef
/.notdef /.notdef /.notdef /.notdef /.notdef
/.notdef /.notdef /.notdef /.notdef /.notdef
/.notdef /.notdef /.notdef /.notdef /.notdef
/.notdef /.notdef /.notdef /.notdef /.notdef
/.notdef /.notdef /space /exclam /quotedbl
/numbersign /dollar /percent /ampersand /quotesingle
/parenleft /parenright /asterisk /plus /comma
/hyphen /period /slash /zero /one
/two /three /four /five /six
/seven /eight /nine /colon /semicolon
/less /equal /greater /question /at
/A /B /C /D /E
/F /G /H /I /J
/K /L /M /N /O
/P /Q /R /S /T
/U /V /W /X /Y
/Z /bracketleft /backslash /bracketright /asciicircum
/underscore /quoteleft /a /b /c
/d /e /f /g /h
/i /j /k /l /m
/n /o /p /q /r
/s /t /u /v /w
/x /y /z /braceleft /bar
/braceright /asciitilde /bullet /Euro /bullet
/quotesinglbase /florin /quotedblbase /ellipsis /dagger
/daggerdbl /circumflex /perthousand /Scaron /guilsinglleft
/OE /bullet /Zcaron /bullet /bullet
/quoteleft /quoteright /quotedblleft /quotedblright /bullet
/endash /emdash /asciitilde /trademark /scaron
/guilsinglright /oe /bullet /zcaron /Ydieresis
/space /exclamdown /cent /sterling /currency
/yen /brokenbar /section /dieresis /copyright
/ordfeminine /guillemotleft /logicalnot /sfthyphen /registered
/macron /degree /plusminus /twosuperior /threesuperior
/acute /mu /paragraph /middot /cedilla
/onesuperior /ordmasculine /guillemotright /onequarter /onehalf
/threequarters /questiondown /Agrave /Aacute /Acircumflex
/Atilde /Adieresis /Aring /AE /Ccedilla
/Egrave /Eacute /Ecircumflex /Edieresis /Igrave
/Iacute /Icircumflex /Idieresis /Eth /Ntilde
/Ograve /Oacute /Ocircumflex /Otilde /Odieresis
/multiply /Oslash /Ugrave /Uacute /Ucircumflex
/Udieresis /Yacute /Thorn /germandbls /agrave
/aacute /acircumflex /atilde /adieresis /aring
/ae /ccedilla /egrave /eacute /ecircumflex
/edieresis /igrave /iacute /icircumflex /idieresis
/eth /ntilde /ograve /oacute /ocircumflex
/otilde /odieresis /divide /oslash /ugrave
/uacute /ucircumflex /udieresis /yacute /thorn
/ydieresis
] def
%%EndResource
%FOPBeginFontReencode
/Courier-Oblique findfont
dup length dict begin
  {1 index /FID ne {def} {pop pop} ifelse} forall
  /Encoding WinAnsiEncoding def
  currentdict
end
/Courier-Oblique exch definefont pop
/Courier-BoldOblique findfont
dup length dict begin
  {1 index /FID ne {def} {pop pop} ifelse} forall
  /Encoding WinAnsiEncoding def
  currentdict
end
/Courier-BoldOblique exch definefont pop
/Courier-Bold findfont
dup length dict begin
  {1 index /FID ne {def} {pop pop} ifelse} forall
  /Encoding WinAnsiEncoding def
  currentdict
end
/Courier-Bold exch definefont pop
/Helvetica findfont
dup length dict begin
  {1 index /FID ne {def} {pop pop} ifelse} forall
  /Encoding WinAnsiEncoding def
  currentdict
end
/Helvetica exch definefont pop
/Helvetica-Oblique findfont
dup length dict begin
  {1 index /FID ne {def} {pop pop} ifelse} forall
  /Encoding WinAnsiEncoding def
  currentdict
end
/Helvetica-Oblique exch definefont pop
/Helvetica-Bold findfont
dup length dict begin
  {1 index /FID ne {def} {pop pop} ifelse} forall
  /Encoding WinAnsiEncoding def
  currentdict
end
/Helvetica-Bold exch definefont pop
/Helvetica-BoldOblique findfont
dup length dict begin
  {1 index /FID ne {def} {pop pop} ifelse} forall
  /Encoding WinAnsiEncoding def
  currentdict
end
/Helvetica-BoldOblique exch definefont pop
/Times-Roman findfont
dup length dict begin
  {1 index /FID ne {def} {pop pop} ifelse} forall
  /Encoding WinAnsiEncoding def
  currentdict
end
/Times-Roman exch definefont pop
/Times-Italic findfont
dup length dict begin
  {1 index /FID ne {def} {pop pop} ifelse} forall
  /Encoding WinAnsiEncoding def
  currentdict
end
/Times-Italic exch definefont pop
/Times-Bold findfont
dup length dict begin
  {1 index /FID ne {def} {pop pop} ifelse} forall
  /Encoding WinAnsiEncoding def
  currentdict
end
/Times-Bold exch definefont pop
/Times-BoldItalic findfont
dup length dict begin
  {1 index /FID ne {def} {pop pop} ifelse} forall
  /Encoding WinAnsiEncoding def
  currentdict
end
/Times-BoldItalic exch definefont pop
/Courier findfont
dup length dict begin
  {1 index /FID ne {def} {pop pop} ifelse} forall
  /Encoding WinAnsiEncoding def
  currentdict
end
/Courier exch definefont pop
%FOPEndFontReencode
%%EndProlog
%%Page: 1 1
%%PageBoundingBox: 0 0 605 460
%%BeginPageSetup
[1 0 0 -1 0 460] CT
%%EndPageSetup
GS
[0.75 0 0 0.75 0 0.25] CT
N
0 0 M
807 0 L
807 613 L
0 613 L
0 0 L
cp
clip
1 GC
N
0 0 807 613 re
f
GR
GS
[0.75 0 0 0.75 0 0.25] CT
1 GC
N
0 0 807 613 re
f
GR
GS
[0.75 0 0 0.75 0 0.25] CT
1 GC
N
105 253.674 M
730 253.674 L
730 47.326 L
105 47.326 L
cp
f
GR
GS
[0.75 0 0 0.75 0 0.25] CT
0.149 GC
2 setlinecap
1 LJ
0.667 LW
N
105 253.674 M
730 253.674 L
S
GR
GS
[0.75 0 0 0.75 0 0.25] CT
0.149 GC
2 setlinecap
1 LJ
0.667 LW
N
128.306 253.674 M
128.306 247.424 L
S
GR
GS
[0.75 0 0 0.75 0 0.25] CT
0.149 GC
2 setlinecap
1 LJ
0.667 LW
N
187.423 253.674 M
187.423 247.424 L
S
GR
GS
[0.75 0 0 0.75 0 0.25] CT
0.149 GC
2 setlinecap
1 LJ
0.667 LW
N
246.54 253.674 M
246.54 247.424 L
S
GR
GS
[0.75 0 0 0.75 0 0.25] CT
0.149 GC
2 setlinecap
1 LJ
0.667 LW
N
305.656 253.674 M
305.656 247.424 L
S
GR
GS
[0.75 0 0 0.75 0 0.25] CT
0.149 GC
2 setlinecap
1 LJ
0.667 LW
N
364.773 253.674 M
364.773 247.424 L
S
GR
GS
[0.75 0 0 0.75 0 0.25] CT
0.149 GC
2 setlinecap
1 LJ
0.667 LW
N
423.89 253.674 M
423.89 247.424 L
S
GR
GS
[0.75 0 0 0.75 0 0.25] CT
0.149 GC
2 setlinecap
1 LJ
0.667 LW
N
483.007 253.674 M
483.007 247.424 L
S
GR
GS
[0.75 0 0 0.75 0 0.25] CT
0.149 GC
2 setlinecap
1 LJ
0.667 LW
N
542.123 253.674 M
542.123 247.424 L
S
GR
GS
[0.75 0 0 0.75 0 0.25] CT
0.149 GC
2 setlinecap
1 LJ
0.667 LW
N
601.24 253.674 M
601.24 247.424 L
S
GR
GS
[0.75 0 0 0.75 0 0.25] CT
0.149 GC
2 setlinecap
1 LJ
0.667 LW
N
660.357 253.674 M
660.357 247.424 L
S
GR
GS
[0.75 0 0 0.75 0 0.25] CT
0.149 GC
2 setlinecap
1 LJ
0.667 LW
N
719.473 253.674 M
719.473 247.424 L
S
GR
GS
[0.75 0 0 0.75 96.22959 194.50568] CT
0.149 GC
/Helvetica 13.333 F
GS
[1 0 0 1 0 0] CT
-6 14 moveto 
1 -1 scale
(-6) t 
GR
GR
GS
[0.75 0 0 0.75 140.56714 194.50568] CT
0.149 GC
/Helvetica 13.333 F
GS
[1 0 0 1 0 0] CT
-6 14 moveto 
1 -1 scale
(-4) t 
GR
GR
GS
[0.75 0 0 0.75 184.90469 194.50568] CT
0.149 GC
/Helvetica 13.333 F
GS
[1 0 0 1 0 0] CT
-6 14 moveto 
1 -1 scale
(-2) t 
GR
GR
GS
[0.75 0 0 0.75 229.24223 194.50568] CT
0.149 GC
/Helvetica 13.333 F
GS
[1 0 0 1 0 0] CT
-4 14 moveto 
1 -1 scale
(0) t 
GR
GR
GS
[0.75 0 0 0.75 273.57978 194.50568] CT
0.149 GC
/Helvetica 13.333 F
GS
[1 0 0 1 0 0] CT
-4 14 moveto 
1 -1 scale
(2) t 
GR
GR
GS
[0.75 0 0 0.75 317.91733 194.50568] CT
0.149 GC
/Helvetica 13.333 F
GS
[1 0 0 1 0 0] CT
-4 14 moveto 
1 -1 scale
(4) t 
GR
GR
GS
[0.75 0 0 0.75 362.25488 194.50568] CT
0.149 GC
/Helvetica 13.333 F
GS
[1 0 0 1 0 0] CT
-4 14 moveto 
1 -1 scale
(6) t 
GR
GR
GS
[0.75 0 0 0.75 406.59242 194.50568] CT
0.149 GC
/Helvetica 13.333 F
GS
[1 0 0 1 0 0] CT
-4 14 moveto 
1 -1 scale
(8) t 
GR
GR
GS
[0.75 0 0 0.75 450.92999 194.50568] CT
0.149 GC
/Helvetica 13.333 F
GS
[1 0 0 1 0 0] CT
-7.5 14 moveto 
1 -1 scale
(10) t 
GR
GR
GS
[0.75 0 0 0.75 495.26752 194.50568] CT
0.149 GC
/Helvetica 13.333 F
GS
[1 0 0 1 0 0] CT
-7.5 14 moveto 
1 -1 scale
(12) t 
GR
GR
GS
[0.75 0 0 0.75 539.60509 194.50568] CT
0.149 GC
/Helvetica 13.333 F
GS
[1 0 0 1 0 0] CT
-7.5 14 moveto 
1 -1 scale
(14) t 
GR
GR
GS
[0.75 0 0 0.75 313.12523 208.25568] CT
0.149 GC
/Helvetica 14.667 F
GS
[1 0 0 1 0 0] CT
-14 15 moveto 
1 -1 scale
(x[m]) t 
GR
GR
GS
[0.75 0 0 0.75 0 0.25] CT
0.149 GC
2 setlinecap
1 LJ
0.667 LW
N
105 253.674 M
105 47.326 L
S
GR
GS
[0.75 0 0 0.75 0 0.25] CT
0.149 GC
2 setlinecap
1 LJ
0.667 LW
N
105 241.503 M
111.25 241.503 L
S
GR
GS
[0.75 0 0 0.75 0 0.25] CT
0.149 GC
2 setlinecap
1 LJ
0.667 LW
N
105 211.945 M
111.25 211.945 L
S
GR
GS
[0.75 0 0 0.75 0 0.25] CT
0.149 GC
2 setlinecap
1 LJ
0.667 LW
N
105 182.386 M
111.25 182.386 L
S
GR
GS
[0.75 0 0 0.75 0 0.25] CT
0.149 GC
2 setlinecap
1 LJ
0.667 LW
N
105 152.828 M
111.25 152.828 L
S
GR
GS
[0.75 0 0 0.75 0 0.25] CT
0.149 GC
2 setlinecap
1 LJ
0.667 LW
N
105 123.269 M
111.25 123.269 L
S
GR
GS
[0.75 0 0 0.75 0 0.25] CT
0.149 GC
2 setlinecap
1 LJ
0.667 LW
N
105 93.711 M
111.25 93.711 L
S
GR
GS
[0.75 0 0 0.75 0 0.25] CT
0.149 GC
2 setlinecap
1 LJ
0.667 LW
N
105 64.153 M
111.25 64.153 L
S
GR
GS
[0.75 0 0 0.75 74.75 181.37717] CT
0.149 GC
/Helvetica 13.333 F
GS
[1 0 0 1 0 0] CT
-8 5.5 moveto 
1 -1 scale
(0) t 
GR
GR
GS
[0.75 0 0 0.75 74.75 159.2084] CT
0.149 GC
/Helvetica 13.333 F
GS
[1 0 0 1 0 0] CT
-8 5.5 moveto 
1 -1 scale
(1) t 
GR
GR
GS
[0.75 0 0 0.75 74.75 137.03963] CT
0.149 GC
/Helvetica 13.333 F
GS
[1 0 0 1 0 0] CT
-8 5.5 moveto 
1 -1 scale
(2) t 
GR
GR
GS
[0.75 0 0 0.75 74.75 114.87085] CT
0.149 GC
/Helvetica 13.333 F
GS
[1 0 0 1 0 0] CT
-8 5.5 moveto 
1 -1 scale
(3) t 
GR
GR
GS
[0.75 0 0 0.75 74.75 92.70208] CT
0.149 GC
/Helvetica 13.333 F
GS
[1 0 0 1 0 0] CT
-8 5.5 moveto 
1 -1 scale
(4) t 
GR
GR
GS
[0.75 0 0 0.75 74.75 70.53331] CT
0.149 GC
/Helvetica 13.333 F
GS
[1 0 0 1 0 0] CT
-8 5.5 moveto 
1 -1 scale
(5) t 
GR
GR
GS
[0.75 0 0 0.75 74.75 48.36453] CT
0.149 GC
/Helvetica 13.333 F
GS
[1 0 0 1 0 0] CT
-8 5.5 moveto 
1 -1 scale
(6) t 
GR
GR
GS
[0 -0.75 0.75 0 65.75 113.12493] CT
0.149 GC
/Helvetica 14.667 F
GS
[1 0 0 1 0 0] CT
-14 -4 moveto 
1 -1 scale
(y[m]) t 
GR
GR
GS
[0.75 0 0 0.75 228.75 26.5] CT
/Helvetica-Bold 14.667 F
GS
[1 0 0 1 0 0] CT
0 0 moveto 
1 -1 scale
(X) t 
GR
GR
GS
[0.75 0 0 0.75 236.25 31.75] CT
/Helvetica-Bold 11.733 F
GS
[1 0 0 1 0 0] CT
0 0 moveto 
1 -1 scale
(G) t 
GR
GR
GS
[0.75 0 0 0.75 243.75 26.5] CT
/Helvetica-Bold 14.667 F
GS
[1 0 0 1 0 0] CT
0 0 moveto 
1 -1 scale
( =[8           6      1.0472           0]) t 
GR
GR
GS
[0.75 0 0 0.75 229.2423 181.37717] CT
0 0 1 RC
10.0 ML
N
4 0 M
4 -2.209 2.209 -4 0 -4 C
-2.209 -4 -4 -2.209 -4 0 C
-4 2.209 -2.209 4 0 4 C
2.209 4 4 2.209 4 0 C
cp
S
GR
GS
[0.75 0 0 0.75 306.70196 170.75076] CT
0 0 1 RC
10.0 ML
N
4 0 M
4 -2.209 2.209 -4 0 -4 C
-2.209 -4 -4 -2.209 -4 0 C
-4 2.209 -2.209 4 0 4 C
2.209 4 4 2.209 4 0 C
cp
S
GR
GS
[0.75 0 0 0.75 387.49013 81.4507] CT
0 0 1 RC
10.0 ML
N
4 0 M
4 -2.209 2.209 -4 0 -4 C
-2.209 -4 -4 -2.209 -4 0 C
-4 2.209 -2.209 4 0 4 C
2.209 4 4 2.209 4 0 C
cp
S
GR
GS
[0.75 0 0 0.75 406.59242 48.36453] CT
0 0 1 RC
10.0 ML
N
4 0 M
4 -2.209 2.209 -4 0 -4 C
-2.209 -4 -4 -2.209 -4 0 C
-4 2.209 -2.209 4 0 4 C
2.209 4 4 2.209 4 0 C
cp
S
GR
GS
[0.75 0 0 0.75 0 0.25] CT
0 0.447 0.741 RC
1 LJ
0.667 LW
N
305.656 241.503 M
305.656 241.503 L
305.656 241.503 L
305.951 241.503 L
306.246 241.503 L
306.541 241.503 L
306.836 241.503 L
307.132 241.503 L
307.427 241.503 L
307.722 241.503 L
308.017 241.503 L
308.312 241.503 L
308.607 241.503 L
308.902 241.502 L
309.197 241.502 L
309.492 241.502 L
309.787 241.502 L
310.082 241.502 L
310.377 241.501 L
310.672 241.501 L
310.967 241.501 L
311.262 241.501 L
311.557 241.5 L
311.852 241.5 L
312.147 241.499 L
312.442 241.499 L
312.737 241.498 L
313.032 241.498 L
313.327 241.497 L
313.622 241.496 L
313.917 241.496 L
314.212 241.495 L
314.507 241.494 L
314.802 241.493 L
315.097 241.492 L
315.392 241.491 L
315.687 241.49 L
315.982 241.489 L
316.277 241.487 L
316.572 241.486 L
316.867 241.485 L
317.162 241.483 L
317.457 241.482 L
317.752 241.48 L
318.047 241.479 L
318.342 241.477 L
318.637 241.475 L
318.932 241.473 L
319.227 241.471 L
319.522 241.469 L
319.817 241.467 L
320.112 241.464 L
320.407 241.462 L
320.702 241.46 L
320.997 241.457 L
321.292 241.454 L
321.587 241.451 L
321.882 241.449 L
322.177 241.446 L
322.472 241.442 L
322.767 241.439 L
323.062 241.436 L
323.357 241.433 L
323.652 241.429 L
323.947 241.425 L
324.242 241.422 L
324.537 241.418 L
324.832 241.414 L
325.127 241.409 L
325.422 241.405 L
325.717 241.401 L
326.012 241.396 L
326.307 241.392 L
326.602 241.387 L
326.897 241.382 L
327.192 241.377 L
327.487 241.371 L
327.782 241.366 L
328.077 241.361 L
328.372 241.355 L
328.667 241.349 L
328.962 241.343 L
329.257 241.337 L
329.552 241.331 L
329.847 241.324 L
330.142 241.318 L
330.437 241.311 L
330.732 241.304 L
331.027 241.297 L
331.322 241.29 L
331.617 241.283 L
331.912 241.275 L
332.207 241.267 L
332.501 241.259 L
332.796 241.251 L
333.091 241.243 L
333.386 241.235 L
333.681 241.226 L
333.976 241.217 L
334.271 241.208 L
334.566 241.199 L
334.861 241.19 L
335.155 241.18 L
335.45 241.171 L
335.745 241.161 L
336.04 241.151 L
336.335 241.14 L
336.63 241.13 L
336.925 241.119 L
337.219 241.108 L
337.514 241.097 L
337.809 241.086 L
338.104 241.074 L
338.399 241.062 L
338.693 241.05 L
338.988 241.038 L
339.283 241.026 L
339.578 241.013 L
339.872 241 L
340.167 240.987 L
340.462 240.974 L
340.757 240.961 L
341.051 240.947 L
341.346 240.933 L
341.641 240.919 L
341.935 240.904 L
342.23 240.89 L
342.525 240.875 L
342.819 240.86 L
343.114 240.844 L
343.408 240.829 L
343.703 240.813 L
343.998 240.797 L
344.292 240.78 L
344.587 240.764 L
344.881 240.747 L
345.176 240.73 L
345.47 240.712 L
345.765 240.695 L
346.059 240.677 L
346.354 240.659 L
346.648 240.64 L
346.943 240.622 L
347.237 240.603 L
347.531 240.584 L
347.826 240.564 L
348.12 240.544 L
348.415 240.524 L
348.709 240.504 L
349.003 240.483 L
349.297 240.463 L
349.592 240.441 L
349.886 240.42 L
350.18 240.398 L
350.474 240.376 L
350.769 240.354 L
351.063 240.331 L
351.357 240.308 L
351.651 240.285 L
351.945 240.262 L
352.239 240.238 L
352.533 240.214 L
352.827 240.19 L
353.121 240.165 L
353.415 240.14 L
353.709 240.115 L
354.003 240.089 L
354.297 240.063 L
354.591 240.037 L
354.884 240.01 L
355.178 239.983 L
355.472 239.956 L
355.766 239.929 L
356.06 239.901 L
356.353 239.873 L
356.647 239.844 L
356.94 239.815 L
357.234 239.786 L
357.528 239.757 L
357.821 239.727 L
358.115 239.697 L
358.408 239.666 L
358.701 239.635 L
358.995 239.604 L
359.288 239.573 L
359.581 239.541 L
359.875 239.509 L
360.168 239.476 L
360.461 239.443 L
360.754 239.41 L
361.047 239.376 L
361.34 239.342 L
361.633 239.308 L
361.926 239.273 L
362.219 239.238 L
362.512 239.203 L
362.805 239.167 L
363.098 239.131 L
363.391 239.094 L
363.683 239.057 L
363.976 239.02 L
364.269 238.982 L
364.561 238.944 L
364.854 238.906 L
365.146 238.867 L
365.438 238.828 L
365.731 238.788 L
366.023 238.748 L
366.315 238.708 L
366.608 238.667 L
366.9 238.626 L
367.192 238.585 L
367.484 238.543 L
367.776 238.501 L
368.068 238.458 L
368.36 238.415 L
368.651 238.371 L
368.943 238.327 L
369.235 238.283 L
369.526 238.238 L
369.818 238.193 L
370.109 238.148 L
370.401 238.102 L
370.692 238.055 L
370.983 238.008 L
371.275 237.961 L
371.566 237.914 L
371.857 237.866 L
372.148 237.817 L
372.439 237.768 L
372.73 237.719 L
373.021 237.669 L
373.311 237.619 L
373.602 237.568 L
373.892 237.517 L
374.183 237.466 L
374.473 237.414 L
374.764 237.361 L
375.054 237.309 L
375.344 237.255 L
375.634 237.202 L
375.924 237.147 L
376.214 237.093 L
376.504 237.038 L
376.794 236.982 L
377.083 236.926 L
377.373 236.87 L
377.663 236.813 L
377.952 236.756 L
378.241 236.698 L
378.53 236.64 L
378.82 236.581 L
379.109 236.522 L
379.398 236.462 L
379.686 236.402 L
379.975 236.341 L
380.264 236.28 L
380.552 236.219 L
380.841 236.157 L
381.129 236.094 L
381.417 236.031 L
381.705 235.968 L
381.993 235.904 L
382.281 235.839 L
382.569 235.775 L
382.857 235.709 L
383.144 235.643 L
383.432 235.577 L
383.719 235.51 L
384.006 235.443 L
384.293 235.375 L
384.58 235.306 L
384.867 235.238 L
385.154 235.168 L
385.441 235.098 L
385.727 235.028 L
386.014 234.957 L
386.3 234.886 L
386.586 234.814 L
386.872 234.741 L
387.158 234.668 L
387.444 234.595 L
387.729 234.521 L
388.015 234.447 L
388.3 234.372 L
388.585 234.296 L
388.87 234.22 L
389.155 234.143 L
389.44 234.066 L
389.725 233.989 L
390.009 233.911 L
390.293 233.832 L
390.578 233.753 L
390.862 233.673 L
391.145 233.593 L
391.429 233.512 L
391.713 233.431 L
391.996 233.349 L
392.279 233.266 L
392.563 233.183 L
392.846 233.1 L
393.128 233.016 L
393.411 232.931 L
393.693 232.846 L
393.976 232.76 L
394.258 232.674 L
394.54 232.587 L
394.822 232.5 L
395.103 232.412 L
395.385 232.323 L
395.666 232.234 L
395.947 232.145 L
396.228 232.055 L
396.509 231.964 L
396.789 231.873 L
397.07 231.781 L
397.35 231.688 L
397.63 231.595 L
397.91 231.502 L
398.189 231.408 L
398.469 231.313 L
398.748 231.218 L
399.027 231.122 L
399.306 231.025 L
399.584 230.928 L
399.863 230.831 L
400.141 230.732 L
400.419 230.634 L
400.697 230.534 L
400.974 230.434 L
401.252 230.334 L
401.529 230.233 L
401.806 230.131 L
402.082 230.029 L
402.359 229.926 L
402.635 229.822 L
402.911 229.718 L
403.187 229.614 L
403.463 229.508 L
403.738 229.403 L
404.013 229.296 L
404.288 229.189 L
404.563 229.081 L
404.837 228.973 L
405.111 228.864 L
405.385 228.755 L
405.659 228.645 L
405.932 228.534 L
406.206 228.423 L
406.479 228.311 L
406.751 228.198 L
407.024 228.085 L
407.296 227.971 L
407.568 227.857 L
407.84 227.742 L
408.111 227.626 L
408.382 227.51 L
408.653 227.393 L
408.924 227.276 L
409.194 227.157 L
409.464 227.039 L
409.734 226.919 L
410.004 226.799 L
410.273 226.679 L
410.542 226.557 L
410.811 226.436 L
411.08 226.313 L
411.348 226.19 L
411.616 226.066 L
411.883 225.942 L
412.151 225.817 L
412.418 225.692 L
412.685 225.566 L
412.951 225.439 L
413.218 225.312 L
413.484 225.184 L
413.749 225.055 L
414.015 224.926 L
414.28 224.797 L
414.545 224.666 L
414.809 224.536 L
415.073 224.404 L
415.337 224.272 L
415.601 224.14 L
415.864 224.007 L
416.128 223.873 L
416.39 223.739 L
416.653 223.604 L
416.915 223.468 L
417.177 223.332 L
417.439 223.196 L
417.7 223.059 L
417.961 222.921 L
418.222 222.783 L
418.482 222.644 L
418.742 222.504 L
419.002 222.364 L
419.262 222.224 L
419.521 222.083 L
419.78 221.941 L
420.038 221.799 L
420.297 221.656 L
420.555 221.513 L
420.812 221.369 L
421.07 221.225 L
421.327 221.08 L
421.584 220.935 L
421.84 220.789 L
422.096 220.642 L
422.352 220.495 L
422.608 220.348 L
422.863 220.199 L
423.118 220.051 L
423.373 219.902 L
423.627 219.752 L
423.881 219.602 L
424.135 219.451 L
424.388 219.3 L
424.641 219.148 L
424.894 218.996 L
425.147 218.843 L
425.399 218.689 L
425.651 218.536 L
425.902 218.381 L
426.153 218.226 L
426.404 218.071 L
426.655 217.915 L
426.905 217.759 L
427.155 217.602 L
427.405 217.444 L
427.654 217.286 L
427.903 217.128 L
428.152 216.969 L
428.4 216.81 L
428.648 216.65 L
428.896 216.49 L
429.143 216.329 L
429.39 216.167 L
429.637 216.005 L
429.884 215.843 L
430.13 215.68 L
430.376 215.517 L
430.621 215.353 L
430.866 215.189 L
431.111 215.024 L
431.356 214.859 L
431.6 214.693 L
431.844 214.527 L
432.087 214.361 L
432.331 214.194 L
432.574 214.026 L
432.816 213.858 L
433.059 213.689 L
433.301 213.521 L
433.542 213.351 L
433.784 213.181 L
434.025 213.011 L
434.265 212.84 L
434.506 212.669 L
434.746 212.497 L
434.985 212.325 L
435.225 212.152 L
435.464 211.979 L
435.703 211.806 L
435.941 211.632 L
436.179 211.458 L
436.417 211.283 L
436.654 211.108 L
436.891 210.932 L
437.128 210.756 L
437.365 210.579 L
437.601 210.402 L
437.837 210.225 L
438.072 210.047 L
438.307 209.869 L
438.542 209.69 L
438.777 209.511 L
439.011 209.331 L
439.245 209.151 L
439.478 208.971 L
439.712 208.79 L
439.945 208.609 L
440.177 208.427 L
440.409 208.245 L
440.641 208.063 L
440.873 207.88 L
441.104 207.696 L
441.335 207.513 L
441.566 207.329 L
441.796 207.144 L
442.026 206.959 L
442.256 206.774 L
442.485 206.588 L
442.714 206.402 L
442.943 206.215 L
443.171 206.028 L
443.399 205.841 L
443.627 205.653 L
443.854 205.465 L
444.081 205.277 L
444.308 205.088 L
444.535 204.899 L
444.761 204.709 L
444.987 204.519 L
445.212 204.328 L
445.437 204.138 L
445.662 203.946 L
445.886 203.755 L
446.111 203.563 L
446.334 203.371 L
446.558 203.178 L
446.781 202.985 L
447.004 202.791 L
447.227 202.598 L
447.449 202.403 L
447.671 202.209 L
447.892 202.014 L
448.114 201.819 L
448.335 201.623 L
448.555 201.427 L
448.776 201.231 L
448.996 201.034 L
449.215 200.837 L
449.435 200.639 L
449.654 200.442 L
449.872 200.244 L
450.091 200.045 L
450.309 199.846 L
450.527 199.647 L
450.744 199.447 L
450.961 199.248 L
451.178 199.047 L
451.394 198.847 L
451.611 198.646 L
451.827 198.445 L
452.042 198.243 L
452.257 198.041 L
452.472 197.839 L
452.687 197.636 L
452.901 197.433 L
453.115 197.23 L
453.329 197.027 L
453.542 196.823 L
453.755 196.618 L
453.968 196.414 L
454.18 196.209 L
454.392 196.004 L
454.604 195.798 L
454.816 195.592 L
455.027 195.386 L
455.238 195.18 L
455.448 194.973 L
455.658 194.766 L
455.868 194.558 L
456.078 194.351 L
456.287 194.143 L
456.496 193.934 L
456.705 193.725 L
456.913 193.516 L
457.121 193.307 L
457.329 193.098 L
457.536 192.888 L
457.744 192.678 L
457.951 192.467 L
458.157 192.256 L
458.363 192.045 L
458.569 191.834 L
458.775 191.622 L
458.98 191.41 L
459.185 191.198 L
459.39 190.985 L
459.594 190.772 L
459.798 190.559 L
460.002 190.346 L
460.206 190.132 L
460.409 189.918 L
460.612 189.704 L
460.815 189.489 L
461.017 189.274 L
461.219 189.059 L
461.421 188.844 L
461.622 188.628 L
461.823 188.412 L
462.024 188.196 L
462.225 187.979 L
462.425 187.763 L
462.625 187.545 L
462.824 187.328 L
463.024 187.111 L
463.223 186.893 L
463.422 186.675 L
463.62 186.456 L
463.818 186.237 L
464.016 186.019 L
464.214 185.799 L
464.411 185.58 L
464.608 185.36 L
464.805 185.14 L
465.001 184.92 L
465.198 184.699 L
465.393 184.479 L
465.589 184.258 L
465.784 184.037 L
465.979 183.815 L
466.174 183.593 L
466.369 183.371 L
466.563 183.149 L
466.757 182.927 L
466.95 182.704 L
467.144 182.481 L
467.337 182.258 L
467.529 182.034 L
467.722 181.811 L
467.914 181.587 L
468.106 181.362 L
468.298 181.138 L
468.489 180.913 L
468.68 180.688 L
468.871 180.463 L
469.062 180.238 L
469.252 180.012 L
469.442 179.787 L
469.632 179.561 L
469.821 179.334 L
470.01 179.108 L
470.199 178.881 L
470.388 178.654 L
470.576 178.427 L
470.764 178.2 L
470.952 177.972 L
471.14 177.744 L
471.327 177.516 L
471.514 177.288 L
471.701 177.059 L
471.888 176.831 L
472.074 176.602 L
472.26 176.373 L
472.446 176.143 L
472.631 175.914 L
472.816 175.684 L
473.001 175.454 L
473.186 175.224 L
473.37 174.993 L
473.554 174.763 L
473.738 174.532 L
473.922 174.301 L
474.105 174.07 L
474.289 173.838 L
474.471 173.607 L
474.654 173.375 L
474.836 173.143 L
475.019 172.911 L
475.201 172.678 L
475.382 172.446 L
475.564 172.213 L
475.745 171.98 L
475.926 171.747 L
476.106 171.513 L
476.287 171.28 L
476.467 171.046 L
476.647 170.812 L
476.826 170.578 L
477.006 170.343 L
477.185 170.109 L
477.364 169.874 L
477.542 169.639 L
477.721 169.404 L
477.899 169.169 L
478.077 168.934 L
478.255 168.698 L
478.432 168.462 L
478.609 168.226 L
478.787 167.99 L
478.963 167.754 L
479.14 167.517 L
479.316 167.281 L
479.492 167.044 L
479.668 166.807 L
479.844 166.57 L
480.019 166.332 L
480.194 166.095 L
480.369 165.857 L
480.544 165.619 L
480.718 165.381 L
480.893 165.143 L
481.067 164.905 L
481.24 164.666 L
481.414 164.428 L
481.587 164.189 L
481.76 163.95 L
481.933 163.71 L
482.106 163.471 L
482.279 163.232 L
482.451 162.992 L
482.623 162.752 L
482.795 162.512 L
482.966 162.272 L
483.138 162.032 L
483.309 161.792 L
483.48 161.551 L
483.651 161.31 L
483.821 161.069 L
483.991 160.828 L
484.161 160.587 L
484.331 160.346 L
484.501 160.105 L
484.671 159.863 L
484.84 159.621 L
485.009 159.379 L
485.178 159.137 L
485.346 158.895 L
485.515 158.653 L
485.683 158.41 L
485.851 158.168 L
486.019 157.925 L
486.187 157.682 L
486.354 157.439 L
486.522 157.196 L
486.689 156.953 L
486.855 156.709 L
487.022 156.466 L
487.189 156.222 L
487.355 155.978 L
487.521 155.734 L
487.687 155.49 L
487.853 155.246 L
488.018 155.002 L
488.184 154.757 L
488.349 154.513 L
488.514 154.268 L
488.678 154.023 L
488.843 153.778 L
489.008 153.533 L
489.172 153.288 L
489.336 153.043 L
489.5 152.797 L
489.663 152.552 L
489.827 152.306 L
489.99 152.06 L
490.153 151.814 L
490.316 151.568 L
490.479 151.322 L
490.642 151.076 L
490.804 150.829 L
490.966 150.583 L
491.129 150.336 L
491.291 150.09 L
491.452 149.843 L
491.614 149.596 L
491.775 149.349 L
491.937 149.102 L
492.098 148.854 L
492.259 148.607 L
492.419 148.359 L
492.58 148.112 L
492.741 147.864 L
492.901 147.616 L
493.061 147.368 L
493.221 147.12 L
493.381 146.872 L
493.54 146.624 L
493.7 146.376 L
493.859 146.127 L
494.018 145.879 L
494.177 145.63 L
494.336 145.382 L
494.495 145.133 L
494.654 144.884 L
494.812 144.635 L
494.97 144.386 L
495.128 144.137 L
495.286 143.887 L
495.444 143.638 L
495.602 143.389 L
495.76 143.139 L
495.917 142.889 L
496.074 142.64 L
496.231 142.39 L
496.388 142.14 L
496.545 141.89 L
496.702 141.64 L
496.858 141.39 L
497.015 141.14 L
497.171 140.889 L
497.327 140.639 L
497.483 140.388 L
497.639 140.138 L
497.795 139.887 L
497.951 139.636 L
498.106 139.385 L
498.262 139.135 L
498.417 138.884 L
498.572 138.633 L
498.727 138.381 L
498.882 138.13 L
499.037 137.879 L
499.191 137.628 L
499.346 137.376 L
499.5 137.125 L
499.655 136.873 L
499.809 136.621 L
499.963 136.37 L
500.117 136.118 L
500.271 135.866 L
500.424 135.614 L
500.578 135.362 L
500.731 135.11 L
500.885 134.858 L
501.038 134.606 L
501.191 134.353 L
501.344 134.101 L
501.497 133.849 L
501.65 133.596 L
501.803 133.344 L
501.955 133.091 L
502.108 132.838 L
502.26 132.586 L
502.413 132.333 L
502.565 132.08 L
502.717 131.827 L
502.869 131.574 L
503.021 131.321 L
503.173 131.068 L
503.325 130.815 L
503.476 130.562 L
503.628 130.309 L
503.779 130.055 L
503.931 129.802 L
504.082 129.549 L
504.233 129.295 L
504.384 129.042 L
504.535 128.788 L
504.686 128.535 L
504.837 128.281 L
504.988 128.027 L
505.139 127.774 L
505.289 127.52 L
505.44 127.266 L
505.59 127.012 L
505.741 126.758 L
505.891 126.504 L
506.041 126.25 L
506.191 125.996 L
506.341 125.742 L
506.491 125.488 L
506.641 125.234 L
506.791 124.979 L
506.941 124.725 L
507.091 124.471 L
507.24 124.216 L
507.39 123.962 L
507.539 123.708 L
507.689 123.453 L
507.838 123.199 L
507.988 122.944 L
508.137 122.689 L
508.286 122.435 L
508.435 122.18 L
508.584 121.926 L
508.733 121.671 L
508.882 121.416 L
509.031 121.161 L
509.18 120.906 L
509.329 120.652 L
509.478 120.397 L
509.627 120.142 L
509.775 119.887 L
509.924 119.632 L
510.073 119.377 L
510.221 119.122 L
510.37 118.867 L
510.518 118.612 L
510.666 118.357 L
510.815 118.102 L
510.963 117.847 L
511.111 117.591 L
511.26 117.336 L
511.408 117.081 L
511.556 116.826 L
511.704 116.571 L
511.852 116.315 L
512 116.06 L
512.148 115.805 L
512.296 115.549 L
512.444 115.294 L
512.592 115.039 L
512.74 114.783 L
512.888 114.528 L
513.036 114.272 L
513.184 114.017 L
513.332 113.762 L
513.479 113.506 L
513.627 113.251 L
513.775 112.995 L
513.923 112.74 L
514.07 112.484 L
514.218 112.229 L
514.366 111.973 L
514.513 111.718 L
514.661 111.462 L
514.809 111.207 L
514.956 110.951 L
515.104 110.696 L
515.252 110.44 L
515.399 110.184 L
515.547 109.929 L
515.694 109.673 L
515.842 109.418 L
515.99 109.162 L
516.137 108.907 L
516.285 108.651 L
516.432 108.395 L
516.58 108.14 L
516.58 108.14 L
542.049 64.025 L
S
GR
GS
[0.75 0 0 0.75 406.59242 48.36453] CT
0 1 1 RC
10.0 ML
N
-2.828 -2.828 M
2.828 2.828 L
-2.828 2.828 M
2.828 -2.828 L
S
GR
GS
[0.75 0 0 0.75 0 0.25] CT
0 1 1 RC
1 LJ
0.667 LW
N
542.123 64.153 M
548.035 53.913 L
S
GR
GS
[0.75 0 0 0.75 0 0.25] CT
1 GC
N
105 546 M
730 546 L
730 336 L
105 336 L
cp
f
GR
GS
[0.75 0 0 0.75 0 0.25] CT
0.149 GC
2 setlinecap
1 LJ
0.667 LW
N
105 546 M
730 546 L
S
GR
GS
[0.75 0 0 0.75 0 0.25] CT
0.149 GC
2 setlinecap
1 LJ
0.667 LW
N
105 336 M
730 336 L
S
GR
GS
[0.75 0 0 0.75 0 0.25] CT
0.149 GC
2 setlinecap
1 LJ
0.667 LW
N
105 546 M
105 539.75 L
S
GR
GS
[0.75 0 0 0.75 0 0.25] CT
0.149 GC
2 setlinecap
1 LJ
0.667 LW
N
209.167 546 M
209.167 539.75 L
S
GR
GS
[0.75 0 0 0.75 0 0.25] CT
0.149 GC
2 setlinecap
1 LJ
0.667 LW
N
313.333 546 M
313.333 539.75 L
S
GR
GS
[0.75 0 0 0.75 0 0.25] CT
0.149 GC
2 setlinecap
1 LJ
0.667 LW
N
417.5 546 M
417.5 539.75 L
S
GR
GS
[0.75 0 0 0.75 0 0.25] CT
0.149 GC
2 setlinecap
1 LJ
0.667 LW
N
521.667 546 M
521.667 539.75 L
S
GR
GS
[0.75 0 0 0.75 0 0.25] CT
0.149 GC
2 setlinecap
1 LJ
0.667 LW
N
625.833 546 M
625.833 539.75 L
S
GR
GS
[0.75 0 0 0.75 0 0.25] CT
0.149 GC
2 setlinecap
1 LJ
0.667 LW
N
730 546 M
730 539.75 L
S
GR
GS
[0.75 0 0 0.75 0 0.25] CT
0.149 GC
2 setlinecap
1 LJ
0.667 LW
N
105 336 M
105 342.25 L
S
GR
GS
[0.75 0 0 0.75 0 0.25] CT
0.149 GC
2 setlinecap
1 LJ
0.667 LW
N
209.167 336 M
209.167 342.25 L
S
GR
GS
[0.75 0 0 0.75 0 0.25] CT
0.149 GC
2 setlinecap
1 LJ
0.667 LW
N
313.333 336 M
313.333 342.25 L
S
GR
GS
[0.75 0 0 0.75 0 0.25] CT
0.149 GC
2 setlinecap
1 LJ
0.667 LW
N
417.5 336 M
417.5 342.25 L
S
GR
GS
[0.75 0 0 0.75 0 0.25] CT
0.149 GC
2 setlinecap
1 LJ
0.667 LW
N
521.667 336 M
521.667 342.25 L
S
GR
GS
[0.75 0 0 0.75 0 0.25] CT
0.149 GC
2 setlinecap
1 LJ
0.667 LW
N
625.833 336 M
625.833 342.25 L
S
GR
GS
[0.75 0 0 0.75 0 0.25] CT
0.149 GC
2 setlinecap
1 LJ
0.667 LW
N
730 336 M
730 342.25 L
S
GR
GS
[0.75 0 0 0.75 78.75 413.74998] CT
0.149 GC
/Helvetica 13.333 F
GS
[1 0 0 1 0 0] CT
-4 14 moveto 
1 -1 scale
(0) t 
GR
GR
GS
[0.75 0 0 0.75 156.875 413.74998] CT
0.149 GC
/Helvetica 13.333 F
GS
[1 0 0 1 0 0] CT
-4 14 moveto 
1 -1 scale
(2) t 
GR
GR
GS
[0.75 0 0 0.75 235.00001 413.74998] CT
0.149 GC
/Helvetica 13.333 F
GS
[1 0 0 1 0 0] CT
-4 14 moveto 
1 -1 scale
(4) t 
GR
GR
GS
[0.75 0 0 0.75 313.125 413.74998] CT
0.149 GC
/Helvetica 13.333 F
GS
[1 0 0 1 0 0] CT
-4 14 moveto 
1 -1 scale
(6) t 
GR
GR
GS
[0.75 0 0 0.75 391.25002 413.74998] CT
0.149 GC
/Helvetica 13.333 F
GS
[1 0 0 1 0 0] CT
-4 14 moveto 
1 -1 scale
(8) t 
GR
GR
GS
[0.75 0 0 0.75 469.37498 413.74998] CT
0.149 GC
/Helvetica 13.333 F
GS
[1 0 0 1 0 0] CT
-7.5 14 moveto 
1 -1 scale
(10) t 
GR
GR
GS
[0.75 0 0 0.75 547.5 413.74998] CT
0.149 GC
/Helvetica 13.333 F
GS
[1 0 0 1 0 0] CT
-7.5 14 moveto 
1 -1 scale
(12) t 
GR
GR
GS
[0.75 0 0 0.75 313.12523 427.50002] CT
0.149 GC
/Helvetica 14.667 F
GS
[1 0 0 1 0 0] CT
-14 15 moveto 
1 -1 scale
(s[m]) t 
GR
GR
GS
[0.75 0 0 0.75 0 0.25] CT
0.149 GC
2 setlinecap
1 LJ
0.667 LW
N
105 546 M
105 336 L
S
GR
GS
[0.75 0 0 0.75 0 0.25] CT
0.149 GC
2 setlinecap
1 LJ
0.667 LW
N
730 546 M
730 336 L
S
GR
GS
[0.75 0 0 0.75 0 0.25] CT
0.149 GC
2 setlinecap
1 LJ
0.667 LW
N
105 546 M
111.25 546 L
S
GR
GS
[0.75 0 0 0.75 0 0.25] CT
0.149 GC
2 setlinecap
1 LJ
0.667 LW
N
105 504 M
111.25 504 L
S
GR
GS
[0.75 0 0 0.75 0 0.25] CT
0.149 GC
2 setlinecap
1 LJ
0.667 LW
N
105 462 M
111.25 462 L
S
GR
GS
[0.75 0 0 0.75 0 0.25] CT
0.149 GC
2 setlinecap
1 LJ
0.667 LW
N
105 420 M
111.25 420 L
S
GR
GS
[0.75 0 0 0.75 0 0.25] CT
0.149 GC
2 setlinecap
1 LJ
0.667 LW
N
105 378 M
111.25 378 L
S
GR
GS
[0.75 0 0 0.75 0 0.25] CT
0.149 GC
2 setlinecap
1 LJ
0.667 LW
N
105 336 M
111.25 336 L
S
GR
GS
[0.75 0 0 0.75 0 0.25] CT
0.149 GC
2 setlinecap
1 LJ
0.667 LW
N
730 546 M
723.75 546 L
S
GR
GS
[0.75 0 0 0.75 0 0.25] CT
0.149 GC
2 setlinecap
1 LJ
0.667 LW
N
730 504 M
723.75 504 L
S
GR
GS
[0.75 0 0 0.75 0 0.25] CT
0.149 GC
2 setlinecap
1 LJ
0.667 LW
N
730 462 M
723.75 462 L
S
GR
GS
[0.75 0 0 0.75 0 0.25] CT
0.149 GC
2 setlinecap
1 LJ
0.667 LW
N
730 420 M
723.75 420 L
S
GR
GS
[0.75 0 0 0.75 0 0.25] CT
0.149 GC
2 setlinecap
1 LJ
0.667 LW
N
730 378 M
723.75 378 L
S
GR
GS
[0.75 0 0 0.75 0 0.25] CT
0.149 GC
2 setlinecap
1 LJ
0.667 LW
N
730 336 M
723.75 336 L
S
GR
GS
[0.75 0 0 0.75 74.75 409.75] CT
0.149 GC
/Helvetica 13.333 F
GS
[1 0 0 1 0 0] CT
-23 5.5 moveto 
1 -1 scale
(-0.4) t 
GR
GR
GS
[0.75 0 0 0.75 74.75 378.25] CT
0.149 GC
/Helvetica 13.333 F
GS
[1 0 0 1 0 0] CT
-23 5.5 moveto 
1 -1 scale
(-0.2) t 
GR
GR
GS
[0.75 0 0 0.75 74.75 346.75] CT
0.149 GC
/Helvetica 13.333 F
GS
[1 0 0 1 0 0] CT
-8 5.5 moveto 
1 -1 scale
(0) t 
GR
GR
GS
[0.75 0 0 0.75 74.75 315.25] CT
0.149 GC
/Helvetica 13.333 F
GS
[1 0 0 1 0 0] CT
-19 5.5 moveto 
1 -1 scale
(0.2) t 
GR
GR
GS
[0.75 0 0 0.75 74.75 283.75] CT
0.149 GC
/Helvetica 13.333 F
GS
[1 0 0 1 0 0] CT
-19 5.5 moveto 
1 -1 scale
(0.4) t 
GR
GR
GS
[0.75 0 0 0.75 74.75 252.25] CT
0.149 GC
/Helvetica 13.333 F
GS
[1 0 0 1 0 0] CT
-19 5.5 moveto 
1 -1 scale
(0.6) t 
GR
GR
GS
[0.75 0 0 0.75 0 0.25] CT
1 0 0 RC
1 LJ
0.667 LW
N
105 462 M
105 462 L
S
GR
GS
[0.75 0 0 0.75 0 0.25] CT
0 1 0 RC
1 LJ
0.667 LW
N
105 462 M
105 462 L
S
GR
GS
[0.75 0 0 0.75 78.75012 346.75] CT
0 1 0 RC
10.0 ML
N
4 0 M
4 -2.209 2.209 -4 0 -4 C
-2.209 -4 -4 -2.209 -4 0 C
-4 2.209 -2.209 4 0 4 C
2.209 4 4 2.209 4 0 C
cp
S
GR
GS
[0.75 0 0 0.75 217.54848 310.4392] CT
0 1 0 RC
10.0 ML
N
4 0 M
4 -2.209 2.209 -4 0 -4 C
-2.209 -4 -4 -2.209 -4 0 C
-4 2.209 -2.209 4 0 4 C
2.209 4 4 2.209 4 0 C
cp
S
GR
GS
[0.75 0 0 0.75 433.61531 346.75] CT
0 1 0 RC
10.0 ML
N
4 0 M
4 -2.209 2.209 -4 0 -4 C
-2.209 -4 -4 -2.209 -4 0 C
-4 2.209 -2.209 4 0 4 C
2.209 4 4 2.209 4 0 C
cp
S
GR
GS
[0.75 0 0 0.75 500.93376 346.75] CT
0 1 0 RC
10.0 ML
N
4 0 M
4 -2.209 2.209 -4 0 -4 C
-2.209 -4 -4 -2.209 -4 0 C
-4 2.209 -2.209 4 0 4 C
2.209 4 4 2.209 4 0 C
cp
S
GR
GS
[0.75 0 0 0.75 78.75 346.75] CT
1 0 0 RC
10.0 ML
N
4 0 M
4 -2.209 2.209 -4 0 -4 C
-2.209 -4 -4 -2.209 -4 0 C
-4 2.209 -2.209 4 0 4 C
2.209 4 4 2.209 4 0 C
cp
S
GR
GS
[0.75 0 0 0.75 78.75012 346.75] CT
1 0 0 RC
10.0 ML
N
4 0 M
4 -2.209 2.209 -4 0 -4 C
-2.209 -4 -4 -2.209 -4 0 C
-4 2.209 -2.209 4 0 4 C
2.209 4 4 2.209 4 0 C
cp
S
GR
GS
[0.75 0 0 0.75 78.75012 336.53093] CT
1 0 0 RC
10.0 ML
N
4 0 M
4 -2.209 2.209 -4 0 -4 C
-2.209 -4 -4 -2.209 -4 0 C
-4 2.209 -2.209 4 0 4 C
2.209 4 4 2.209 4 0 C
cp
S
GR
GS
[0.75 0 0 0.75 217.54848 336.53093] CT
1 0 0 RC
10.0 ML
N
4 0 M
4 -2.209 2.209 -4 0 -4 C
-2.209 -4 -4 -2.209 -4 0 C
-4 2.209 -2.209 4 0 4 C
2.209 4 4 2.209 4 0 C
cp
S
GR
GS
[0.75 0 0 0.75 217.54848 353.31458] CT
1 0 0 RC
10.0 ML
N
4 0 M
4 -2.209 2.209 -4 0 -4 C
-2.209 -4 -4 -2.209 -4 0 C
-4 2.209 -2.209 4 0 4 C
2.209 4 4 2.209 4 0 C
cp
S
GR
GS
[0.75 0 0 0.75 433.61531 353.31458] CT
1 0 0 RC
10.0 ML
N
4 0 M
4 -2.209 2.209 -4 0 -4 C
-2.209 -4 -4 -2.209 -4 0 C
-4 2.209 -2.209 4 0 4 C
2.209 4 4 2.209 4 0 C
cp
S
GR
GS
[0.75 0 0 0.75 433.61531 346.75] CT
1 0 0 RC
10.0 ML
N
4 0 M
4 -2.209 2.209 -4 0 -4 C
-2.209 -4 -4 -2.209 -4 0 C
-4 2.209 -2.209 4 0 4 C
2.209 4 4 2.209 4 0 C
cp
S
GR
GS
[0.75 0 0 0.75 500.93376 346.75] CT
1 0 0 RC
10.0 ML
N
4 0 M
4 -2.209 2.209 -4 0 -4 C
-2.209 -4 -4 -2.209 -4 0 C
-4 2.209 -2.209 4 0 4 C
2.209 4 4 2.209 4 0 C
cp
S
GR
GS
[0.75 0 0 0.75 0 0.25] CT
1 0 0 RC
1 LJ
0.667 LW
N
105 462 M
105 462 L
105 448.375 L
290.065 448.375 L
290.065 470.753 L
578.154 470.753 L
578.154 462 L
667.912 462 L
S
GR
GS
[0.75 0 0 0.75 0 0.25] CT
0 1 0 RC
1 LJ
0.667 LW
N
105 462 M
105 462 L
105 462 L
105.52 461.864 L
106.04 461.728 L
106.56 461.592 L
107.08 461.456 L
107.599 461.32 L
108.119 461.184 L
108.639 461.048 L
109.159 460.912 L
109.679 460.776 L
110.199 460.64 L
110.718 460.504 L
111.238 460.368 L
111.758 460.232 L
112.278 460.096 L
112.798 459.96 L
113.318 459.824 L
113.838 459.688 L
114.357 459.552 L
114.877 459.416 L
115.397 459.28 L
115.917 459.144 L
116.437 459.008 L
116.957 458.872 L
117.476 458.736 L
117.996 458.6 L
118.516 458.464 L
119.036 458.328 L
119.556 458.192 L
120.076 458.056 L
120.595 457.92 L
121.115 457.784 L
121.635 457.648 L
122.155 457.512 L
122.675 457.376 L
123.195 457.24 L
123.715 457.104 L
124.234 456.968 L
124.754 456.832 L
125.274 456.696 L
125.794 456.56 L
126.314 456.424 L
126.834 456.288 L
127.353 456.152 L
127.873 456.016 L
128.393 455.88 L
128.913 455.744 L
129.433 455.608 L
129.953 455.472 L
130.473 455.336 L
130.992 455.2 L
131.512 455.064 L
132.032 454.928 L
132.552 454.792 L
133.072 454.656 L
133.592 454.52 L
134.111 454.384 L
134.631 454.248 L
135.151 454.112 L
135.671 453.976 L
136.191 453.84 L
136.711 453.704 L
137.23 453.568 L
137.75 453.432 L
138.27 453.296 L
138.79 453.16 L
139.31 453.024 L
139.83 452.888 L
140.35 452.752 L
140.869 452.616 L
141.389 452.48 L
141.909 452.344 L
142.429 452.208 L
142.949 452.072 L
143.469 451.936 L
143.988 451.8 L
144.508 451.664 L
145.028 451.528 L
145.548 451.392 L
146.068 451.256 L
146.588 451.12 L
147.108 450.984 L
147.627 450.848 L
148.147 450.712 L
148.667 450.576 L
149.187 450.44 L
149.707 450.304 L
150.227 450.168 L
150.746 450.032 L
151.266 449.896 L
151.786 449.76 L
152.306 449.624 L
152.826 449.488 L
153.346 449.352 L
153.865 449.216 L
154.385 449.08 L
154.905 448.944 L
155.425 448.808 L
155.945 448.672 L
156.465 448.536 L
156.985 448.4 L
157.504 448.264 L
158.024 448.128 L
158.544 447.992 L
159.064 447.856 L
159.584 447.72 L
160.104 447.584 L
160.623 447.448 L
161.143 447.313 L
161.663 447.176 L
162.183 447.04 L
162.703 446.905 L
163.223 446.768 L
163.743 446.633 L
164.262 446.497 L
164.782 446.361 L
165.302 446.225 L
165.822 446.089 L
166.342 445.953 L
166.862 445.817 L
167.381 445.681 L
167.901 445.545 L
168.421 445.409 L
168.941 445.273 L
169.461 445.137 L
169.981 445.001 L
170.501 444.865 L
171.02 444.729 L
171.54 444.593 L
172.06 444.457 L
172.58 444.321 L
173.1 444.185 L
173.62 444.049 L
174.139 443.913 L
174.659 443.777 L
175.179 443.641 L
175.699 443.505 L
176.219 443.369 L
176.739 443.233 L
177.258 443.097 L
177.778 442.961 L
178.298 442.825 L
178.818 442.689 L
179.338 442.553 L
179.858 442.417 L
180.378 442.281 L
180.897 442.145 L
181.417 442.009 L
181.937 441.873 L
182.457 441.737 L
182.977 441.601 L
183.497 441.465 L
184.016 441.329 L
184.536 441.193 L
185.056 441.057 L
185.576 440.921 L
186.096 440.785 L
186.616 440.649 L
187.136 440.513 L
187.655 440.377 L
188.175 440.241 L
188.695 440.105 L
189.215 439.969 L
189.735 439.833 L
190.255 439.697 L
190.774 439.561 L
191.294 439.425 L
191.814 439.289 L
192.334 439.153 L
192.854 439.017 L
193.374 438.881 L
193.893 438.745 L
194.413 438.609 L
194.933 438.473 L
195.453 438.337 L
195.973 438.201 L
196.493 438.065 L
197.013 437.929 L
197.532 437.793 L
198.052 437.657 L
198.572 437.521 L
199.092 437.385 L
199.612 437.249 L
200.132 437.113 L
200.651 436.977 L
201.171 436.841 L
201.691 436.705 L
202.211 436.569 L
202.731 436.433 L
203.251 436.297 L
203.771 436.161 L
204.29 436.025 L
204.81 435.889 L
205.33 435.753 L
205.85 435.617 L
206.37 435.481 L
206.89 435.345 L
207.409 435.209 L
207.929 435.073 L
208.449 434.937 L
208.969 434.801 L
209.489 434.665 L
210.009 434.529 L
210.529 434.393 L
211.048 434.257 L
211.568 434.121 L
212.088 433.985 L
212.608 433.849 L
213.128 433.713 L
213.648 433.577 L
214.167 433.441 L
214.687 433.305 L
215.207 433.169 L
215.727 433.033 L
216.247 432.897 L
216.767 432.761 L
217.286 432.625 L
217.806 432.489 L
218.326 432.353 L
218.846 432.217 L
219.366 432.081 L
219.886 431.945 L
220.406 431.809 L
220.925 431.673 L
221.445 431.537 L
221.965 431.401 L
222.485 431.265 L
223.005 431.129 L
223.525 430.993 L
224.044 430.857 L
224.564 430.721 L
225.084 430.585 L
225.604 430.449 L
226.124 430.313 L
226.644 430.177 L
227.163 430.041 L
227.683 429.905 L
228.203 429.769 L
228.723 429.633 L
229.243 429.497 L
229.763 429.361 L
230.283 429.225 L
230.802 429.089 L
231.322 428.953 L
231.842 428.817 L
232.362 428.681 L
232.882 428.545 L
233.402 428.409 L
233.921 428.273 L
234.441 428.137 L
234.961 428.001 L
235.481 427.865 L
236.001 427.729 L
236.521 427.593 L
237.041 427.457 L
237.56 427.321 L
238.08 427.185 L
238.6 427.049 L
239.12 426.913 L
239.64 426.777 L
240.16 426.641 L
240.679 426.505 L
241.199 426.369 L
241.719 426.233 L
242.239 426.097 L
242.759 425.961 L
243.279 425.825 L
243.799 425.689 L
244.318 425.553 L
244.838 425.417 L
245.358 425.281 L
245.878 425.145 L
246.398 425.009 L
246.918 424.873 L
247.437 424.737 L
247.957 424.601 L
248.477 424.465 L
248.997 424.329 L
249.517 424.193 L
250.037 424.057 L
250.556 423.921 L
251.076 423.785 L
251.596 423.649 L
252.116 423.513 L
252.636 423.377 L
253.156 423.241 L
253.676 423.105 L
254.195 422.969 L
254.715 422.833 L
255.235 422.697 L
255.755 422.561 L
256.275 422.425 L
256.795 422.289 L
257.314 422.153 L
257.834 422.017 L
258.354 421.881 L
258.874 421.745 L
259.394 421.609 L
259.914 421.473 L
260.434 421.337 L
260.953 421.201 L
261.473 421.065 L
261.993 420.929 L
262.513 420.793 L
263.033 420.657 L
263.553 420.521 L
264.072 420.385 L
264.592 420.249 L
265.112 420.113 L
265.632 419.977 L
266.152 419.841 L
266.672 419.705 L
267.191 419.569 L
267.711 419.433 L
268.231 419.297 L
268.751 419.161 L
269.271 419.025 L
269.791 418.889 L
270.311 418.753 L
270.83 418.617 L
271.35 418.481 L
271.87 418.345 L
272.39 418.209 L
272.91 418.073 L
273.43 417.937 L
273.949 417.801 L
274.469 417.665 L
274.989 417.529 L
275.509 417.393 L
276.029 417.257 L
276.549 417.121 L
277.069 416.986 L
277.588 416.849 L
278.108 416.714 L
278.628 416.578 L
279.148 416.441 L
279.668 416.306 L
280.188 416.17 L
280.707 416.034 L
281.227 415.898 L
281.747 415.762 L
282.267 415.626 L
282.787 415.49 L
283.307 415.354 L
283.826 415.218 L
284.346 415.082 L
284.866 414.946 L
285.386 414.81 L
285.906 414.674 L
286.426 414.538 L
286.946 414.402 L
287.465 414.266 L
287.985 414.13 L
288.505 413.994 L
289.025 413.858 L
289.545 413.722 L
290.065 413.586 L
290.585 413.673 L
291.105 413.76 L
291.625 413.848 L
292.145 413.935 L
292.665 414.023 L
293.185 414.11 L
293.705 414.197 L
294.225 414.285 L
294.745 414.372 L
295.265 414.46 L
295.785 414.547 L
296.305 414.634 L
296.825 414.722 L
297.345 414.809 L
297.865 414.896 L
298.385 414.984 L
298.905 415.071 L
299.425 415.159 L
299.945 415.246 L
300.465 415.333 L
300.985 415.421 L
301.505 415.508 L
302.025 415.596 L
302.545 415.683 L
303.065 415.77 L
303.585 415.858 L
304.105 415.945 L
304.625 416.033 L
305.145 416.12 L
305.665 416.207 L
306.185 416.295 L
306.705 416.382 L
307.225 416.469 L
307.745 416.557 L
308.265 416.644 L
308.785 416.732 L
309.305 416.819 L
309.825 416.906 L
310.345 416.994 L
310.865 417.081 L
311.385 417.169 L
311.905 417.256 L
312.425 417.343 L
312.945 417.431 L
313.465 417.518 L
313.985 417.606 L
314.505 417.693 L
315.025 417.78 L
315.545 417.868 L
316.065 417.955 L
316.585 418.043 L
317.105 418.13 L
317.625 418.217 L
318.146 418.305 L
318.666 418.392 L
319.186 418.479 L
319.706 418.567 L
320.226 418.654 L
320.746 418.742 L
321.266 418.829 L
321.786 418.916 L
322.306 419.004 L
322.826 419.091 L
323.346 419.179 L
323.866 419.266 L
324.386 419.353 L
324.906 419.441 L
325.426 419.528 L
325.946 419.616 L
326.466 419.703 L
326.986 419.79 L
327.506 419.878 L
328.026 419.965 L
328.546 420.052 L
329.066 420.14 L
329.586 420.227 L
330.106 420.315 L
330.626 420.402 L
331.146 420.489 L
331.666 420.577 L
332.186 420.664 L
332.706 420.752 L
333.226 420.839 L
333.746 420.926 L
334.266 421.014 L
334.786 421.101 L
335.306 421.189 L
335.826 421.276 L
336.346 421.363 L
336.866 421.451 L
337.386 421.538 L
337.906 421.626 L
338.426 421.713 L
338.946 421.8 L
339.466 421.888 L
339.986 421.975 L
340.506 422.063 L
341.026 422.15 L
341.546 422.237 L
342.066 422.325 L
342.586 422.412 L
343.106 422.499 L
343.626 422.587 L
344.146 422.674 L
344.666 422.762 L
345.186 422.849 L
345.706 422.936 L
346.226 423.024 L
346.746 423.111 L
347.266 423.199 L
347.786 423.286 L
348.306 423.373 L
348.826 423.461 L
349.346 423.548 L
349.867 423.636 L
350.387 423.723 L
350.907 423.81 L
351.427 423.898 L
351.947 423.985 L
352.467 424.072 L
352.987 424.16 L
353.507 424.247 L
354.027 424.335 L
354.547 424.422 L
355.067 424.509 L
355.587 424.597 L
356.107 424.684 L
356.627 424.772 L
357.147 424.859 L
357.667 424.946 L
358.187 425.034 L
358.707 425.121 L
359.227 425.209 L
359.747 425.296 L
360.267 425.383 L
360.787 425.471 L
361.307 425.558 L
361.827 425.646 L
362.347 425.733 L
362.867 425.82 L
363.387 425.908 L
363.907 425.995 L
364.427 426.082 L
364.947 426.17 L
365.467 426.257 L
365.987 426.345 L
366.507 426.432 L
367.027 426.519 L
367.547 426.607 L
368.067 426.694 L
368.587 426.782 L
369.107 426.869 L
369.627 426.956 L
370.147 427.044 L
370.667 427.131 L
371.187 427.219 L
371.707 427.306 L
372.227 427.393 L
372.747 427.481 L
373.267 427.568 L
373.787 427.655 L
374.307 427.743 L
374.827 427.83 L
375.347 427.918 L
375.867 428.005 L
376.387 428.092 L
376.907 428.18 L
377.427 428.267 L
377.947 428.355 L
378.467 428.442 L
378.987 428.529 L
379.507 428.617 L
380.027 428.704 L
380.547 428.792 L
381.068 428.879 L
381.588 428.966 L
382.108 429.054 L
382.628 429.141 L
383.148 429.229 L
383.668 429.316 L
384.188 429.403 L
384.708 429.491 L
385.228 429.578 L
385.748 429.665 L
386.268 429.753 L
386.788 429.84 L
387.308 429.928 L
387.828 430.015 L
388.348 430.102 L
388.868 430.19 L
389.388 430.277 L
389.908 430.365 L
390.428 430.452 L
390.948 430.539 L
391.468 430.627 L
391.988 430.714 L
392.508 430.802 L
393.028 430.889 L
393.548 430.976 L
394.068 431.064 L
394.588 431.151 L
395.108 431.238 L
395.628 431.326 L
396.148 431.413 L
396.668 431.501 L
397.188 431.588 L
397.708 431.675 L
398.228 431.763 L
398.748 431.85 L
399.268 431.938 L
399.788 432.025 L
400.308 432.112 L
400.828 432.2 L
401.348 432.287 L
401.868 432.375 L
402.388 432.462 L
402.908 432.549 L
403.428 432.637 L
403.948 432.724 L
404.468 432.812 L
404.988 432.899 L
405.508 432.986 L
406.028 433.074 L
406.548 433.161 L
407.068 433.248 L
407.588 433.336 L
408.108 433.423 L
408.628 433.511 L
409.148 433.598 L
409.668 433.685 L
410.188 433.773 L
410.708 433.86 L
411.228 433.948 L
411.748 434.035 L
412.268 434.122 L
412.789 434.21 L
413.309 434.297 L
413.829 434.385 L
414.349 434.472 L
414.869 434.559 L
415.389 434.647 L
415.909 434.734 L
416.429 434.822 L
416.949 434.909 L
417.469 434.996 L
417.989 435.084 L
418.509 435.171 L
419.029 435.258 L
419.549 435.346 L
420.069 435.433 L
420.589 435.521 L
421.109 435.608 L
421.629 435.695 L
422.149 435.783 L
422.669 435.87 L
423.189 435.958 L
423.709 436.045 L
424.229 436.132 L
424.749 436.22 L
425.269 436.307 L
425.789 436.395 L
426.309 436.482 L
426.829 436.569 L
427.349 436.657 L
427.869 436.744 L
428.389 436.832 L
428.909 436.919 L
429.429 437.006 L
429.949 437.094 L
430.469 437.181 L
430.989 437.268 L
431.509 437.356 L
432.029 437.443 L
432.549 437.531 L
433.069 437.618 L
433.589 437.705 L
434.109 437.793 L
434.629 437.88 L
435.149 437.968 L
435.669 438.055 L
436.189 438.142 L
436.709 438.23 L
437.229 438.317 L
437.749 438.405 L
438.269 438.492 L
438.789 438.579 L
439.309 438.667 L
439.829 438.754 L
440.349 438.841 L
440.869 438.929 L
441.389 439.016 L
441.909 439.104 L
442.429 439.191 L
442.949 439.278 L
443.469 439.366 L
443.99 439.453 L
444.51 439.541 L
445.03 439.628 L
445.55 439.715 L
446.07 439.803 L
446.59 439.89 L
447.11 439.978 L
447.63 440.065 L
448.15 440.152 L
448.67 440.24 L
449.19 440.327 L
449.71 440.415 L
450.23 440.502 L
450.75 440.589 L
451.27 440.677 L
451.79 440.764 L
452.31 440.851 L
452.83 440.939 L
453.35 441.026 L
453.87 441.114 L
454.39 441.201 L
454.91 441.288 L
455.43 441.376 L
455.95 441.463 L
456.47 441.551 L
456.99 441.638 L
457.51 441.725 L
458.03 441.813 L
458.55 441.9 L
459.07 441.988 L
459.59 442.075 L
460.11 442.162 L
460.63 442.25 L
461.15 442.337 L
461.67 442.424 L
462.19 442.512 L
462.71 442.599 L
463.23 442.687 L
463.75 442.774 L
464.27 442.861 L
464.79 442.949 L
465.31 443.036 L
465.83 443.124 L
466.35 443.211 L
466.87 443.298 L
467.39 443.386 L
467.91 443.473 L
468.43 443.561 L
468.95 443.648 L
469.47 443.735 L
469.99 443.823 L
470.51 443.91 L
471.03 443.998 L
471.55 444.085 L
472.07 444.172 L
472.59 444.26 L
473.11 444.347 L
473.63 444.434 L
474.15 444.522 L
474.67 444.609 L
475.19 444.697 L
475.71 444.784 L
476.231 444.871 L
476.751 444.959 L
477.271 445.046 L
477.791 445.134 L
478.311 445.221 L
478.831 445.308 L
479.351 445.396 L
479.871 445.483 L
480.391 445.571 L
480.911 445.658 L
481.431 445.745 L
481.951 445.833 L
482.471 445.92 L
482.991 446.008 L
483.511 446.095 L
484.031 446.182 L
484.551 446.27 L
485.071 446.357 L
485.591 446.444 L
486.111 446.532 L
486.631 446.619 L
487.151 446.707 L
487.671 446.794 L
488.191 446.881 L
488.711 446.969 L
489.231 447.056 L
489.751 447.144 L
490.271 447.231 L
490.791 447.318 L
491.311 447.406 L
491.831 447.493 L
492.351 447.581 L
492.871 447.668 L
493.391 447.755 L
493.911 447.843 L
494.431 447.93 L
494.951 448.018 L
495.471 448.105 L
495.991 448.192 L
496.511 448.28 L
497.031 448.367 L
497.551 448.454 L
498.071 448.542 L
498.591 448.629 L
499.111 448.717 L
499.631 448.804 L
500.151 448.891 L
500.671 448.979 L
501.191 449.066 L
501.711 449.154 L
502.231 449.241 L
502.751 449.328 L
503.271 449.416 L
503.791 449.503 L
504.311 449.591 L
504.831 449.678 L
505.351 449.765 L
505.871 449.853 L
506.391 449.94 L
506.911 450.027 L
507.432 450.115 L
507.952 450.202 L
508.472 450.29 L
508.992 450.377 L
509.512 450.464 L
510.032 450.552 L
510.552 450.639 L
511.072 450.727 L
511.592 450.814 L
512.112 450.901 L
512.632 450.989 L
513.152 451.076 L
513.672 451.164 L
514.192 451.251 L
514.712 451.338 L
515.232 451.426 L
515.752 451.513 L
516.272 451.601 L
516.792 451.688 L
517.312 451.775 L
517.832 451.863 L
518.352 451.95 L
518.872 452.037 L
519.392 452.125 L
519.912 452.212 L
520.432 452.3 L
520.952 452.387 L
521.472 452.474 L
521.992 452.562 L
522.512 452.649 L
523.032 452.737 L
523.552 452.824 L
524.072 452.911 L
524.592 452.999 L
525.112 453.086 L
525.632 453.174 L
526.152 453.261 L
526.672 453.348 L
527.192 453.436 L
527.712 453.523 L
528.232 453.611 L
528.752 453.698 L
529.272 453.785 L
529.792 453.873 L
530.312 453.96 L
530.832 454.047 L
531.352 454.135 L
531.872 454.222 L
532.392 454.31 L
532.912 454.397 L
533.432 454.484 L
533.952 454.572 L
534.472 454.659 L
534.992 454.747 L
535.512 454.834 L
536.032 454.921 L
536.552 455.009 L
537.072 455.096 L
537.592 455.184 L
538.112 455.271 L
538.633 455.358 L
539.152 455.446 L
539.673 455.533 L
540.193 455.62 L
540.713 455.708 L
541.233 455.795 L
541.753 455.883 L
542.273 455.97 L
542.793 456.057 L
543.313 456.145 L
543.833 456.232 L
544.353 456.32 L
544.873 456.407 L
545.393 456.494 L
545.913 456.582 L
546.433 456.669 L
546.953 456.757 L
547.473 456.844 L
547.993 456.931 L
548.513 457.019 L
549.033 457.106 L
549.553 457.194 L
550.073 457.281 L
550.593 457.368 L
551.113 457.456 L
551.633 457.543 L
552.153 457.63 L
552.673 457.718 L
553.193 457.805 L
553.713 457.893 L
554.233 457.98 L
554.753 458.067 L
555.273 458.155 L
555.793 458.242 L
556.313 458.33 L
556.833 458.417 L
557.353 458.504 L
557.873 458.592 L
558.393 458.679 L
558.913 458.767 L
559.433 458.854 L
559.953 458.941 L
560.473 459.029 L
560.993 459.116 L
561.513 459.203 L
562.033 459.291 L
562.553 459.378 L
563.073 459.466 L
563.593 459.553 L
564.113 459.64 L
564.633 459.728 L
565.153 459.815 L
565.673 459.903 L
566.193 459.99 L
566.713 460.077 L
567.233 460.165 L
567.753 460.252 L
568.273 460.34 L
568.793 460.427 L
569.313 460.514 L
569.833 460.602 L
570.353 460.689 L
570.874 460.777 L
571.394 460.864 L
571.914 460.951 L
572.434 461.039 L
572.954 461.126 L
573.474 461.213 L
573.994 461.301 L
574.514 461.388 L
575.034 461.476 L
575.554 461.563 L
576.074 461.65 L
576.594 461.738 L
577.114 461.825 L
577.634 461.913 L
578.154 462 L
578.154 462 L
667.912 462 L
S
GR
GS
[0.75 0 0 0.75 0 0.25] CT
1 GC
N
719 389 M
719 347 L
560 347 L
560 389 L
cp
f
GR
GS
[0.75 0 0 0.75 455.25 274] CT
/Helvetica 12 F
GS
[1 0 0 1 0 0] CT
0 0 moveto 
1 -1 scale
(Sharpness [rad.m) t 
GR
GR
GS
[0.75 0 0 0.75 526.5 269.5] CT
/Helvetica 9.6 F
GS
[1 0 0 1 0 0] CT
0 0 moveto 
1 -1 scale
(-2) t 
GR
GR
GS
[0.75 0 0 0.75 533.25 274] CT
/Helvetica 12 F
GS
[1 0 0 1 0 0] CT
0 0 moveto 
1 -1 scale
(]) t 
GR
GR
GS
[0.75 0 0 0.75 0 0.25] CT
1 0 0 RC
1 LJ
0.667 LW
N
564 358.365 M
604 358.365 L
S
GR
GS
[0.75 0 0 0.75 455.25 289] CT
/Helvetica 12 F
GS
[1 0 0 1 0 0] CT
0 0 moveto 
1 -1 scale
(Curvature [rad.m) t 
GR
GR
GS
[0.75 0 0 0.75 523.5 284.5] CT
/Helvetica 9.6 F
GS
[1 0 0 1 0 0] CT
0 0 moveto 
1 -1 scale
(-1) t 
GR
GR
GS
[0.75 0 0 0.75 530.25 289] CT
/Helvetica 12 F
GS
[1 0 0 1 0 0] CT
0 0 moveto 
1 -1 scale
(]) t 
GR
GR
GS
[0.75 0 0 0.75 0 0.25] CT
0 1 0 RC
1 LJ
0.667 LW
N
564 377.635 M
604 377.635 L
S
GR
GS
[0.75 0 0 0.75 0 0.25] CT
0.149 GC
10.0 ML
0.667 LW
N
560 389 M
560 347 L
719 347 L
719 389 L
cp
S
GR
%%Trailer
%%Pages: 1
%%EOF
