%!PS-Adobe-3.0 EPSF-3.0
%%Creator: (MATLAB, The Mathworks, Inc. Version 9.5.0.944444 \(R2018b\). Operating System: Windows 10)
%%Title: C:/Users/Ed/git_clones/clothoid-composition-method/Exploration/straightlines-8-6-60.eps
%%CreationDate: 2019-11-19T17:14:52
%%Pages: (atend)
%%BoundingBox: 0 0 573 460
%%LanguageLevel: 3
%%EndComments
%%BeginProlog
%%BeginResource: procset (Apache XML Graphics Std ProcSet) 1.2 0
%%Version: 1.2 0
%%Copyright: (Copyright 2001-2003,2010 The Apache Software Foundation. License terms: http://www.apache.org/licenses/LICENSE-2.0)
/bd{bind def}bind def
/ld{load def}bd
/GR/grestore ld
/GS/gsave ld
/RM/rmoveto ld
/C/curveto ld
/t/show ld
/L/lineto ld
/ML/setmiterlimit ld
/CT/concat ld
/f/fill ld
/N/newpath ld
/S/stroke ld
/CC/setcmykcolor ld
/A/ashow ld
/cp/closepath ld
/RC/setrgbcolor ld
/LJ/setlinejoin ld
/GC/setgray ld
/LW/setlinewidth ld
/M/moveto ld
/re {4 2 roll M
1 index 0 rlineto
0 exch rlineto
neg 0 rlineto
cp } bd
/_ctm matrix def
/_tm matrix def
/BT { _ctm currentmatrix pop matrix _tm copy pop 0 0 moveto } bd
/ET { _ctm setmatrix } bd
/iTm { _ctm setmatrix _tm concat } bd
/Tm { _tm astore pop iTm 0 0 moveto } bd
/ux 0.0 def
/uy 0.0 def
/F {
  /Tp exch def
  /Tf exch def
  Tf findfont Tp scalefont setfont
  /cf Tf def  /cs Tp def
} bd
/ULS {currentpoint /uy exch def /ux exch def} bd
/ULE {
  /Tcx currentpoint pop def
  gsave
  newpath
  cf findfont cs scalefont dup
  /FontMatrix get 0 get /Ts exch def /FontInfo get dup
  /UnderlinePosition get Ts mul /To exch def
  /UnderlineThickness get Ts mul /Tt exch def
  ux uy To add moveto  Tcx uy To add lineto
  Tt setlinewidth stroke
  grestore
} bd
/OLE {
  /Tcx currentpoint pop def
  gsave
  newpath
  cf findfont cs scalefont dup
  /FontMatrix get 0 get /Ts exch def /FontInfo get dup
  /UnderlinePosition get Ts mul /To exch def
  /UnderlineThickness get Ts mul /Tt exch def
  ux uy To add cs add moveto Tcx uy To add cs add lineto
  Tt setlinewidth stroke
  grestore
} bd
/SOE {
  /Tcx currentpoint pop def
  gsave
  newpath
  cf findfont cs scalefont dup
  /FontMatrix get 0 get /Ts exch def /FontInfo get dup
  /UnderlinePosition get Ts mul /To exch def
  /UnderlineThickness get Ts mul /Tt exch def
  ux uy To add cs 10 mul 26 idiv add moveto Tcx uy To add cs 10 mul 26 idiv add lineto
  Tt setlinewidth stroke
  grestore
} bd
/QT {
/Y22 exch store
/X22 exch store
/Y21 exch store
/X21 exch store
currentpoint
/Y21 load 2 mul add 3 div exch
/X21 load 2 mul add 3 div exch
/X21 load 2 mul /X22 load add 3 div
/Y21 load 2 mul /Y22 load add 3 div
/X22 load /Y22 load curveto
} bd
/SSPD {
dup length /d exch dict def
{
/v exch def
/k exch def
currentpagedevice k known {
/cpdv currentpagedevice k get def
v cpdv ne {
/upd false def
/nullv v type /nulltype eq def
/nullcpdv cpdv type /nulltype eq def
nullv nullcpdv or
{
/upd true def
} {
/sametype v type cpdv type eq def
sametype {
v type /arraytype eq {
/vlen v length def
/cpdvlen cpdv length def
vlen cpdvlen eq {
0 1 vlen 1 sub {
/i exch def
/obj v i get def
/cpdobj cpdv i get def
obj cpdobj ne {
/upd true def
exit
} if
} for
} {
/upd true def
} ifelse
} {
v type /dicttype eq {
v {
/dv exch def
/dk exch def
/cpddv cpdv dk get def
dv cpddv ne {
/upd true def
exit
} if
} forall
} {
/upd true def
} ifelse
} ifelse
} if
} ifelse
upd true eq {
d k v put
} if
} if
} if
} forall
d length 0 gt {
d setpagedevice
} if
} bd
/RE { % /NewFontName [NewEncodingArray] /FontName RE -
  findfont dup length dict begin
  {
    1 index /FID ne
    {def} {pop pop} ifelse
  } forall
  /Encoding exch def
  /FontName 1 index def
  currentdict definefont pop
  end
} bind def
%%EndResource
%%BeginResource: procset (Apache XML Graphics EPS ProcSet) 1.0 0
%%Version: 1.0 0
%%Copyright: (Copyright 2002-2003 The Apache Software Foundation. License terms: http://www.apache.org/licenses/LICENSE-2.0)
/BeginEPSF { %def
/b4_Inc_state save def         % Save state for cleanup
/dict_count countdictstack def % Count objects on dict stack
/op_count count 1 sub def      % Count objects on operand stack
userdict begin                 % Push userdict on dict stack
/showpage { } def              % Redefine showpage, { } = null proc
0 setgray 0 setlinecap         % Prepare graphics state
1 setlinewidth 0 setlinejoin
10 setmiterlimit [ ] 0 setdash newpath
/languagelevel where           % If level not equal to 1 then
{pop languagelevel             % set strokeadjust and
1 ne                           % overprint to their defaults.
{false setstrokeadjust false setoverprint
} if
} if
} bd
/EndEPSF { %def
count op_count sub {pop} repeat            % Clean up stacks
countdictstack dict_count sub {end} repeat
b4_Inc_state restore
} bd
%%EndResource
%FOPBeginFontDict
%%IncludeResource: font Courier-Oblique
%%IncludeResource: font Courier-BoldOblique
%%IncludeResource: font Courier-Bold
%%IncludeResource: font ZapfDingbats
%%IncludeResource: font Symbol
%%IncludeResource: font Helvetica
%%IncludeResource: font Helvetica-Oblique
%%IncludeResource: font Helvetica-Bold
%%IncludeResource: font Helvetica-BoldOblique
%%IncludeResource: font Times-Roman
%%IncludeResource: font Times-Italic
%%IncludeResource: font Times-Bold
%%IncludeResource: font Times-BoldItalic
%%IncludeResource: font Courier
%FOPEndFontDict
%%BeginResource: encoding WinAnsiEncoding
/WinAnsiEncoding [
/.notdef /.notdef /.notdef /.notdef /.notdef
/.notdef /.notdef /.notdef /.notdef /.notdef
/.notdef /.notdef /.notdef /.notdef /.notdef
/.notdef /.notdef /.notdef /.notdef /.notdef
/.notdef /.notdef /.notdef /.notdef /.notdef
/.notdef /.notdef /.notdef /.notdef /.notdef
/.notdef /.notdef /space /exclam /quotedbl
/numbersign /dollar /percent /ampersand /quotesingle
/parenleft /parenright /asterisk /plus /comma
/hyphen /period /slash /zero /one
/two /three /four /five /six
/seven /eight /nine /colon /semicolon
/less /equal /greater /question /at
/A /B /C /D /E
/F /G /H /I /J
/K /L /M /N /O
/P /Q /R /S /T
/U /V /W /X /Y
/Z /bracketleft /backslash /bracketright /asciicircum
/underscore /quoteleft /a /b /c
/d /e /f /g /h
/i /j /k /l /m
/n /o /p /q /r
/s /t /u /v /w
/x /y /z /braceleft /bar
/braceright /asciitilde /bullet /Euro /bullet
/quotesinglbase /florin /quotedblbase /ellipsis /dagger
/daggerdbl /circumflex /perthousand /Scaron /guilsinglleft
/OE /bullet /Zcaron /bullet /bullet
/quoteleft /quoteright /quotedblleft /quotedblright /bullet
/endash /emdash /asciitilde /trademark /scaron
/guilsinglright /oe /bullet /zcaron /Ydieresis
/space /exclamdown /cent /sterling /currency
/yen /brokenbar /section /dieresis /copyright
/ordfeminine /guillemotleft /logicalnot /sfthyphen /registered
/macron /degree /plusminus /twosuperior /threesuperior
/acute /mu /paragraph /middot /cedilla
/onesuperior /ordmasculine /guillemotright /onequarter /onehalf
/threequarters /questiondown /Agrave /Aacute /Acircumflex
/Atilde /Adieresis /Aring /AE /Ccedilla
/Egrave /Eacute /Ecircumflex /Edieresis /Igrave
/Iacute /Icircumflex /Idieresis /Eth /Ntilde
/Ograve /Oacute /Ocircumflex /Otilde /Odieresis
/multiply /Oslash /Ugrave /Uacute /Ucircumflex
/Udieresis /Yacute /Thorn /germandbls /agrave
/aacute /acircumflex /atilde /adieresis /aring
/ae /ccedilla /egrave /eacute /ecircumflex
/edieresis /igrave /iacute /icircumflex /idieresis
/eth /ntilde /ograve /oacute /ocircumflex
/otilde /odieresis /divide /oslash /ugrave
/uacute /ucircumflex /udieresis /yacute /thorn
/ydieresis
] def
%%EndResource
%FOPBeginFontReencode
/Courier-Oblique findfont
dup length dict begin
  {1 index /FID ne {def} {pop pop} ifelse} forall
  /Encoding WinAnsiEncoding def
  currentdict
end
/Courier-Oblique exch definefont pop
/Courier-BoldOblique findfont
dup length dict begin
  {1 index /FID ne {def} {pop pop} ifelse} forall
  /Encoding WinAnsiEncoding def
  currentdict
end
/Courier-BoldOblique exch definefont pop
/Courier-Bold findfont
dup length dict begin
  {1 index /FID ne {def} {pop pop} ifelse} forall
  /Encoding WinAnsiEncoding def
  currentdict
end
/Courier-Bold exch definefont pop
/Helvetica findfont
dup length dict begin
  {1 index /FID ne {def} {pop pop} ifelse} forall
  /Encoding WinAnsiEncoding def
  currentdict
end
/Helvetica exch definefont pop
/Helvetica-Oblique findfont
dup length dict begin
  {1 index /FID ne {def} {pop pop} ifelse} forall
  /Encoding WinAnsiEncoding def
  currentdict
end
/Helvetica-Oblique exch definefont pop
/Helvetica-Bold findfont
dup length dict begin
  {1 index /FID ne {def} {pop pop} ifelse} forall
  /Encoding WinAnsiEncoding def
  currentdict
end
/Helvetica-Bold exch definefont pop
/Helvetica-BoldOblique findfont
dup length dict begin
  {1 index /FID ne {def} {pop pop} ifelse} forall
  /Encoding WinAnsiEncoding def
  currentdict
end
/Helvetica-BoldOblique exch definefont pop
/Times-Roman findfont
dup length dict begin
  {1 index /FID ne {def} {pop pop} ifelse} forall
  /Encoding WinAnsiEncoding def
  currentdict
end
/Times-Roman exch definefont pop
/Times-Italic findfont
dup length dict begin
  {1 index /FID ne {def} {pop pop} ifelse} forall
  /Encoding WinAnsiEncoding def
  currentdict
end
/Times-Italic exch definefont pop
/Times-Bold findfont
dup length dict begin
  {1 index /FID ne {def} {pop pop} ifelse} forall
  /Encoding WinAnsiEncoding def
  currentdict
end
/Times-Bold exch definefont pop
/Times-BoldItalic findfont
dup length dict begin
  {1 index /FID ne {def} {pop pop} ifelse} forall
  /Encoding WinAnsiEncoding def
  currentdict
end
/Times-BoldItalic exch definefont pop
/Courier findfont
dup length dict begin
  {1 index /FID ne {def} {pop pop} ifelse} forall
  /Encoding WinAnsiEncoding def
  currentdict
end
/Courier exch definefont pop
%FOPEndFontReencode
%%EndProlog
%%Page: 1 1
%%PageBoundingBox: 0 0 573 460
%%BeginPageSetup
[1 0 0 -1 0 460] CT
%%EndPageSetup
GS
[0.75 0 0 0.75 0 0.25] CT
N
0 0 M
764 0 L
764 613 L
0 613 L
0 0 L
cp
clip
1 GC
N
0 0 764 613 re
f
GR
GS
[0.75 0 0 0.75 0 0.25] CT
1 GC
N
0 0 764 613 re
f
GR
GS
[0.75 0 0 0.75 0 0.25] CT
1 GC
N
99 247.727 M
691 247.727 L
691 52.273 L
99 52.273 L
cp
f
GR
GS
[0.75 0 0 0.75 0 0.25] CT
0.149 GC
2 setlinecap
1 LJ
0.667 LW
N
99 247.727 M
691 247.727 L
S
GR
GS
[0.75 0 0 0.75 0 0.25] CT
0.149 GC
2 setlinecap
1 LJ
0.667 LW
N
121.076 247.727 M
121.076 241.807 L
S
GR
GS
[0.75 0 0 0.75 0 0.25] CT
0.149 GC
2 setlinecap
1 LJ
0.667 LW
N
177.071 247.727 M
177.071 241.807 L
S
GR
GS
[0.75 0 0 0.75 0 0.25] CT
0.149 GC
2 setlinecap
1 LJ
0.667 LW
N
233.066 247.727 M
233.066 241.807 L
S
GR
GS
[0.75 0 0 0.75 0 0.25] CT
0.149 GC
2 setlinecap
1 LJ
0.667 LW
N
289.062 247.727 M
289.062 241.807 L
S
GR
GS
[0.75 0 0 0.75 0 0.25] CT
0.149 GC
2 setlinecap
1 LJ
0.667 LW
N
345.057 247.727 M
345.057 241.807 L
S
GR
GS
[0.75 0 0 0.75 0 0.25] CT
0.149 GC
2 setlinecap
1 LJ
0.667 LW
N
401.052 247.727 M
401.052 241.807 L
S
GR
GS
[0.75 0 0 0.75 0 0.25] CT
0.149 GC
2 setlinecap
1 LJ
0.667 LW
N
457.048 247.727 M
457.048 241.807 L
S
GR
GS
[0.75 0 0 0.75 0 0.25] CT
0.149 GC
2 setlinecap
1 LJ
0.667 LW
N
513.043 247.727 M
513.043 241.807 L
S
GR
GS
[0.75 0 0 0.75 0 0.25] CT
0.149 GC
2 setlinecap
1 LJ
0.667 LW
N
569.039 247.727 M
569.039 241.807 L
S
GR
GS
[0.75 0 0 0.75 0 0.25] CT
0.149 GC
2 setlinecap
1 LJ
0.667 LW
N
625.034 247.727 M
625.034 241.807 L
S
GR
GS
[0.75 0 0 0.75 0 0.25] CT
0.149 GC
2 setlinecap
1 LJ
0.667 LW
N
681.029 247.727 M
681.029 241.807 L
S
GR
GS
[0.75 0 0 0.75 90.80667 190.04498] CT
0.149 GC
/Helvetica 13.333 F
GS
[1 0 0 1 0 0] CT
-6 14 moveto 
1 -1 scale
(-6) t 
GR
GR
GS
[0.75 0 0 0.75 132.80319 190.04498] CT
0.149 GC
/Helvetica 13.333 F
GS
[1 0 0 1 0 0] CT
-6 14 moveto 
1 -1 scale
(-4) t 
GR
GR
GS
[0.75 0 0 0.75 174.79971 190.04498] CT
0.149 GC
/Helvetica 13.333 F
GS
[1 0 0 1 0 0] CT
-6 14 moveto 
1 -1 scale
(-2) t 
GR
GR
GS
[0.75 0 0 0.75 216.79623 190.04498] CT
0.149 GC
/Helvetica 13.333 F
GS
[1 0 0 1 0 0] CT
-4 14 moveto 
1 -1 scale
(0) t 
GR
GR
GS
[0.75 0 0 0.75 258.79278 190.04498] CT
0.149 GC
/Helvetica 13.333 F
GS
[1 0 0 1 0 0] CT
-4 14 moveto 
1 -1 scale
(2) t 
GR
GR
GS
[0.75 0 0 0.75 300.7893 190.04498] CT
0.149 GC
/Helvetica 13.333 F
GS
[1 0 0 1 0 0] CT
-4 14 moveto 
1 -1 scale
(4) t 
GR
GR
GS
[0.75 0 0 0.75 342.78582 190.04498] CT
0.149 GC
/Helvetica 13.333 F
GS
[1 0 0 1 0 0] CT
-4 14 moveto 
1 -1 scale
(6) t 
GR
GR
GS
[0.75 0 0 0.75 384.78236 190.04498] CT
0.149 GC
/Helvetica 13.333 F
GS
[1 0 0 1 0 0] CT
-4 14 moveto 
1 -1 scale
(8) t 
GR
GR
GS
[0.75 0 0 0.75 426.77888 190.04498] CT
0.149 GC
/Helvetica 13.333 F
GS
[1 0 0 1 0 0] CT
-7.5 14 moveto 
1 -1 scale
(10) t 
GR
GR
GS
[0.75 0 0 0.75 468.77541 190.04498] CT
0.149 GC
/Helvetica 13.333 F
GS
[1 0 0 1 0 0] CT
-7.5 14 moveto 
1 -1 scale
(12) t 
GR
GR
GS
[0.75 0 0 0.75 510.77193 190.04498] CT
0.149 GC
/Helvetica 13.333 F
GS
[1 0 0 1 0 0] CT
-7.5 14 moveto 
1 -1 scale
(14) t 
GR
GR
GS
[0.75 0 0 0.75 296.25021 203.79498] CT
0.149 GC
/Helvetica 14.667 F
GS
[1 0 0 1 0 0] CT
-14 15 moveto 
1 -1 scale
(x[m]) t 
GR
GR
GS
[0.75 0 0 0.75 0 0.25] CT
0.149 GC
2 setlinecap
1 LJ
0.667 LW
N
99 247.727 M
99 52.273 L
S
GR
GS
[0.75 0 0 0.75 0 0.25] CT
0.149 GC
2 setlinecap
1 LJ
0.667 LW
N
99 236.198 M
104.92 236.198 L
S
GR
GS
[0.75 0 0 0.75 0 0.25] CT
0.149 GC
2 setlinecap
1 LJ
0.667 LW
N
99 208.2 M
104.92 208.2 L
S
GR
GS
[0.75 0 0 0.75 0 0.25] CT
0.149 GC
2 setlinecap
1 LJ
0.667 LW
N
99 180.203 M
104.92 180.203 L
S
GR
GS
[0.75 0 0 0.75 0 0.25] CT
0.149 GC
2 setlinecap
1 LJ
0.667 LW
N
99 152.205 M
104.92 152.205 L
S
GR
GS
[0.75 0 0 0.75 0 0.25] CT
0.149 GC
2 setlinecap
1 LJ
0.667 LW
N
99 124.207 M
104.92 124.207 L
S
GR
GS
[0.75 0 0 0.75 0 0.25] CT
0.149 GC
2 setlinecap
1 LJ
0.667 LW
N
99 96.21 M
104.92 96.21 L
S
GR
GS
[0.75 0 0 0.75 0 0.25] CT
0.149 GC
2 setlinecap
1 LJ
0.667 LW
N
99 68.212 M
104.92 68.212 L
S
GR
GS
[0.75 0 0 0.75 70.25 177.39846] CT
0.149 GC
/Helvetica 13.333 F
GS
[1 0 0 1 0 0] CT
-8 5.5 moveto 
1 -1 scale
(0) t 
GR
GR
GS
[0.75 0 0 0.75 70.25 156.4002] CT
0.149 GC
/Helvetica 13.333 F
GS
[1 0 0 1 0 0] CT
-8 5.5 moveto 
1 -1 scale
(1) t 
GR
GR
GS
[0.75 0 0 0.75 70.25 135.40193] CT
0.149 GC
/Helvetica 13.333 F
GS
[1 0 0 1 0 0] CT
-8 5.5 moveto 
1 -1 scale
(2) t 
GR
GR
GS
[0.75 0 0 0.75 70.25 114.40367] CT
0.149 GC
/Helvetica 13.333 F
GS
[1 0 0 1 0 0] CT
-8 5.5 moveto 
1 -1 scale
(3) t 
GR
GR
GS
[0.75 0 0 0.75 70.25 93.40541] CT
0.149 GC
/Helvetica 13.333 F
GS
[1 0 0 1 0 0] CT
-8 5.5 moveto 
1 -1 scale
(4) t 
GR
GR
GS
[0.75 0 0 0.75 70.25 72.40715] CT
0.149 GC
/Helvetica 13.333 F
GS
[1 0 0 1 0 0] CT
-8 5.5 moveto 
1 -1 scale
(5) t 
GR
GR
GS
[0.75 0 0 0.75 70.25 51.40888] CT
0.149 GC
/Helvetica 13.333 F
GS
[1 0 0 1 0 0] CT
-8 5.5 moveto 
1 -1 scale
(6) t 
GR
GR
GS
[0 -0.75 0.75 0 61.25 112.74993] CT
0.149 GC
/Helvetica 14.667 F
GS
[1 0 0 1 0 0] CT
-14 -4 moveto 
1 -1 scale
(y[m]) t 
GR
GR
GS
[0.75 0 0 0.75 211.5 30.25] CT
/Helvetica-Bold 14.667 F
GS
[1 0 0 1 0 0] CT
0 0 moveto 
1 -1 scale
(X) t 
GR
GR
GS
[0.75 0 0 0.75 219 35.5] CT
/Helvetica-Bold 11.733 F
GS
[1 0 0 1 0 0] CT
0 0 moveto 
1 -1 scale
(G) t 
GR
GR
GS
[0.75 0 0 0.75 226.5 30.25] CT
/Helvetica-Bold 14.667 F
GS
[1 0 0 1 0 0] CT
0 0 moveto 
1 -1 scale
( =[8           6      1.0472           0]) t 
GR
GR
GS
[0.75 0 0 0.75 267.81145 177.39846] CT
0 0 1 RC
10.0 ML
N
4 0 M
4 -2.209 2.209 -4 0 -4 C
-2.209 -4 -4 -2.209 -4 0 C
-4 2.209 -2.209 4 0 4 C
2.209 4 4 2.209 4 0 C
cp
S
GR
GS
[0.75 0 0 0.75 307.10046 170.72332] CT
0 0 1 RC
10.0 ML
N
4 0 M
4 -2.209 2.209 -4 0 -4 C
-2.209 -4 -4 -2.209 -4 0 C
-4 2.209 -2.209 4 0 4 C
2.209 4 4 2.209 4 0 C
cp
S
GR
GS
[0.75 0 0 0.75 334.63245 138.27105] CT
0 0 1 RC
10.0 ML
N
4 0 M
4 -2.209 2.209 -4 0 -4 C
-2.209 -4 -4 -2.209 -4 0 C
-4 2.209 -2.209 4 0 4 C
2.209 4 4 2.209 4 0 C
cp
S
GR
GS
[0.75 0 0 0.75 384.78236 51.40888] CT
0 0 1 RC
10.0 ML
N
4 0 M
4 -2.209 2.209 -4 0 -4 C
-2.209 -4 -4 -2.209 -4 0 C
-4 2.209 -2.209 4 0 4 C
2.209 4 4 2.209 4 0 C
cp
S
GR
GS
[0.75 0 0 0.75 0 0.25] CT
0 0.447 0.741 RC
1 LJ
0.667 LW
N
289.062 236.198 M
357.082 236.198 L
357.082 236.198 L
357.362 236.198 L
357.642 236.198 L
357.922 236.198 L
358.202 236.198 L
358.482 236.198 L
358.761 236.198 L
359.041 236.197 L
359.321 236.197 L
359.601 236.197 L
359.881 236.196 L
360.161 236.196 L
360.441 236.195 L
360.721 236.195 L
361.001 236.194 L
361.281 236.193 L
361.561 236.192 L
361.841 236.191 L
362.121 236.19 L
362.4 236.188 L
362.68 236.187 L
362.96 236.185 L
363.24 236.183 L
363.52 236.181 L
363.8 236.179 L
364.08 236.177 L
364.36 236.174 L
364.64 236.171 L
364.92 236.168 L
365.2 236.165 L
365.479 236.162 L
365.759 236.158 L
366.039 236.154 L
366.319 236.15 L
366.599 236.145 L
366.879 236.141 L
367.159 236.136 L
367.439 236.13 L
367.719 236.125 L
367.998 236.119 L
368.278 236.113 L
368.558 236.106 L
368.838 236.1 L
369.118 236.093 L
369.398 236.085 L
369.677 236.077 L
369.957 236.069 L
370.237 236.061 L
370.517 236.052 L
370.797 236.043 L
371.076 236.033 L
371.356 236.023 L
371.636 236.013 L
371.916 236.002 L
372.195 235.991 L
372.475 235.979 L
372.755 235.967 L
373.034 235.955 L
373.314 235.942 L
373.593 235.928 L
373.873 235.914 L
374.153 235.9 L
374.432 235.885 L
374.712 235.87 L
374.991 235.854 L
375.271 235.838 L
375.55 235.821 L
375.829 235.804 L
376.109 235.786 L
376.388 235.768 L
376.667 235.749 L
376.947 235.73 L
377.226 235.71 L
377.505 235.69 L
377.784 235.669 L
378.063 235.647 L
378.342 235.625 L
378.621 235.602 L
378.9 235.579 L
379.179 235.555 L
379.458 235.53 L
379.737 235.505 L
380.015 235.479 L
380.294 235.453 L
380.573 235.426 L
380.851 235.398 L
381.13 235.37 L
381.408 235.341 L
381.686 235.311 L
381.965 235.281 L
382.243 235.25 L
382.521 235.218 L
382.799 235.185 L
383.077 235.152 L
383.355 235.118 L
383.633 235.084 L
383.91 235.048 L
384.188 235.012 L
384.465 234.976 L
384.743 234.938 L
385.02 234.9 L
385.297 234.861 L
385.574 234.821 L
385.851 234.78 L
386.128 234.739 L
386.405 234.697 L
386.682 234.654 L
386.958 234.61 L
387.234 234.565 L
387.511 234.52 L
387.787 234.473 L
388.063 234.426 L
388.338 234.378 L
388.614 234.33 L
388.889 234.28 L
389.165 234.229 L
389.44 234.178 L
389.715 234.126 L
389.99 234.073 L
390.264 234.018 L
390.539 233.964 L
390.813 233.908 L
391.087 233.851 L
391.361 233.793 L
391.635 233.735 L
391.908 233.675 L
392.182 233.614 L
392.455 233.553 L
392.728 233.491 L
393 233.427 L
393.273 233.363 L
393.545 233.297 L
393.817 233.231 L
394.089 233.164 L
394.36 233.096 L
394.631 233.026 L
394.902 232.956 L
395.173 232.885 L
395.443 232.812 L
395.714 232.739 L
395.983 232.665 L
396.253 232.589 L
396.522 232.513 L
396.791 232.435 L
397.06 232.357 L
397.328 232.277 L
397.596 232.196 L
397.864 232.114 L
398.131 232.031 L
398.398 231.947 L
398.665 231.862 L
398.931 231.776 L
399.197 231.689 L
399.463 231.6 L
399.728 231.511 L
399.993 231.42 L
400.257 231.329 L
400.521 231.236 L
400.785 231.142 L
401.048 231.046 L
401.311 230.95 L
401.574 230.853 L
401.835 230.754 L
402.097 230.654 L
402.358 230.553 L
402.619 230.451 L
402.879 230.347 L
403.138 230.243 L
403.398 230.137 L
403.656 230.03 L
403.915 229.922 L
404.172 229.813 L
404.429 229.702 L
404.686 229.59 L
404.942 229.477 L
405.198 229.363 L
405.453 229.248 L
405.707 229.131 L
405.961 229.013 L
406.214 228.894 L
406.467 228.773 L
406.719 228.652 L
406.971 228.529 L
407.221 228.405 L
407.472 228.279 L
407.721 228.153 L
407.97 228.025 L
408.218 227.895 L
408.466 227.765 L
408.713 227.633 L
408.959 227.5 L
409.205 227.365 L
409.45 227.23 L
409.693 227.093 L
409.936 226.955 L
410.178 226.816 L
410.419 226.676 L
410.659 226.535 L
410.899 226.392 L
411.138 226.248 L
411.377 226.103 L
411.614 225.956 L
411.851 225.809 L
412.087 225.66 L
412.323 225.51 L
412.557 225.359 L
412.791 225.207 L
413.024 225.053 L
413.257 224.899 L
413.488 224.743 L
413.719 224.586 L
413.949 224.428 L
414.179 224.269 L
414.407 224.109 L
414.635 223.948 L
414.862 223.786 L
415.089 223.623 L
415.314 223.459 L
415.539 223.293 L
415.763 223.127 L
415.986 222.96 L
416.209 222.791 L
416.431 222.622 L
416.652 222.452 L
416.872 222.28 L
417.092 222.108 L
417.31 221.935 L
417.528 221.76 L
417.746 221.585 L
417.962 221.409 L
418.178 221.232 L
418.393 221.054 L
418.607 220.875 L
418.82 220.696 L
419.033 220.515 L
419.245 220.333 L
419.456 220.151 L
419.667 219.968 L
419.876 219.783 L
420.085 219.598 L
420.294 219.413 L
420.501 219.226 L
420.708 219.038 L
420.914 218.85 L
421.119 218.661 L
421.323 218.471 L
421.527 218.28 L
421.73 218.089 L
421.932 217.896 L
422.134 217.703 L
422.334 217.509 L
422.534 217.315 L
422.734 217.119 L
422.932 216.923 L
423.13 216.727 L
423.327 216.529 L
423.524 216.331 L
423.719 216.132 L
423.914 215.932 L
424.109 215.732 L
424.302 215.531 L
424.495 215.329 L
424.687 215.127 L
424.879 214.924 L
425.069 214.72 L
425.26 214.516 L
425.449 214.311 L
425.638 214.105 L
425.826 213.899 L
426.013 213.692 L
426.2 213.484 L
426.385 213.276 L
426.571 213.068 L
426.755 212.858 L
426.939 212.649 L
427.123 212.438 L
427.305 212.227 L
427.487 212.016 L
427.669 211.803 L
427.849 211.591 L
428.029 211.377 L
428.209 211.164 L
428.387 210.949 L
428.566 210.735 L
428.743 210.519 L
428.92 210.303 L
429.096 210.087 L
429.272 209.87 L
429.447 209.653 L
429.621 209.435 L
429.795 209.217 L
429.968 208.998 L
430.141 208.778 L
430.313 208.559 L
430.484 208.339 L
430.655 208.118 L
430.826 207.897 L
430.995 207.675 L
431.164 207.453 L
431.333 207.231 L
431.501 207.008 L
431.668 206.785 L
431.835 206.561 L
432.002 206.337 L
432.168 206.113 L
432.333 205.888 L
432.498 205.663 L
432.662 205.437 L
432.826 205.211 L
432.989 204.985 L
433.151 204.758 L
433.314 204.531 L
433.475 204.303 L
433.637 204.075 L
433.797 203.847 L
433.957 203.619 L
434.117 203.39 L
434.276 203.161 L
434.435 202.931 L
434.593 202.701 L
434.751 202.471 L
434.909 202.241 L
435.066 202.01 L
435.222 201.779 L
435.378 201.548 L
435.534 201.316 L
435.689 201.084 L
435.844 200.852 L
435.998 200.619 L
436.152 200.387 L
436.306 200.154 L
436.459 199.92 L
436.612 199.687 L
436.764 199.453 L
436.916 199.219 L
437.067 198.984 L
437.219 198.75 L
437.369 198.515 L
437.52 198.28 L
437.67 198.045 L
437.82 197.809 L
437.969 197.574 L
438.118 197.338 L
438.267 197.102 L
438.416 196.865 L
438.564 196.629 L
438.711 196.392 L
438.859 196.155 L
439.006 195.918 L
439.153 195.681 L
439.3 195.443 L
439.446 195.206 L
439.592 194.968 L
439.738 194.73 L
439.883 194.492 L
440.028 194.253 L
440.173 194.015 L
440.318 193.776 L
440.462 193.537 L
440.606 193.298 L
440.75 193.059 L
440.894 192.82 L
441.038 192.581 L
441.181 192.341 L
441.324 192.102 L
441.467 191.862 L
441.61 191.622 L
441.752 191.382 L
441.894 191.142 L
442.037 190.902 L
442.178 190.662 L
442.32 190.421 L
442.462 190.181 L
442.603 189.94 L
442.745 189.7 L
442.886 189.459 L
443.027 189.218 L
443.168 188.977 L
443.308 188.736 L
443.449 188.495 L
443.59 188.254 L
443.73 188.013 L
443.87 187.772 L
444.011 187.53 L
444.151 187.289 L
444.291 187.048 L
444.431 186.806 L
444.571 186.565 L
444.711 186.323 L
444.85 186.082 L
444.99 185.84 L
445.13 185.599 L
445.269 185.357 L
445.409 185.115 L
445.549 184.874 L
445.688 184.632 L
445.828 184.39 L
445.967 184.149 L
446.107 183.907 L
446.107 183.907 L
512.973 68.091 L
S
GR
GS
[0.75 0 0 0.75 384.78236 51.40888] CT
0 1 1 RC
10.0 ML
N
-2.828 -2.828 M
2.828 2.828 L
-2.828 2.828 M
2.828 -2.828 L
S
GR
GS
[0.75 0 0 0.75 0 0.25] CT
0 1 1 RC
1 LJ
0.667 LW
N
513.043 68.212 M
518.643 58.513 L
S
GR
GS
[0.75 0 0 0.75 0 0.25] CT
1 GC
N
99 545 M
691 545 L
691 336 L
99 336 L
cp
f
GR
GS
[0.75 0 0 0.75 0 0.25] CT
0.149 GC
2 setlinecap
1 LJ
0.667 LW
N
99 545 M
691 545 L
S
GR
GS
[0.75 0 0 0.75 0 0.25] CT
0.149 GC
2 setlinecap
1 LJ
0.667 LW
N
99 336 M
691 336 L
S
GR
GS
[0.75 0 0 0.75 0 0.25] CT
0.149 GC
2 setlinecap
1 LJ
0.667 LW
N
99 545 M
99 539.08 L
S
GR
GS
[0.75 0 0 0.75 0 0.25] CT
0.149 GC
2 setlinecap
1 LJ
0.667 LW
N
197.667 545 M
197.667 539.08 L
S
GR
GS
[0.75 0 0 0.75 0 0.25] CT
0.149 GC
2 setlinecap
1 LJ
0.667 LW
N
296.333 545 M
296.333 539.08 L
S
GR
GS
[0.75 0 0 0.75 0 0.25] CT
0.149 GC
2 setlinecap
1 LJ
0.667 LW
N
395 545 M
395 539.08 L
S
GR
GS
[0.75 0 0 0.75 0 0.25] CT
0.149 GC
2 setlinecap
1 LJ
0.667 LW
N
493.667 545 M
493.667 539.08 L
S
GR
GS
[0.75 0 0 0.75 0 0.25] CT
0.149 GC
2 setlinecap
1 LJ
0.667 LW
N
592.333 545 M
592.333 539.08 L
S
GR
GS
[0.75 0 0 0.75 0 0.25] CT
0.149 GC
2 setlinecap
1 LJ
0.667 LW
N
691 545 M
691 539.08 L
S
GR
GS
[0.75 0 0 0.75 0 0.25] CT
0.149 GC
2 setlinecap
1 LJ
0.667 LW
N
99 336 M
99 341.92 L
S
GR
GS
[0.75 0 0 0.75 0 0.25] CT
0.149 GC
2 setlinecap
1 LJ
0.667 LW
N
197.667 336 M
197.667 341.92 L
S
GR
GS
[0.75 0 0 0.75 0 0.25] CT
0.149 GC
2 setlinecap
1 LJ
0.667 LW
N
296.333 336 M
296.333 341.92 L
S
GR
GS
[0.75 0 0 0.75 0 0.25] CT
0.149 GC
2 setlinecap
1 LJ
0.667 LW
N
395 336 M
395 341.92 L
S
GR
GS
[0.75 0 0 0.75 0 0.25] CT
0.149 GC
2 setlinecap
1 LJ
0.667 LW
N
493.667 336 M
493.667 341.92 L
S
GR
GS
[0.75 0 0 0.75 0 0.25] CT
0.149 GC
2 setlinecap
1 LJ
0.667 LW
N
592.333 336 M
592.333 341.92 L
S
GR
GS
[0.75 0 0 0.75 0 0.25] CT
0.149 GC
2 setlinecap
1 LJ
0.667 LW
N
691 336 M
691 341.92 L
S
GR
GS
[0.75 0 0 0.75 74.25 412.99998] CT
0.149 GC
/Helvetica 13.333 F
GS
[1 0 0 1 0 0] CT
-4 14 moveto 
1 -1 scale
(0) t 
GR
GR
GS
[0.75 0 0 0.75 148.25 412.99998] CT
0.149 GC
/Helvetica 13.333 F
GS
[1 0 0 1 0 0] CT
-4 14 moveto 
1 -1 scale
(2) t 
GR
GR
GS
[0.75 0 0 0.75 222.25001 412.99998] CT
0.149 GC
/Helvetica 13.333 F
GS
[1 0 0 1 0 0] CT
-4 14 moveto 
1 -1 scale
(4) t 
GR
GR
GS
[0.75 0 0 0.75 296.25 412.99998] CT
0.149 GC
/Helvetica 13.333 F
GS
[1 0 0 1 0 0] CT
-4 14 moveto 
1 -1 scale
(6) t 
GR
GR
GS
[0.75 0 0 0.75 370.24999 412.99998] CT
0.149 GC
/Helvetica 13.333 F
GS
[1 0 0 1 0 0] CT
-4 14 moveto 
1 -1 scale
(8) t 
GR
GR
GS
[0.75 0 0 0.75 444.24998 412.99998] CT
0.149 GC
/Helvetica 13.333 F
GS
[1 0 0 1 0 0] CT
-7.5 14 moveto 
1 -1 scale
(10) t 
GR
GR
GS
[0.75 0 0 0.75 518.25 412.99998] CT
0.149 GC
/Helvetica 13.333 F
GS
[1 0 0 1 0 0] CT
-7.5 14 moveto 
1 -1 scale
(12) t 
GR
GR
GS
[0.75 0 0 0.75 296.25021 426.75002] CT
0.149 GC
/Helvetica 14.667 F
GS
[1 0 0 1 0 0] CT
-14 15 moveto 
1 -1 scale
(s[m]) t 
GR
GR
GS
[0.75 0 0 0.75 0 0.25] CT
0.149 GC
2 setlinecap
1 LJ
0.667 LW
N
99 545 M
99 336 L
S
GR
GS
[0.75 0 0 0.75 0 0.25] CT
0.149 GC
2 setlinecap
1 LJ
0.667 LW
N
691 545 M
691 336 L
S
GR
GS
[0.75 0 0 0.75 0 0.25] CT
0.149 GC
2 setlinecap
1 LJ
0.667 LW
N
99 545 M
104.92 545 L
S
GR
GS
[0.75 0 0 0.75 0 0.25] CT
0.149 GC
2 setlinecap
1 LJ
0.667 LW
N
99 503.2 M
104.92 503.2 L
S
GR
GS
[0.75 0 0 0.75 0 0.25] CT
0.149 GC
2 setlinecap
1 LJ
0.667 LW
N
99 461.4 M
104.92 461.4 L
S
GR
GS
[0.75 0 0 0.75 0 0.25] CT
0.149 GC
2 setlinecap
1 LJ
0.667 LW
N
99 419.6 M
104.92 419.6 L
S
GR
GS
[0.75 0 0 0.75 0 0.25] CT
0.149 GC
2 setlinecap
1 LJ
0.667 LW
N
99 377.8 M
104.92 377.8 L
S
GR
GS
[0.75 0 0 0.75 0 0.25] CT
0.149 GC
2 setlinecap
1 LJ
0.667 LW
N
99 336 M
104.92 336 L
S
GR
GS
[0.75 0 0 0.75 0 0.25] CT
0.149 GC
2 setlinecap
1 LJ
0.667 LW
N
691 545 M
685.08 545 L
S
GR
GS
[0.75 0 0 0.75 0 0.25] CT
0.149 GC
2 setlinecap
1 LJ
0.667 LW
N
691 503.2 M
685.08 503.2 L
S
GR
GS
[0.75 0 0 0.75 0 0.25] CT
0.149 GC
2 setlinecap
1 LJ
0.667 LW
N
691 461.4 M
685.08 461.4 L
S
GR
GS
[0.75 0 0 0.75 0 0.25] CT
0.149 GC
2 setlinecap
1 LJ
0.667 LW
N
691 419.6 M
685.08 419.6 L
S
GR
GS
[0.75 0 0 0.75 0 0.25] CT
0.149 GC
2 setlinecap
1 LJ
0.667 LW
N
691 377.8 M
685.08 377.8 L
S
GR
GS
[0.75 0 0 0.75 0 0.25] CT
0.149 GC
2 setlinecap
1 LJ
0.667 LW
N
691 336 M
685.08 336 L
S
GR
GS
[0.75 0 0 0.75 70.25 409] CT
0.149 GC
/Helvetica 13.333 F
GS
[1 0 0 1 0 0] CT
-23 5.5 moveto 
1 -1 scale
(-0.4) t 
GR
GR
GS
[0.75 0 0 0.75 70.25 377.65001] CT
0.149 GC
/Helvetica 13.333 F
GS
[1 0 0 1 0 0] CT
-23 5.5 moveto 
1 -1 scale
(-0.2) t 
GR
GR
GS
[0.75 0 0 0.75 70.25 346.3] CT
0.149 GC
/Helvetica 13.333 F
GS
[1 0 0 1 0 0] CT
-8 5.5 moveto 
1 -1 scale
(0) t 
GR
GR
GS
[0.75 0 0 0.75 70.25 314.95] CT
0.149 GC
/Helvetica 13.333 F
GS
[1 0 0 1 0 0] CT
-19 5.5 moveto 
1 -1 scale
(0.2) t 
GR
GR
GS
[0.75 0 0 0.75 70.25 283.59999] CT
0.149 GC
/Helvetica 13.333 F
GS
[1 0 0 1 0 0] CT
-19 5.5 moveto 
1 -1 scale
(0.4) t 
GR
GR
GS
[0.75 0 0 0.75 70.25 252.25] CT
0.149 GC
/Helvetica 13.333 F
GS
[1 0 0 1 0 0] CT
-19 5.5 moveto 
1 -1 scale
(0.6) t 
GR
GR
GS
[0.75 0 0 0.75 0 0.25] CT
1 0 0 RC
1 LJ
0.667 LW
N
99 461.4 M
99 461.4 L
S
GR
GS
[0.75 0 0 0.75 0 0.25] CT
0 1 0 RC
1 LJ
0.667 LW
N
99 461.4 M
99 461.4 L
S
GR
GS
[0.75 0 0 0.75 164.14138 346.3] CT
0 1 0 RC
10.0 ML
N
4 0 M
4 -2.209 2.209 -4 0 -4 C
-2.209 -4 -4 -2.209 -4 0 C
-4 2.209 -2.209 4 0 4 C
2.209 4 4 2.209 4 0 C
cp
S
GR
GS
[0.75 0 0 0.75 235.16755 263.66729] CT
0 1 0 RC
10.0 ML
N
4 0 M
4 -2.209 2.209 -4 0 -4 C
-2.209 -4 -4 -2.209 -4 0 C
-4 2.209 -2.209 4 0 4 C
2.209 4 4 2.209 4 0 C
cp
S
GR
GS
[0.75 0 0 0.75 311.14089 346.3] CT
0 1 0 RC
10.0 ML
N
4 0 M
4 -2.209 2.209 -4 0 -4 C
-2.209 -4 -4 -2.209 -4 0 C
-4 2.209 -2.209 4 0 4 C
2.209 4 4 2.209 4 0 C
cp
S
GR
GS
[0.75 0 0 0.75 487.87418 346.3] CT
0 1 0 RC
10.0 ML
N
4 0 M
4 -2.209 2.209 -4 0 -4 C
-2.209 -4 -4 -2.209 -4 0 C
-4 2.209 -2.209 4 0 4 C
2.209 4 4 2.209 4 0 C
cp
S
GR
GS
[0.75 0 0 0.75 74.25 346.3] CT
1 0 0 RC
10.0 ML
N
4 0 M
4 -2.209 2.209 -4 0 -4 C
-2.209 -4 -4 -2.209 -4 0 C
-4 2.209 -2.209 4 0 4 C
2.209 4 4 2.209 4 0 C
cp
S
GR
GS
[0.75 0 0 0.75 164.14138 346.3] CT
1 0 0 RC
10.0 ML
N
4 0 M
4 -2.209 2.209 -4 0 -4 C
-2.209 -4 -4 -2.209 -4 0 C
-4 2.209 -2.209 4 0 4 C
2.209 4 4 2.209 4 0 C
cp
S
GR
GS
[0.75 0 0 0.75 164.14138 303.25375] CT
1 0 0 RC
10.0 ML
N
4 0 M
4 -2.209 2.209 -4 0 -4 C
-2.209 -4 -4 -2.209 -4 0 C
-4 2.209 -2.209 4 0 4 C
2.209 4 4 2.209 4 0 C
cp
S
GR
GS
[0.75 0 0 0.75 235.16755 303.25375] CT
1 0 0 RC
10.0 ML
N
4 0 M
4 -2.209 2.209 -4 0 -4 C
-2.209 -4 -4 -2.209 -4 0 C
-4 2.209 -2.209 4 0 4 C
2.209 4 4 2.209 4 0 C
cp
S
GR
GS
[0.75 0 0 0.75 235.16755 386.54321] CT
1 0 0 RC
10.0 ML
N
4 0 M
4 -2.209 2.209 -4 0 -4 C
-2.209 -4 -4 -2.209 -4 0 C
-4 2.209 -2.209 4 0 4 C
2.209 4 4 2.209 4 0 C
cp
S
GR
GS
[0.75 0 0 0.75 311.14089 386.54321] CT
1 0 0 RC
10.0 ML
N
4 0 M
4 -2.209 2.209 -4 0 -4 C
-2.209 -4 -4 -2.209 -4 0 C
-4 2.209 -2.209 4 0 4 C
2.209 4 4 2.209 4 0 C
cp
S
GR
GS
[0.75 0 0 0.75 311.14089 346.3] CT
1 0 0 RC
10.0 ML
N
4 0 M
4 -2.209 2.209 -4 0 -4 C
-2.209 -4 -4 -2.209 -4 0 C
-4 2.209 -2.209 4 0 4 C
2.209 4 4 2.209 4 0 C
cp
S
GR
GS
[0.75 0 0 0.75 487.87418 346.3] CT
1 0 0 RC
10.0 ML
N
4 0 M
4 -2.209 2.209 -4 0 -4 C
-2.209 -4 -4 -2.209 -4 0 C
-4 2.209 -2.209 4 0 4 C
2.209 4 4 2.209 4 0 C
cp
S
GR
GS
[0.75 0 0 0.75 0 0.25] CT
1 0 0 RC
1 LJ
0.667 LW
N
99 461.4 M
218.855 461.4 L
218.855 404.005 L
313.557 404.005 L
313.557 515.058 L
414.855 515.058 L
414.855 461.4 L
650.499 461.4 L
S
GR
GS
[0.75 0 0 0.75 0 0.25] CT
0 1 0 RC
1 LJ
0.667 LW
N
99 461.4 M
218.855 461.4 L
218.855 461.4 L
219.348 460.826 L
219.842 460.252 L
220.335 459.678 L
220.828 459.105 L
221.321 458.531 L
221.815 457.957 L
222.308 457.383 L
222.801 456.809 L
223.294 456.235 L
223.788 455.662 L
224.281 455.088 L
224.774 454.514 L
225.267 453.94 L
225.76 453.366 L
226.254 452.792 L
226.747 452.219 L
227.24 451.645 L
227.733 451.071 L
228.227 450.497 L
228.72 449.923 L
229.213 449.349 L
229.706 448.776 L
230.2 448.202 L
230.693 447.628 L
231.186 447.054 L
231.679 446.48 L
232.173 445.906 L
232.666 445.333 L
233.159 444.759 L
233.652 444.185 L
234.146 443.611 L
234.639 443.037 L
235.132 442.463 L
235.625 441.889 L
236.118 441.316 L
236.612 440.742 L
237.105 440.168 L
237.598 439.594 L
238.091 439.02 L
238.585 438.446 L
239.078 437.873 L
239.571 437.299 L
240.064 436.725 L
240.558 436.151 L
241.051 435.577 L
241.544 435.003 L
242.037 434.43 L
242.531 433.856 L
243.024 433.282 L
243.517 432.708 L
244.01 432.134 L
244.504 431.56 L
244.997 430.987 L
245.49 430.413 L
245.983 429.839 L
246.476 429.265 L
246.97 428.691 L
247.463 428.117 L
247.956 427.544 L
248.449 426.97 L
248.943 426.396 L
249.436 425.822 L
249.929 425.248 L
250.422 424.674 L
250.916 424.101 L
251.409 423.527 L
251.902 422.953 L
252.395 422.379 L
252.889 421.805 L
253.382 421.231 L
253.875 420.657 L
254.368 420.084 L
254.861 419.51 L
255.355 418.936 L
255.848 418.362 L
256.341 417.788 L
256.834 417.214 L
257.328 416.641 L
257.821 416.067 L
258.314 415.493 L
258.807 414.919 L
259.301 414.345 L
259.794 413.771 L
260.287 413.198 L
260.78 412.624 L
261.274 412.05 L
261.767 411.476 L
262.26 410.902 L
262.753 410.328 L
263.247 409.755 L
263.74 409.181 L
264.233 408.607 L
264.726 408.033 L
265.219 407.459 L
265.713 406.885 L
266.206 406.312 L
266.699 405.738 L
267.192 405.164 L
267.686 404.59 L
268.179 404.016 L
268.672 403.442 L
269.165 402.868 L
269.659 402.295 L
270.152 401.721 L
270.645 401.147 L
271.138 400.573 L
271.632 399.999 L
272.125 399.425 L
272.618 398.852 L
273.111 398.278 L
273.605 397.704 L
274.098 397.13 L
274.591 396.556 L
275.084 395.982 L
275.577 395.409 L
276.071 394.835 L
276.564 394.261 L
277.057 393.687 L
277.55 393.113 L
278.044 392.539 L
278.537 391.966 L
279.03 391.392 L
279.523 390.818 L
280.017 390.244 L
280.51 389.67 L
281.003 389.096 L
281.496 388.523 L
281.99 387.949 L
282.483 387.375 L
282.976 386.801 L
283.469 386.227 L
283.962 385.653 L
284.456 385.079 L
284.949 384.506 L
285.442 383.932 L
285.935 383.358 L
286.429 382.784 L
286.922 382.21 L
287.415 381.636 L
287.908 381.063 L
288.402 380.489 L
288.895 379.915 L
289.388 379.341 L
289.881 378.767 L
290.375 378.193 L
290.868 377.62 L
291.361 377.046 L
291.854 376.472 L
292.348 375.898 L
292.841 375.324 L
293.334 374.75 L
293.827 374.177 L
294.32 373.603 L
294.814 373.029 L
295.307 372.455 L
295.8 371.881 L
296.293 371.307 L
296.787 370.734 L
297.28 370.16 L
297.773 369.586 L
298.266 369.012 L
298.76 368.438 L
299.253 367.864 L
299.746 367.291 L
300.239 366.717 L
300.733 366.143 L
301.226 365.569 L
301.719 364.995 L
302.212 364.421 L
302.706 363.848 L
303.199 363.274 L
303.692 362.7 L
304.185 362.126 L
304.678 361.552 L
305.172 360.978 L
305.665 360.404 L
306.158 359.831 L
306.651 359.257 L
307.145 358.683 L
307.638 358.109 L
308.131 357.535 L
308.624 356.961 L
309.118 356.388 L
309.611 355.814 L
310.104 355.24 L
310.597 354.666 L
311.091 354.092 L
311.584 353.518 L
312.077 352.945 L
312.57 352.371 L
313.064 351.797 L
313.557 351.223 L
314.048 351.758 L
314.54 352.293 L
315.032 352.828 L
315.524 353.362 L
316.015 353.897 L
316.507 354.432 L
316.999 354.967 L
317.491 355.502 L
317.982 356.037 L
318.474 356.571 L
318.966 357.106 L
319.458 357.641 L
319.949 358.176 L
320.441 358.711 L
320.933 359.246 L
321.425 359.78 L
321.916 360.315 L
322.408 360.85 L
322.9 361.385 L
323.391 361.92 L
323.883 362.455 L
324.375 362.99 L
324.867 363.524 L
325.358 364.059 L
325.85 364.594 L
326.342 365.129 L
326.834 365.664 L
327.325 366.199 L
327.817 366.733 L
328.309 367.268 L
328.801 367.803 L
329.292 368.338 L
329.784 368.873 L
330.276 369.408 L
330.768 369.942 L
331.259 370.477 L
331.751 371.012 L
332.243 371.547 L
332.734 372.082 L
333.226 372.617 L
333.718 373.151 L
334.21 373.686 L
334.701 374.221 L
335.193 374.756 L
335.685 375.291 L
336.177 375.826 L
336.668 376.361 L
337.16 376.895 L
337.652 377.43 L
338.144 377.965 L
338.635 378.5 L
339.127 379.035 L
339.619 379.57 L
340.111 380.104 L
340.602 380.639 L
341.094 381.174 L
341.586 381.709 L
342.077 382.244 L
342.569 382.779 L
343.061 383.313 L
343.553 383.848 L
344.044 384.383 L
344.536 384.918 L
345.028 385.453 L
345.52 385.988 L
346.011 386.522 L
346.503 387.057 L
346.995 387.592 L
347.487 388.127 L
347.978 388.662 L
348.47 389.197 L
348.962 389.732 L
349.454 390.266 L
349.945 390.801 L
350.437 391.336 L
350.929 391.871 L
351.42 392.406 L
351.912 392.941 L
352.404 393.475 L
352.896 394.01 L
353.387 394.545 L
353.879 395.08 L
354.371 395.615 L
354.863 396.15 L
355.354 396.684 L
355.846 397.219 L
356.338 397.754 L
356.83 398.289 L
357.321 398.824 L
357.813 399.359 L
358.305 399.893 L
358.797 400.428 L
359.288 400.963 L
359.78 401.498 L
360.272 402.033 L
360.763 402.568 L
361.255 403.102 L
361.747 403.637 L
362.239 404.172 L
362.73 404.707 L
363.222 405.242 L
363.714 405.777 L
364.206 406.312 L
364.697 406.846 L
365.189 407.381 L
365.681 407.916 L
366.173 408.451 L
366.664 408.986 L
367.156 409.521 L
367.648 410.055 L
368.14 410.59 L
368.631 411.125 L
369.123 411.66 L
369.615 412.195 L
370.106 412.73 L
370.598 413.264 L
371.09 413.799 L
371.582 414.334 L
372.073 414.869 L
372.565 415.404 L
373.057 415.939 L
373.549 416.473 L
374.04 417.008 L
374.532 417.543 L
375.024 418.078 L
375.516 418.613 L
376.007 419.148 L
376.499 419.683 L
376.991 420.217 L
377.483 420.752 L
377.974 421.287 L
378.466 421.822 L
378.958 422.357 L
379.449 422.892 L
379.941 423.426 L
380.433 423.961 L
380.925 424.496 L
381.416 425.031 L
381.908 425.566 L
382.4 426.101 L
382.892 426.635 L
383.383 427.17 L
383.875 427.705 L
384.367 428.24 L
384.859 428.775 L
385.35 429.31 L
385.842 429.844 L
386.334 430.379 L
386.826 430.914 L
387.317 431.449 L
387.809 431.984 L
388.301 432.519 L
388.792 433.053 L
389.284 433.588 L
389.776 434.123 L
390.268 434.658 L
390.759 435.193 L
391.251 435.728 L
391.743 436.263 L
392.235 436.797 L
392.726 437.332 L
393.218 437.867 L
393.71 438.402 L
394.202 438.937 L
394.693 439.472 L
395.185 440.006 L
395.677 440.541 L
396.169 441.076 L
396.66 441.611 L
397.152 442.146 L
397.644 442.681 L
398.135 443.215 L
398.627 443.75 L
399.119 444.285 L
399.611 444.82 L
400.102 445.355 L
400.594 445.89 L
401.086 446.424 L
401.578 446.959 L
402.069 447.494 L
402.561 448.029 L
403.053 448.564 L
403.545 449.099 L
404.036 449.634 L
404.528 450.168 L
405.02 450.703 L
405.512 451.238 L
406.003 451.773 L
406.495 452.308 L
406.987 452.843 L
407.478 453.377 L
407.97 453.912 L
408.462 454.447 L
408.954 454.982 L
409.445 455.517 L
409.937 456.052 L
410.429 456.586 L
410.921 457.121 L
411.412 457.656 L
411.904 458.191 L
412.396 458.726 L
412.888 459.261 L
413.379 459.795 L
413.871 460.33 L
414.363 460.865 L
414.855 461.4 L
414.855 461.4 L
650.499 461.4 L
S
GR
GS
[0.75 0 0 0.75 0 0.25] CT
1 GC
N
680 389 M
680 347 L
521 347 L
521 389 L
cp
f
GR
GS
[0.75 0 0 0.75 426 274] CT
/Helvetica 12 F
GS
[1 0 0 1 0 0] CT
0 0 moveto 
1 -1 scale
(Sharpness [rad.m) t 
GR
GR
GS
[0.75 0 0 0.75 497.25 269.5] CT
/Helvetica 9.6 F
GS
[1 0 0 1 0 0] CT
0 0 moveto 
1 -1 scale
(-2) t 
GR
GR
GS
[0.75 0 0 0.75 504 274] CT
/Helvetica 12 F
GS
[1 0 0 1 0 0] CT
0 0 moveto 
1 -1 scale
(]) t 
GR
GR
GS
[0.75 0 0 0.75 0 0.25] CT
1 0 0 RC
1 LJ
0.667 LW
N
525 358.365 M
565 358.365 L
S
GR
GS
[0.75 0 0 0.75 426 289] CT
/Helvetica 12 F
GS
[1 0 0 1 0 0] CT
0 0 moveto 
1 -1 scale
(Curvature [rad.m) t 
GR
GR
GS
[0.75 0 0 0.75 494.25 284.5] CT
/Helvetica 9.6 F
GS
[1 0 0 1 0 0] CT
0 0 moveto 
1 -1 scale
(-1) t 
GR
GR
GS
[0.75 0 0 0.75 501 289] CT
/Helvetica 12 F
GS
[1 0 0 1 0 0] CT
0 0 moveto 
1 -1 scale
(]) t 
GR
GR
GS
[0.75 0 0 0.75 0 0.25] CT
0 1 0 RC
1 LJ
0.667 LW
N
525 377.635 M
565 377.635 L
S
GR
GS
[0.75 0 0 0.75 0 0.25] CT
0.149 GC
10.0 ML
0.667 LW
N
521 389 M
521 347 L
680 347 L
680 389 L
cp
S
GR
%%Trailer
%%Pages: 1
%%EOF
