%!PS-Adobe-3.0 EPSF-3.0
%%Creator: (MATLAB, The Mathworks, Inc. Version 9.5.0.944444 \(R2018b\). Operating System: Windows 10)
%%Title: C:/Users/Ed/git_clones/clothoid-composition-method/Exploration/AnalyticDeriv/PathTo-8-6-40.eps
%%CreationDate: 2019-11-19T17:46:46
%%Pages: (atend)
%%BoundingBox: 0 0 420 315
%%LanguageLevel: 3
%%EndComments
%%BeginProlog
%%BeginResource: procset (Apache XML Graphics Std ProcSet) 1.2 0
%%Version: 1.2 0
%%Copyright: (Copyright 2001-2003,2010 The Apache Software Foundation. License terms: http://www.apache.org/licenses/LICENSE-2.0)
/bd{bind def}bind def
/ld{load def}bd
/GR/grestore ld
/GS/gsave ld
/RM/rmoveto ld
/C/curveto ld
/t/show ld
/L/lineto ld
/ML/setmiterlimit ld
/CT/concat ld
/f/fill ld
/N/newpath ld
/S/stroke ld
/CC/setcmykcolor ld
/A/ashow ld
/cp/closepath ld
/RC/setrgbcolor ld
/LJ/setlinejoin ld
/GC/setgray ld
/LW/setlinewidth ld
/M/moveto ld
/re {4 2 roll M
1 index 0 rlineto
0 exch rlineto
neg 0 rlineto
cp } bd
/_ctm matrix def
/_tm matrix def
/BT { _ctm currentmatrix pop matrix _tm copy pop 0 0 moveto } bd
/ET { _ctm setmatrix } bd
/iTm { _ctm setmatrix _tm concat } bd
/Tm { _tm astore pop iTm 0 0 moveto } bd
/ux 0.0 def
/uy 0.0 def
/F {
  /Tp exch def
  /Tf exch def
  Tf findfont Tp scalefont setfont
  /cf Tf def  /cs Tp def
} bd
/ULS {currentpoint /uy exch def /ux exch def} bd
/ULE {
  /Tcx currentpoint pop def
  gsave
  newpath
  cf findfont cs scalefont dup
  /FontMatrix get 0 get /Ts exch def /FontInfo get dup
  /UnderlinePosition get Ts mul /To exch def
  /UnderlineThickness get Ts mul /Tt exch def
  ux uy To add moveto  Tcx uy To add lineto
  Tt setlinewidth stroke
  grestore
} bd
/OLE {
  /Tcx currentpoint pop def
  gsave
  newpath
  cf findfont cs scalefont dup
  /FontMatrix get 0 get /Ts exch def /FontInfo get dup
  /UnderlinePosition get Ts mul /To exch def
  /UnderlineThickness get Ts mul /Tt exch def
  ux uy To add cs add moveto Tcx uy To add cs add lineto
  Tt setlinewidth stroke
  grestore
} bd
/SOE {
  /Tcx currentpoint pop def
  gsave
  newpath
  cf findfont cs scalefont dup
  /FontMatrix get 0 get /Ts exch def /FontInfo get dup
  /UnderlinePosition get Ts mul /To exch def
  /UnderlineThickness get Ts mul /Tt exch def
  ux uy To add cs 10 mul 26 idiv add moveto Tcx uy To add cs 10 mul 26 idiv add lineto
  Tt setlinewidth stroke
  grestore
} bd
/QT {
/Y22 exch store
/X22 exch store
/Y21 exch store
/X21 exch store
currentpoint
/Y21 load 2 mul add 3 div exch
/X21 load 2 mul add 3 div exch
/X21 load 2 mul /X22 load add 3 div
/Y21 load 2 mul /Y22 load add 3 div
/X22 load /Y22 load curveto
} bd
/SSPD {
dup length /d exch dict def
{
/v exch def
/k exch def
currentpagedevice k known {
/cpdv currentpagedevice k get def
v cpdv ne {
/upd false def
/nullv v type /nulltype eq def
/nullcpdv cpdv type /nulltype eq def
nullv nullcpdv or
{
/upd true def
} {
/sametype v type cpdv type eq def
sametype {
v type /arraytype eq {
/vlen v length def
/cpdvlen cpdv length def
vlen cpdvlen eq {
0 1 vlen 1 sub {
/i exch def
/obj v i get def
/cpdobj cpdv i get def
obj cpdobj ne {
/upd true def
exit
} if
} for
} {
/upd true def
} ifelse
} {
v type /dicttype eq {
v {
/dv exch def
/dk exch def
/cpddv cpdv dk get def
dv cpddv ne {
/upd true def
exit
} if
} forall
} {
/upd true def
} ifelse
} ifelse
} if
} ifelse
upd true eq {
d k v put
} if
} if
} if
} forall
d length 0 gt {
d setpagedevice
} if
} bd
/RE { % /NewFontName [NewEncodingArray] /FontName RE -
  findfont dup length dict begin
  {
    1 index /FID ne
    {def} {pop pop} ifelse
  } forall
  /Encoding exch def
  /FontName 1 index def
  currentdict definefont pop
  end
} bind def
%%EndResource
%%BeginResource: procset (Apache XML Graphics EPS ProcSet) 1.0 0
%%Version: 1.0 0
%%Copyright: (Copyright 2002-2003 The Apache Software Foundation. License terms: http://www.apache.org/licenses/LICENSE-2.0)
/BeginEPSF { %def
/b4_Inc_state save def         % Save state for cleanup
/dict_count countdictstack def % Count objects on dict stack
/op_count count 1 sub def      % Count objects on operand stack
userdict begin                 % Push userdict on dict stack
/showpage { } def              % Redefine showpage, { } = null proc
0 setgray 0 setlinecap         % Prepare graphics state
1 setlinewidth 0 setlinejoin
10 setmiterlimit [ ] 0 setdash newpath
/languagelevel where           % If level not equal to 1 then
{pop languagelevel             % set strokeadjust and
1 ne                           % overprint to their defaults.
{false setstrokeadjust false setoverprint
} if
} if
} bd
/EndEPSF { %def
count op_count sub {pop} repeat            % Clean up stacks
countdictstack dict_count sub {end} repeat
b4_Inc_state restore
} bd
%%EndResource
%FOPBeginFontDict
%%IncludeResource: font Courier-Oblique
%%IncludeResource: font Courier-BoldOblique
%%IncludeResource: font Courier-Bold
%%IncludeResource: font ZapfDingbats
%%IncludeResource: font Symbol
%%IncludeResource: font Helvetica
%%IncludeResource: font Helvetica-Oblique
%%IncludeResource: font Helvetica-Bold
%%IncludeResource: font Helvetica-BoldOblique
%%IncludeResource: font Times-Roman
%%IncludeResource: font Times-Italic
%%IncludeResource: font Times-Bold
%%IncludeResource: font Times-BoldItalic
%%IncludeResource: font Courier
%FOPEndFontDict
%%BeginResource: encoding WinAnsiEncoding
/WinAnsiEncoding [
/.notdef /.notdef /.notdef /.notdef /.notdef
/.notdef /.notdef /.notdef /.notdef /.notdef
/.notdef /.notdef /.notdef /.notdef /.notdef
/.notdef /.notdef /.notdef /.notdef /.notdef
/.notdef /.notdef /.notdef /.notdef /.notdef
/.notdef /.notdef /.notdef /.notdef /.notdef
/.notdef /.notdef /space /exclam /quotedbl
/numbersign /dollar /percent /ampersand /quotesingle
/parenleft /parenright /asterisk /plus /comma
/hyphen /period /slash /zero /one
/two /three /four /five /six
/seven /eight /nine /colon /semicolon
/less /equal /greater /question /at
/A /B /C /D /E
/F /G /H /I /J
/K /L /M /N /O
/P /Q /R /S /T
/U /V /W /X /Y
/Z /bracketleft /backslash /bracketright /asciicircum
/underscore /quoteleft /a /b /c
/d /e /f /g /h
/i /j /k /l /m
/n /o /p /q /r
/s /t /u /v /w
/x /y /z /braceleft /bar
/braceright /asciitilde /bullet /Euro /bullet
/quotesinglbase /florin /quotedblbase /ellipsis /dagger
/daggerdbl /circumflex /perthousand /Scaron /guilsinglleft
/OE /bullet /Zcaron /bullet /bullet
/quoteleft /quoteright /quotedblleft /quotedblright /bullet
/endash /emdash /asciitilde /trademark /scaron
/guilsinglright /oe /bullet /zcaron /Ydieresis
/space /exclamdown /cent /sterling /currency
/yen /brokenbar /section /dieresis /copyright
/ordfeminine /guillemotleft /logicalnot /sfthyphen /registered
/macron /degree /plusminus /twosuperior /threesuperior
/acute /mu /paragraph /middot /cedilla
/onesuperior /ordmasculine /guillemotright /onequarter /onehalf
/threequarters /questiondown /Agrave /Aacute /Acircumflex
/Atilde /Adieresis /Aring /AE /Ccedilla
/Egrave /Eacute /Ecircumflex /Edieresis /Igrave
/Iacute /Icircumflex /Idieresis /Eth /Ntilde
/Ograve /Oacute /Ocircumflex /Otilde /Odieresis
/multiply /Oslash /Ugrave /Uacute /Ucircumflex
/Udieresis /Yacute /Thorn /germandbls /agrave
/aacute /acircumflex /atilde /adieresis /aring
/ae /ccedilla /egrave /eacute /ecircumflex
/edieresis /igrave /iacute /icircumflex /idieresis
/eth /ntilde /ograve /oacute /ocircumflex
/otilde /odieresis /divide /oslash /ugrave
/uacute /ucircumflex /udieresis /yacute /thorn
/ydieresis
] def
%%EndResource
%FOPBeginFontReencode
/Courier-Oblique findfont
dup length dict begin
  {1 index /FID ne {def} {pop pop} ifelse} forall
  /Encoding WinAnsiEncoding def
  currentdict
end
/Courier-Oblique exch definefont pop
/Courier-BoldOblique findfont
dup length dict begin
  {1 index /FID ne {def} {pop pop} ifelse} forall
  /Encoding WinAnsiEncoding def
  currentdict
end
/Courier-BoldOblique exch definefont pop
/Courier-Bold findfont
dup length dict begin
  {1 index /FID ne {def} {pop pop} ifelse} forall
  /Encoding WinAnsiEncoding def
  currentdict
end
/Courier-Bold exch definefont pop
/Helvetica findfont
dup length dict begin
  {1 index /FID ne {def} {pop pop} ifelse} forall
  /Encoding WinAnsiEncoding def
  currentdict
end
/Helvetica exch definefont pop
/Helvetica-Oblique findfont
dup length dict begin
  {1 index /FID ne {def} {pop pop} ifelse} forall
  /Encoding WinAnsiEncoding def
  currentdict
end
/Helvetica-Oblique exch definefont pop
/Helvetica-Bold findfont
dup length dict begin
  {1 index /FID ne {def} {pop pop} ifelse} forall
  /Encoding WinAnsiEncoding def
  currentdict
end
/Helvetica-Bold exch definefont pop
/Helvetica-BoldOblique findfont
dup length dict begin
  {1 index /FID ne {def} {pop pop} ifelse} forall
  /Encoding WinAnsiEncoding def
  currentdict
end
/Helvetica-BoldOblique exch definefont pop
/Times-Roman findfont
dup length dict begin
  {1 index /FID ne {def} {pop pop} ifelse} forall
  /Encoding WinAnsiEncoding def
  currentdict
end
/Times-Roman exch definefont pop
/Times-Italic findfont
dup length dict begin
  {1 index /FID ne {def} {pop pop} ifelse} forall
  /Encoding WinAnsiEncoding def
  currentdict
end
/Times-Italic exch definefont pop
/Times-Bold findfont
dup length dict begin
  {1 index /FID ne {def} {pop pop} ifelse} forall
  /Encoding WinAnsiEncoding def
  currentdict
end
/Times-Bold exch definefont pop
/Times-BoldItalic findfont
dup length dict begin
  {1 index /FID ne {def} {pop pop} ifelse} forall
  /Encoding WinAnsiEncoding def
  currentdict
end
/Times-BoldItalic exch definefont pop
/Courier findfont
dup length dict begin
  {1 index /FID ne {def} {pop pop} ifelse} forall
  /Encoding WinAnsiEncoding def
  currentdict
end
/Courier exch definefont pop
%FOPEndFontReencode
%%EndProlog
%%Page: 1 1
%%PageBoundingBox: 0 0 420 315
%%BeginPageSetup
[1 0 0 -1 0 315] CT
%%EndPageSetup
GS
[0.75 0 0 0.75 0 0] CT
1 GC
N
0 0 560 420 re
f
GR
GS
[0.75 0 0 0.75 0 0] CT
1 GC
N
0 0 560 420 re
f
GR
GS
[0.75 0 0 0.75 0 0] CT
1 GC
N
74.951 173 M
505.049 173 L
505.049 31 L
74.951 31 L
cp
f
GR
GS
[0.75 0 0 0.75 0 0] CT
0.149 GC
2 setlinecap
1 LJ
0.667 LW
N
74.951 173 M
505.049 173 L
S
GR
GS
[0.75 0 0 0.75 0 0] CT
0.149 GC
2 setlinecap
1 LJ
0.667 LW
N
104.97 173 M
104.97 168.699 L
S
GR
GS
[0.75 0 0 0.75 0 0] CT
0.149 GC
2 setlinecap
1 LJ
0.667 LW
N
150.358 173 M
150.358 168.699 L
S
GR
GS
[0.75 0 0 0.75 0 0] CT
0.149 GC
2 setlinecap
1 LJ
0.667 LW
N
195.746 173 M
195.746 168.699 L
S
GR
GS
[0.75 0 0 0.75 0 0] CT
0.149 GC
2 setlinecap
1 LJ
0.667 LW
N
241.135 173 M
241.135 168.699 L
S
GR
GS
[0.75 0 0 0.75 0 0] CT
0.149 GC
2 setlinecap
1 LJ
0.667 LW
N
286.523 173 M
286.523 168.699 L
S
GR
GS
[0.75 0 0 0.75 0 0] CT
0.149 GC
2 setlinecap
1 LJ
0.667 LW
N
331.911 173 M
331.911 168.699 L
S
GR
GS
[0.75 0 0 0.75 0 0] CT
0.149 GC
2 setlinecap
1 LJ
0.667 LW
N
377.3 173 M
377.3 168.699 L
S
GR
GS
[0.75 0 0 0.75 0 0] CT
0.149 GC
2 setlinecap
1 LJ
0.667 LW
N
422.688 173 M
422.688 168.699 L
S
GR
GS
[0.75 0 0 0.75 0 0] CT
0.149 GC
2 setlinecap
1 LJ
0.667 LW
N
468.076 173 M
468.076 168.699 L
S
GR
GS
[0.75 0 0 0.75 78.7273 132.55] CT
0.149 GC
/Helvetica 12 F
GS
[1 0 0 1 0 0] CT
-5.5 13 moveto 
1 -1 scale
(-4) t 
GR
GR
GS
[0.75 0 0 0.75 112.76855 132.55] CT
0.149 GC
/Helvetica 12 F
GS
[1 0 0 1 0 0] CT
-5.5 13 moveto 
1 -1 scale
(-2) t 
GR
GR
GS
[0.75 0 0 0.75 146.8098 132.55] CT
0.149 GC
/Helvetica 12 F
GS
[1 0 0 1 0 0] CT
-3.5 13 moveto 
1 -1 scale
(0) t 
GR
GR
GS
[0.75 0 0 0.75 180.85104 132.55] CT
0.149 GC
/Helvetica 12 F
GS
[1 0 0 1 0 0] CT
-3.5 13 moveto 
1 -1 scale
(2) t 
GR
GR
GS
[0.75 0 0 0.75 214.89228 132.55] CT
0.149 GC
/Helvetica 12 F
GS
[1 0 0 1 0 0] CT
-3.5 13 moveto 
1 -1 scale
(4) t 
GR
GR
GS
[0.75 0 0 0.75 248.93353 132.55] CT
0.149 GC
/Helvetica 12 F
GS
[1 0 0 1 0 0] CT
-3.5 13 moveto 
1 -1 scale
(6) t 
GR
GR
GS
[0.75 0 0 0.75 282.97478 132.55] CT
0.149 GC
/Helvetica 12 F
GS
[1 0 0 1 0 0] CT
-3.5 13 moveto 
1 -1 scale
(8) t 
GR
GR
GS
[0.75 0 0 0.75 317.01604 132.55] CT
0.149 GC
/Helvetica 12 F
GS
[1 0 0 1 0 0] CT
-7 13 moveto 
1 -1 scale
(10) t 
GR
GR
GS
[0.75 0 0 0.75 351.05729 132.55] CT
0.149 GC
/Helvetica 12 F
GS
[1 0 0 1 0 0] CT
-7 13 moveto 
1 -1 scale
(12) t 
GR
GR
GS
[0.75 0 0 0.75 217.50016 145.05] CT
0.149 GC
/Helvetica 13.2 F
GS
[1 0 0 1 0 0] CT
-12.5 14 moveto 
1 -1 scale
(x[m]) t 
GR
GR
GS
[0.75 0 0 0.75 0 0] CT
0.149 GC
2 setlinecap
1 LJ
0.667 LW
N
74.951 173 M
74.951 31 L
S
GR
GS
[0.75 0 0 0.75 0 0] CT
0.149 GC
2 setlinecap
1 LJ
0.667 LW
N
74.951 173 M
79.252 173 L
S
GR
GS
[0.75 0 0 0.75 0 0] CT
0.149 GC
2 setlinecap
1 LJ
0.667 LW
N
74.951 127.612 M
79.252 127.612 L
S
GR
GS
[0.75 0 0 0.75 0 0] CT
0.149 GC
2 setlinecap
1 LJ
0.667 LW
N
74.951 82.223 M
79.252 82.223 L
S
GR
GS
[0.75 0 0 0.75 0 0] CT
0.149 GC
2 setlinecap
1 LJ
0.667 LW
N
74.951 36.835 M
79.252 36.835 L
S
GR
GS
[0.75 0 0 0.75 53.41336 129.75] CT
0.149 GC
/Helvetica 12 F
GS
[1 0 0 1 0 0] CT
-7 5 moveto 
1 -1 scale
(0) t 
GR
GR
GS
[0.75 0 0 0.75 53.41336 95.70875] CT
0.149 GC
/Helvetica 12 F
GS
[1 0 0 1 0 0] CT
-7 5 moveto 
1 -1 scale
(2) t 
GR
GR
GS
[0.75 0 0 0.75 53.41336 61.66751] CT
0.149 GC
/Helvetica 12 F
GS
[1 0 0 1 0 0] CT
-7 5 moveto 
1 -1 scale
(4) t 
GR
GR
GS
[0.75 0 0 0.75 53.41336 27.62626] CT
0.149 GC
/Helvetica 12 F
GS
[1 0 0 1 0 0] CT
-7 5 moveto 
1 -1 scale
(6) t 
GR
GR
GS
[0 -0.75 0.75 0 46.16335 76.49995] CT
0.149 GC
/Helvetica 13.2 F
GS
[1 0 0 1 0 0] CT
-12.5 -3 moveto 
1 -1 scale
(y[m]) t 
GR
GR
GS
[0.75 0 0 0.75 157.5 15] CT
/Helvetica-Bold 13.2 F
GS
[1 0 0 1 0 0] CT
0 0 moveto 
1 -1 scale
(X) t 
GR
GR
GS
[0.75 0 0 0.75 164.25 19.5] CT
/Helvetica-Bold 10.56 F
GS
[1 0 0 1 0 0] CT
0 0 moveto 
1 -1 scale
(G) t 
GR
GR
GS
[0.75 0 0 0.75 171 15] CT
/Helvetica-Bold 13.2 F
GS
[1 0 0 1 0 0] CT
0 0 moveto 
1 -1 scale
( =[8           6     0.69813]) t 
GR
GR
GS
[0.75 0 0 0.75 0 0] CT
0 0.447 0.741 RC
1 LJ
0.667 LW
N
195.746 173 M
195.746 173 L
195.746 173 L
195.968 173 L
196.189 173 L
196.411 173 L
196.633 172.999 L
196.854 172.999 L
197.076 172.998 L
197.297 172.998 L
197.519 172.996 L
197.74 172.995 L
197.962 172.993 L
198.183 172.991 L
198.405 172.989 L
198.626 172.986 L
198.848 172.982 L
199.07 172.978 L
199.291 172.974 L
199.513 172.969 L
199.734 172.963 L
199.955 172.957 L
200.177 172.95 L
200.398 172.942 L
200.62 172.933 L
200.841 172.924 L
201.062 172.914 L
201.284 172.903 L
201.505 172.891 L
201.726 172.878 L
201.947 172.864 L
202.168 172.85 L
202.389 172.834 L
202.61 172.817 L
202.831 172.799 L
203.052 172.78 L
203.272 172.76 L
203.493 172.738 L
203.713 172.715 L
203.933 172.691 L
204.154 172.666 L
204.373 172.639 L
204.593 172.611 L
204.813 172.582 L
205.032 172.551 L
205.256 172.518 L
205.48 172.483 L
205.703 172.447 L
205.926 172.41 L
206.149 172.371 L
206.372 172.33 L
206.594 172.288 L
206.817 172.245 L
207.038 172.2 L
207.26 172.154 L
207.481 172.106 L
207.702 172.057 L
207.923 172.006 L
208.143 171.954 L
208.363 171.901 L
208.583 171.847 L
208.802 171.791 L
209.021 171.733 L
209.24 171.675 L
209.458 171.615 L
209.676 171.554 L
209.893 171.491 L
210.111 171.428 L
210.327 171.363 L
210.544 171.296 L
210.76 171.229 L
210.975 171.16 L
211.191 171.09 L
211.406 171.019 L
211.62 170.947 L
211.834 170.873 L
212.048 170.798 L
212.261 170.722 L
212.474 170.645 L
212.686 170.567 L
212.898 170.488 L
213.11 170.407 L
213.321 170.326 L
213.531 170.243 L
213.742 170.159 L
213.952 170.075 L
214.161 169.989 L
214.37 169.902 L
214.578 169.814 L
214.786 169.725 L
214.994 169.635 L
215.201 169.544 L
215.408 169.452 L
215.614 169.358 L
215.82 169.264 L
216.026 169.169 L
216.231 169.074 L
216.435 168.977 L
216.639 168.879 L
216.843 168.78 L
217.046 168.68 L
217.249 168.58 L
217.451 168.478 L
217.653 168.376 L
217.855 168.273 L
218.056 168.169 L
218.256 168.064 L
218.456 167.958 L
218.656 167.851 L
218.855 167.744 L
219.054 167.635 L
219.252 167.526 L
219.45 167.416 L
219.647 167.306 L
219.844 167.194 L
220.041 167.082 L
220.237 166.969 L
220.433 166.856 L
220.628 166.741 L
220.823 166.626 L
221.017 166.51 L
221.211 166.394 L
221.405 166.276 L
221.598 166.158 L
221.791 166.04 L
221.983 165.92 L
222.175 165.8 L
222.367 165.68 L
222.558 165.559 L
222.748 165.437 L
222.939 165.314 L
223.129 165.191 L
223.318 165.067 L
223.507 164.943 L
223.696 164.818 L
223.885 164.693 L
224.073 164.567 L
224.26 164.44 L
224.447 164.313 L
224.634 164.185 L
224.821 164.057 L
225.007 163.928 L
225.193 163.799 L
225.378 163.67 L
225.563 163.539 L
225.748 163.409 L
225.933 163.277 L
226.117 163.146 L
226.3 163.014 L
226.484 162.881 L
226.667 162.748 L
226.85 162.614 L
227.032 162.481 L
227.214 162.346 L
227.396 162.212 L
227.578 162.076 L
227.759 161.941 L
227.94 161.805 L
228.121 161.669 L
228.301 161.532 L
228.481 161.395 L
228.661 161.258 L
228.841 161.12 L
229.02 160.982 L
229.199 160.843 L
229.378 160.705 L
229.557 160.566 L
229.735 160.426 L
229.913 160.287 L
230.091 160.147 L
230.269 160.006 L
230.446 159.866 L
230.623 159.725 L
230.8 159.584 L
230.977 159.443 L
231.154 159.301 L
231.33 159.16 L
231.506 159.018 L
231.682 158.875 L
231.858 158.733 L
232.034 158.59 L
232.21 158.447 L
232.385 158.304 L
232.56 158.161 L
232.735 158.018 L
232.91 157.874 L
233.085 157.73 L
233.26 157.587 L
233.434 157.443 L
233.609 157.298 L
233.783 157.154 L
233.958 157.01 L
234.132 156.865 L
234.306 156.72 L
234.48 156.576 L
234.654 156.431 L
234.827 156.286 L
235.001 156.141 L
235.175 155.996 L
235.348 155.85 L
235.522 155.705 L
235.696 155.56 L
235.869 155.414 L
236.043 155.269 L
236.216 155.124 L
236.389 154.978 L
236.563 154.833 L
236.736 154.687 L
236.91 154.542 L
236.91 154.542 L
377.273 36.763 L
S
GR
GS
[0.75 0 0 0.75 282.97478 27.62626] CT
0 1 1 RC
10.0 ML
N
-2.828 -2.828 M
2.828 2.828 L
-2.828 2.828 M
2.828 -2.828 L
S
GR
GS
[0.75 0 0 0.75 0 0] CT
0 1 1 RC
1 LJ
0.667 LW
N
377.3 36.835 M
384.254 31 L
S
GR
GS
[0.75 0 0 0.75 0 0] CT
1 GC
N
73 372 M
507 372 L
507 231 L
73 231 L
cp
f
GR
GS
[0.75 0 0 0.75 0 0] CT
0.149 GC
2 setlinecap
1 LJ
0.667 LW
N
73 372 M
507 372 L
S
GR
GS
[0.75 0 0 0.75 0 0] CT
0.149 GC
2 setlinecap
1 LJ
0.667 LW
N
73 231 M
507 231 L
S
GR
GS
[0.75 0 0 0.75 0 0] CT
0.149 GC
2 setlinecap
1 LJ
0.667 LW
N
73 372 M
73 367.66 L
S
GR
GS
[0.75 0 0 0.75 0 0] CT
0.149 GC
2 setlinecap
1 LJ
0.667 LW
N
145.333 372 M
145.333 367.66 L
S
GR
GS
[0.75 0 0 0.75 0 0] CT
0.149 GC
2 setlinecap
1 LJ
0.667 LW
N
217.667 372 M
217.667 367.66 L
S
GR
GS
[0.75 0 0 0.75 0 0] CT
0.149 GC
2 setlinecap
1 LJ
0.667 LW
N
290 372 M
290 367.66 L
S
GR
GS
[0.75 0 0 0.75 0 0] CT
0.149 GC
2 setlinecap
1 LJ
0.667 LW
N
362.333 372 M
362.333 367.66 L
S
GR
GS
[0.75 0 0 0.75 0 0] CT
0.149 GC
2 setlinecap
1 LJ
0.667 LW
N
434.667 372 M
434.667 367.66 L
S
GR
GS
[0.75 0 0 0.75 0 0] CT
0.149 GC
2 setlinecap
1 LJ
0.667 LW
N
507 372 M
507 367.66 L
S
GR
GS
[0.75 0 0 0.75 0 0] CT
0.149 GC
2 setlinecap
1 LJ
0.667 LW
N
73 231 M
73 235.34 L
S
GR
GS
[0.75 0 0 0.75 0 0] CT
0.149 GC
2 setlinecap
1 LJ
0.667 LW
N
145.333 231 M
145.333 235.34 L
S
GR
GS
[0.75 0 0 0.75 0 0] CT
0.149 GC
2 setlinecap
1 LJ
0.667 LW
N
217.667 231 M
217.667 235.34 L
S
GR
GS
[0.75 0 0 0.75 0 0] CT
0.149 GC
2 setlinecap
1 LJ
0.667 LW
N
290 231 M
290 235.34 L
S
GR
GS
[0.75 0 0 0.75 0 0] CT
0.149 GC
2 setlinecap
1 LJ
0.667 LW
N
362.333 231 M
362.333 235.34 L
S
GR
GS
[0.75 0 0 0.75 0 0] CT
0.149 GC
2 setlinecap
1 LJ
0.667 LW
N
434.667 231 M
434.667 235.34 L
S
GR
GS
[0.75 0 0 0.75 0 0] CT
0.149 GC
2 setlinecap
1 LJ
0.667 LW
N
507 231 M
507 235.34 L
S
GR
GS
[0.75 0 0 0.75 54.75 281.8] CT
0.149 GC
/Helvetica 12 F
GS
[1 0 0 1 0 0] CT
-3.5 13 moveto 
1 -1 scale
(0) t 
GR
GR
GS
[0.75 0 0 0.75 109 281.8] CT
0.149 GC
/Helvetica 12 F
GS
[1 0 0 1 0 0] CT
-3.5 13 moveto 
1 -1 scale
(2) t 
GR
GR
GS
[0.75 0 0 0.75 163.25 281.8] CT
0.149 GC
/Helvetica 12 F
GS
[1 0 0 1 0 0] CT
-3.5 13 moveto 
1 -1 scale
(4) t 
GR
GR
GS
[0.75 0 0 0.75 217.5 281.8] CT
0.149 GC
/Helvetica 12 F
GS
[1 0 0 1 0 0] CT
-3.5 13 moveto 
1 -1 scale
(6) t 
GR
GR
GS
[0.75 0 0 0.75 271.75001 281.8] CT
0.149 GC
/Helvetica 12 F
GS
[1 0 0 1 0 0] CT
-3.5 13 moveto 
1 -1 scale
(8) t 
GR
GR
GS
[0.75 0 0 0.75 325.99999 281.8] CT
0.149 GC
/Helvetica 12 F
GS
[1 0 0 1 0 0] CT
-7 13 moveto 
1 -1 scale
(10) t 
GR
GR
GS
[0.75 0 0 0.75 380.25 281.8] CT
0.149 GC
/Helvetica 12 F
GS
[1 0 0 1 0 0] CT
-7 13 moveto 
1 -1 scale
(12) t 
GR
GR
GS
[0.75 0 0 0.75 217.50016 294.3] CT
0.149 GC
/Helvetica 13.2 F
GS
[1 0 0 1 0 0] CT
-12.5 14 moveto 
1 -1 scale
(s[m]) t 
GR
GR
GS
[0.75 0 0 0.75 0 0] CT
0.149 GC
2 setlinecap
1 LJ
0.667 LW
N
73 372 M
73 231 L
S
GR
GS
[0.75 0 0 0.75 0 0] CT
0.149 GC
2 setlinecap
1 LJ
0.667 LW
N
507 372 M
507 231 L
S
GR
GS
[0.75 0 0 0.75 0 0] CT
0.149 GC
2 setlinecap
1 LJ
0.667 LW
N
73 347.658 M
77.34 347.658 L
S
GR
GS
[0.75 0 0 0.75 0 0] CT
0.149 GC
2 setlinecap
1 LJ
0.667 LW
N
73 318.494 M
77.34 318.494 L
S
GR
GS
[0.75 0 0 0.75 0 0] CT
0.149 GC
2 setlinecap
1 LJ
0.667 LW
N
73 289.329 M
77.34 289.329 L
S
GR
GS
[0.75 0 0 0.75 0 0] CT
0.149 GC
2 setlinecap
1 LJ
0.667 LW
N
73 260.165 M
77.34 260.165 L
S
GR
GS
[0.75 0 0 0.75 0 0] CT
0.149 GC
2 setlinecap
1 LJ
0.667 LW
N
73 231 M
77.34 231 L
S
GR
GS
[0.75 0 0 0.75 0 0] CT
0.149 GC
2 setlinecap
1 LJ
0.667 LW
N
507 347.658 M
502.66 347.658 L
S
GR
GS
[0.75 0 0 0.75 0 0] CT
0.149 GC
2 setlinecap
1 LJ
0.667 LW
N
507 318.494 M
502.66 318.494 L
S
GR
GS
[0.75 0 0 0.75 0 0] CT
0.149 GC
2 setlinecap
1 LJ
0.667 LW
N
507 289.329 M
502.66 289.329 L
S
GR
GS
[0.75 0 0 0.75 0 0] CT
0.149 GC
2 setlinecap
1 LJ
0.667 LW
N
507 260.165 M
502.66 260.165 L
S
GR
GS
[0.75 0 0 0.75 0 0] CT
0.149 GC
2 setlinecap
1 LJ
0.667 LW
N
507 231 M
502.66 231 L
S
GR
GS
[0.75 0 0 0.75 51.95 260.74365] CT
0.149 GC
/Helvetica 12 F
GS
[1 0 0 1 0 0] CT
-7 5 moveto 
1 -1 scale
(0) t 
GR
GR
GS
[0.75 0 0 0.75 51.95 238.87024] CT
0.149 GC
/Helvetica 12 F
GS
[1 0 0 1 0 0] CT
-17 5 moveto 
1 -1 scale
(0.5) t 
GR
GR
GS
[0.75 0 0 0.75 51.95 216.99683] CT
0.149 GC
/Helvetica 12 F
GS
[1 0 0 1 0 0] CT
-7 5 moveto 
1 -1 scale
(1) t 
GR
GR
GS
[0.75 0 0 0.75 51.95 195.12341] CT
0.149 GC
/Helvetica 12 F
GS
[1 0 0 1 0 0] CT
-17 5 moveto 
1 -1 scale
(1.5) t 
GR
GR
GS
[0.75 0 0 0.75 51.95 173.25] CT
0.149 GC
/Helvetica 12 F
GS
[1 0 0 1 0 0] CT
-7 5 moveto 
1 -1 scale
(2) t 
GR
GR
GS
[0.75 0 0 0.75 0 0] CT
1 0 0 RC
1 LJ
0.667 LW
N
73 347.658 M
73 347.658 L
S
GR
GS
[0.75 0 0 0.75 0 0] CT
0 1 0 RC
1 LJ
0.667 LW
N
73 347.658 M
73 347.658 L
S
GR
GS
[0.75 0 0 0.75 0 0] CT
1 0 0 RC
1 LJ
0.667 LW
N
73 347.658 M
73 347.658 L
73 250.558 L
87.829 250.558 L
87.829 372 L
146.983 372 L
146.983 347.658 L
438.991 347.658 L
S
GR
GS
[0.75 0 0 0.75 0 0] CT
0 1 0 RC
1 LJ
0.667 LW
N
73 347.658 M
73 347.658 L
73 347.658 L
73.353 346.71 L
73.706 345.762 L
74.059 344.814 L
74.412 343.866 L
74.765 342.919 L
75.118 341.971 L
75.472 341.023 L
75.825 340.075 L
76.178 339.127 L
76.531 338.179 L
76.884 337.231 L
77.237 336.283 L
77.59 335.335 L
77.943 334.387 L
78.296 333.439 L
78.649 332.491 L
79.002 331.543 L
79.355 330.595 L
79.708 329.647 L
80.062 328.699 L
80.415 327.752 L
80.768 326.804 L
81.121 325.856 L
81.474 324.908 L
81.827 323.96 L
82.18 323.012 L
82.533 322.064 L
82.886 321.116 L
83.239 320.168 L
83.592 319.22 L
83.945 318.272 L
84.298 317.324 L
84.652 316.376 L
85.005 315.428 L
85.358 314.48 L
85.711 313.533 L
86.064 312.585 L
86.417 311.637 L
86.77 310.689 L
87.123 309.741 L
87.476 308.793 L
87.829 307.845 L
88.19 308.088 L
88.551 308.33 L
88.911 308.573 L
89.272 308.816 L
89.633 309.059 L
89.993 309.301 L
90.354 309.544 L
90.715 309.787 L
91.075 310.03 L
91.436 310.273 L
91.797 310.515 L
92.158 310.758 L
92.518 311.001 L
92.879 311.244 L
93.24 311.486 L
93.6 311.729 L
93.961 311.972 L
94.322 312.215 L
94.682 312.457 L
95.043 312.7 L
95.404 312.943 L
95.764 313.186 L
96.125 313.428 L
96.486 313.671 L
96.847 313.914 L
97.207 314.157 L
97.568 314.4 L
97.929 314.642 L
98.289 314.885 L
98.65 315.128 L
99.011 315.371 L
99.371 315.613 L
99.732 315.856 L
100.093 316.099 L
100.454 316.342 L
100.814 316.584 L
101.175 316.827 L
101.536 317.07 L
101.896 317.313 L
102.257 317.555 L
102.618 317.798 L
102.978 318.041 L
103.339 318.284 L
103.7 318.527 L
104.06 318.769 L
104.421 319.012 L
104.782 319.255 L
105.143 319.498 L
105.503 319.74 L
105.864 319.983 L
106.225 320.226 L
106.585 320.469 L
106.946 320.711 L
107.307 320.954 L
107.667 321.197 L
108.028 321.44 L
108.389 321.682 L
108.749 321.925 L
109.11 322.168 L
109.471 322.411 L
109.832 322.654 L
110.192 322.896 L
110.553 323.139 L
110.914 323.382 L
111.274 323.625 L
111.635 323.867 L
111.996 324.11 L
112.356 324.353 L
112.717 324.596 L
113.078 324.838 L
113.439 325.081 L
113.799 325.324 L
114.16 325.567 L
114.521 325.809 L
114.881 326.052 L
115.242 326.295 L
115.603 326.538 L
115.963 326.78 L
116.324 327.023 L
116.685 327.266 L
117.045 327.509 L
117.406 327.752 L
117.767 327.994 L
118.128 328.237 L
118.488 328.48 L
118.849 328.723 L
119.21 328.965 L
119.57 329.208 L
119.931 329.451 L
120.292 329.694 L
120.652 329.936 L
121.013 330.179 L
121.374 330.422 L
121.735 330.665 L
122.095 330.907 L
122.456 331.15 L
122.817 331.393 L
123.177 331.636 L
123.538 331.879 L
123.899 332.121 L
124.259 332.364 L
124.62 332.607 L
124.981 332.85 L
125.341 333.092 L
125.702 333.335 L
126.063 333.578 L
126.424 333.821 L
126.784 334.063 L
127.145 334.306 L
127.506 334.549 L
127.866 334.792 L
128.227 335.034 L
128.588 335.277 L
128.948 335.52 L
129.309 335.763 L
129.67 336.006 L
130.031 336.248 L
130.391 336.491 L
130.752 336.734 L
131.113 336.977 L
131.473 337.219 L
131.834 337.462 L
132.195 337.705 L
132.555 337.948 L
132.916 338.19 L
133.277 338.433 L
133.637 338.676 L
133.998 338.919 L
134.359 339.161 L
134.72 339.404 L
135.08 339.647 L
135.441 339.89 L
135.802 340.133 L
136.162 340.375 L
136.523 340.618 L
136.884 340.861 L
137.244 341.104 L
137.605 341.346 L
137.966 341.589 L
138.326 341.832 L
138.687 342.075 L
139.048 342.317 L
139.409 342.56 L
139.769 342.803 L
140.13 343.046 L
140.491 343.288 L
140.851 343.531 L
141.212 343.774 L
141.573 344.017 L
141.933 344.259 L
142.294 344.502 L
142.655 344.745 L
143.016 344.988 L
143.376 345.231 L
143.737 345.473 L
144.098 345.716 L
144.458 345.959 L
144.819 346.202 L
145.18 346.444 L
145.54 346.687 L
145.901 346.93 L
146.262 347.173 L
146.622 347.415 L
146.983 347.658 L
146.983 347.658 L
438.991 347.658 L
S
GR
GS
[0.75 0 0 0.75 0 0] CT
1 GC
N
496 278 M
496 239 L
348 239 L
348 278 L
cp
f
GR
GS
[0.75 0 0 0.75 296.25 192] CT
/Helvetica 10.8 F
GS
[1 0 0 1 0 0] CT
0 0 moveto 
1 -1 scale
(Sharpness [rad.m) t 
GR
GR
GS
[0.75 0 0 0.75 360.75 188.25] CT
/Helvetica 8.64 F
GS
[1 0 0 1 0 0] CT
0 0 moveto 
1 -1 scale
(-2) t 
GR
GR
GS
[0.75 0 0 0.75 366.75 192] CT
/Helvetica 10.8 F
GS
[1 0 0 1 0 0] CT
0 0 moveto 
1 -1 scale
(]) t 
GR
GR
GS
[0.75 0 0 0.75 0 0] CT
1 0 0 RC
1 LJ
0.667 LW
N
352 249.636 M
392 249.636 L
S
GR
GS
[0.75 0 0 0.75 296.25 204.75] CT
/Helvetica 10.8 F
GS
[1 0 0 1 0 0] CT
0 0 moveto 
1 -1 scale
(Curvature [rad.m) t 
GR
GR
GS
[0.75 0 0 0.75 357 201] CT
/Helvetica 8.64 F
GS
[1 0 0 1 0 0] CT
0 0 moveto 
1 -1 scale
(-1) t 
GR
GR
GS
[0.75 0 0 0.75 363 204.75] CT
/Helvetica 10.8 F
GS
[1 0 0 1 0 0] CT
0 0 moveto 
1 -1 scale
(]) t 
GR
GR
GS
[0.75 0 0 0.75 0 0] CT
0 1 0 RC
1 LJ
0.667 LW
N
352 267.364 M
392 267.364 L
S
GR
GS
[0.75 0 0 0.75 0 0] CT
0.149 GC
10.0 ML
0.667 LW
N
348 278 M
348 239 L
496 239 L
496 278 L
cp
S
GR
%%Trailer
%%Pages: 1
%%EOF
