%!PS-Adobe-3.0 EPSF-3.0
%%Creator: (MATLAB, The Mathworks, Inc. Version 9.5.0.944444 \(R2018b\). Operating System: Windows 10)
%%Title: C:/Users/Ed/git_clones/clothoid-composition-method/Exploration/convex_constraints/AvoidanceSimple.eps
%%CreationDate: 2019-10-10T14:38:36
%%Pages: (atend)
%%BoundingBox: 0 0 1428 722
%%LanguageLevel: 3
%%EndComments
%%BeginProlog
%%BeginResource: procset (Apache XML Graphics Std ProcSet) 1.2 0
%%Version: 1.2 0
%%Copyright: (Copyright 2001-2003,2010 The Apache Software Foundation. License terms: http://www.apache.org/licenses/LICENSE-2.0)
/bd{bind def}bind def
/ld{load def}bd
/GR/grestore ld
/GS/gsave ld
/RM/rmoveto ld
/C/curveto ld
/t/show ld
/L/lineto ld
/ML/setmiterlimit ld
/CT/concat ld
/f/fill ld
/N/newpath ld
/S/stroke ld
/CC/setcmykcolor ld
/A/ashow ld
/cp/closepath ld
/RC/setrgbcolor ld
/LJ/setlinejoin ld
/GC/setgray ld
/LW/setlinewidth ld
/M/moveto ld
/re {4 2 roll M
1 index 0 rlineto
0 exch rlineto
neg 0 rlineto
cp } bd
/_ctm matrix def
/_tm matrix def
/BT { _ctm currentmatrix pop matrix _tm copy pop 0 0 moveto } bd
/ET { _ctm setmatrix } bd
/iTm { _ctm setmatrix _tm concat } bd
/Tm { _tm astore pop iTm 0 0 moveto } bd
/ux 0.0 def
/uy 0.0 def
/F {
  /Tp exch def
  /Tf exch def
  Tf findfont Tp scalefont setfont
  /cf Tf def  /cs Tp def
} bd
/ULS {currentpoint /uy exch def /ux exch def} bd
/ULE {
  /Tcx currentpoint pop def
  gsave
  newpath
  cf findfont cs scalefont dup
  /FontMatrix get 0 get /Ts exch def /FontInfo get dup
  /UnderlinePosition get Ts mul /To exch def
  /UnderlineThickness get Ts mul /Tt exch def
  ux uy To add moveto  Tcx uy To add lineto
  Tt setlinewidth stroke
  grestore
} bd
/OLE {
  /Tcx currentpoint pop def
  gsave
  newpath
  cf findfont cs scalefont dup
  /FontMatrix get 0 get /Ts exch def /FontInfo get dup
  /UnderlinePosition get Ts mul /To exch def
  /UnderlineThickness get Ts mul /Tt exch def
  ux uy To add cs add moveto Tcx uy To add cs add lineto
  Tt setlinewidth stroke
  grestore
} bd
/SOE {
  /Tcx currentpoint pop def
  gsave
  newpath
  cf findfont cs scalefont dup
  /FontMatrix get 0 get /Ts exch def /FontInfo get dup
  /UnderlinePosition get Ts mul /To exch def
  /UnderlineThickness get Ts mul /Tt exch def
  ux uy To add cs 10 mul 26 idiv add moveto Tcx uy To add cs 10 mul 26 idiv add lineto
  Tt setlinewidth stroke
  grestore
} bd
/QT {
/Y22 exch store
/X22 exch store
/Y21 exch store
/X21 exch store
currentpoint
/Y21 load 2 mul add 3 div exch
/X21 load 2 mul add 3 div exch
/X21 load 2 mul /X22 load add 3 div
/Y21 load 2 mul /Y22 load add 3 div
/X22 load /Y22 load curveto
} bd
/SSPD {
dup length /d exch dict def
{
/v exch def
/k exch def
currentpagedevice k known {
/cpdv currentpagedevice k get def
v cpdv ne {
/upd false def
/nullv v type /nulltype eq def
/nullcpdv cpdv type /nulltype eq def
nullv nullcpdv or
{
/upd true def
} {
/sametype v type cpdv type eq def
sametype {
v type /arraytype eq {
/vlen v length def
/cpdvlen cpdv length def
vlen cpdvlen eq {
0 1 vlen 1 sub {
/i exch def
/obj v i get def
/cpdobj cpdv i get def
obj cpdobj ne {
/upd true def
exit
} if
} for
} {
/upd true def
} ifelse
} {
v type /dicttype eq {
v {
/dv exch def
/dk exch def
/cpddv cpdv dk get def
dv cpddv ne {
/upd true def
exit
} if
} forall
} {
/upd true def
} ifelse
} ifelse
} if
} ifelse
upd true eq {
d k v put
} if
} if
} if
} forall
d length 0 gt {
d setpagedevice
} if
} bd
/RE { % /NewFontName [NewEncodingArray] /FontName RE -
  findfont dup length dict begin
  {
    1 index /FID ne
    {def} {pop pop} ifelse
  } forall
  /Encoding exch def
  /FontName 1 index def
  currentdict definefont pop
  end
} bind def
%%EndResource
%%BeginResource: procset (Apache XML Graphics EPS ProcSet) 1.0 0
%%Version: 1.0 0
%%Copyright: (Copyright 2002-2003 The Apache Software Foundation. License terms: http://www.apache.org/licenses/LICENSE-2.0)
/BeginEPSF { %def
/b4_Inc_state save def         % Save state for cleanup
/dict_count countdictstack def % Count objects on dict stack
/op_count count 1 sub def      % Count objects on operand stack
userdict begin                 % Push userdict on dict stack
/showpage { } def              % Redefine showpage, { } = null proc
0 setgray 0 setlinecap         % Prepare graphics state
1 setlinewidth 0 setlinejoin
10 setmiterlimit [ ] 0 setdash newpath
/languagelevel where           % If level not equal to 1 then
{pop languagelevel             % set strokeadjust and
1 ne                           % overprint to their defaults.
{false setstrokeadjust false setoverprint
} if
} if
} bd
/EndEPSF { %def
count op_count sub {pop} repeat            % Clean up stacks
countdictstack dict_count sub {end} repeat
b4_Inc_state restore
} bd
%%EndResource
%FOPBeginFontDict
%%IncludeResource: font Courier-Oblique
%%IncludeResource: font Courier-BoldOblique
%%IncludeResource: font Courier-Bold
%%IncludeResource: font ZapfDingbats
%%IncludeResource: font Symbol
%%IncludeResource: font Helvetica
%%IncludeResource: font Helvetica-Oblique
%%IncludeResource: font Helvetica-Bold
%%IncludeResource: font Helvetica-BoldOblique
%%IncludeResource: font Times-Roman
%%IncludeResource: font Times-Italic
%%IncludeResource: font Times-Bold
%%IncludeResource: font Times-BoldItalic
%%IncludeResource: font Courier
%FOPEndFontDict
%%BeginResource: encoding WinAnsiEncoding
/WinAnsiEncoding [
/.notdef /.notdef /.notdef /.notdef /.notdef
/.notdef /.notdef /.notdef /.notdef /.notdef
/.notdef /.notdef /.notdef /.notdef /.notdef
/.notdef /.notdef /.notdef /.notdef /.notdef
/.notdef /.notdef /.notdef /.notdef /.notdef
/.notdef /.notdef /.notdef /.notdef /.notdef
/.notdef /.notdef /space /exclam /quotedbl
/numbersign /dollar /percent /ampersand /quotesingle
/parenleft /parenright /asterisk /plus /comma
/hyphen /period /slash /zero /one
/two /three /four /five /six
/seven /eight /nine /colon /semicolon
/less /equal /greater /question /at
/A /B /C /D /E
/F /G /H /I /J
/K /L /M /N /O
/P /Q /R /S /T
/U /V /W /X /Y
/Z /bracketleft /backslash /bracketright /asciicircum
/underscore /quoteleft /a /b /c
/d /e /f /g /h
/i /j /k /l /m
/n /o /p /q /r
/s /t /u /v /w
/x /y /z /braceleft /bar
/braceright /asciitilde /bullet /Euro /bullet
/quotesinglbase /florin /quotedblbase /ellipsis /dagger
/daggerdbl /circumflex /perthousand /Scaron /guilsinglleft
/OE /bullet /Zcaron /bullet /bullet
/quoteleft /quoteright /quotedblleft /quotedblright /bullet
/endash /emdash /asciitilde /trademark /scaron
/guilsinglright /oe /bullet /zcaron /Ydieresis
/space /exclamdown /cent /sterling /currency
/yen /brokenbar /section /dieresis /copyright
/ordfeminine /guillemotleft /logicalnot /sfthyphen /registered
/macron /degree /plusminus /twosuperior /threesuperior
/acute /mu /paragraph /middot /cedilla
/onesuperior /ordmasculine /guillemotright /onequarter /onehalf
/threequarters /questiondown /Agrave /Aacute /Acircumflex
/Atilde /Adieresis /Aring /AE /Ccedilla
/Egrave /Eacute /Ecircumflex /Edieresis /Igrave
/Iacute /Icircumflex /Idieresis /Eth /Ntilde
/Ograve /Oacute /Ocircumflex /Otilde /Odieresis
/multiply /Oslash /Ugrave /Uacute /Ucircumflex
/Udieresis /Yacute /Thorn /germandbls /agrave
/aacute /acircumflex /atilde /adieresis /aring
/ae /ccedilla /egrave /eacute /ecircumflex
/edieresis /igrave /iacute /icircumflex /idieresis
/eth /ntilde /ograve /oacute /ocircumflex
/otilde /odieresis /divide /oslash /ugrave
/uacute /ucircumflex /udieresis /yacute /thorn
/ydieresis
] def
%%EndResource
%FOPBeginFontReencode
/Courier-Oblique findfont
dup length dict begin
  {1 index /FID ne {def} {pop pop} ifelse} forall
  /Encoding WinAnsiEncoding def
  currentdict
end
/Courier-Oblique exch definefont pop
/Courier-BoldOblique findfont
dup length dict begin
  {1 index /FID ne {def} {pop pop} ifelse} forall
  /Encoding WinAnsiEncoding def
  currentdict
end
/Courier-BoldOblique exch definefont pop
/Courier-Bold findfont
dup length dict begin
  {1 index /FID ne {def} {pop pop} ifelse} forall
  /Encoding WinAnsiEncoding def
  currentdict
end
/Courier-Bold exch definefont pop
/Helvetica findfont
dup length dict begin
  {1 index /FID ne {def} {pop pop} ifelse} forall
  /Encoding WinAnsiEncoding def
  currentdict
end
/Helvetica exch definefont pop
/Helvetica-Oblique findfont
dup length dict begin
  {1 index /FID ne {def} {pop pop} ifelse} forall
  /Encoding WinAnsiEncoding def
  currentdict
end
/Helvetica-Oblique exch definefont pop
/Helvetica-Bold findfont
dup length dict begin
  {1 index /FID ne {def} {pop pop} ifelse} forall
  /Encoding WinAnsiEncoding def
  currentdict
end
/Helvetica-Bold exch definefont pop
/Helvetica-BoldOblique findfont
dup length dict begin
  {1 index /FID ne {def} {pop pop} ifelse} forall
  /Encoding WinAnsiEncoding def
  currentdict
end
/Helvetica-BoldOblique exch definefont pop
/Times-Roman findfont
dup length dict begin
  {1 index /FID ne {def} {pop pop} ifelse} forall
  /Encoding WinAnsiEncoding def
  currentdict
end
/Times-Roman exch definefont pop
/Times-Italic findfont
dup length dict begin
  {1 index /FID ne {def} {pop pop} ifelse} forall
  /Encoding WinAnsiEncoding def
  currentdict
end
/Times-Italic exch definefont pop
/Times-Bold findfont
dup length dict begin
  {1 index /FID ne {def} {pop pop} ifelse} forall
  /Encoding WinAnsiEncoding def
  currentdict
end
/Times-Bold exch definefont pop
/Times-BoldItalic findfont
dup length dict begin
  {1 index /FID ne {def} {pop pop} ifelse} forall
  /Encoding WinAnsiEncoding def
  currentdict
end
/Times-BoldItalic exch definefont pop
/Courier findfont
dup length dict begin
  {1 index /FID ne {def} {pop pop} ifelse} forall
  /Encoding WinAnsiEncoding def
  currentdict
end
/Courier exch definefont pop
%FOPEndFontReencode
%%EndProlog
%%Page: 1 1
%%PageBoundingBox: 0 0 1428 722
%%BeginPageSetup
[1 0 0 -1 0 722] CT
%%EndPageSetup
GS
[0.75 0 0 0.75 0 -0.25] CT
1 GC
N
0 0 1904 963 re
f
GR
GS
[0.75 0 0 0.75 0 -0.25] CT
1 GC
N
0 0 1904 963 re
f
GR
GS
[0.75 0 0 0.75 0 -0.25] CT
1 GC
N
487.253 401 M
1483.747 401 L
1483.747 72 L
487.253 72 L
cp
f
GR
GS
[0.75 0 0 0.75 0 -0.25] CT
0.149 GC
2 setlinecap
1 LJ
0.667 LW
N
487.253 401 M
1483.747 401 L
S
GR
GS
[0.75 0 0 0.75 0 -0.25] CT
0.149 GC
2 setlinecap
1 LJ
0.667 LW
N
682.439 401 M
682.439 391.035 L
S
GR
GS
[0.75 0 0 0.75 0 -0.25] CT
0.149 GC
2 setlinecap
1 LJ
0.667 LW
N
901.388 401 M
901.388 391.035 L
S
GR
GS
[0.75 0 0 0.75 0 -0.25] CT
0.149 GC
2 setlinecap
1 LJ
0.667 LW
N
1120.338 401 M
1120.338 391.035 L
S
GR
GS
[0.75 0 0 0.75 0 -0.25] CT
0.149 GC
2 setlinecap
1 LJ
0.667 LW
N
1339.287 401 M
1339.287 391.035 L
S
GR
GS
[0.75 0 0 0.75 511.8289 304.50001] CT
0.149 GC
/Helvetica 13.333 F
GS
[1 0 0 1 0 0] CT
-4 14 moveto 
1 -1 scale
(0) t 
GR
GR
GS
[0.75 0 0 0.75 676.041 304.50001] CT
0.149 GC
/Helvetica 13.333 F
GS
[1 0 0 1 0 0] CT
-4 14 moveto 
1 -1 scale
(5) t 
GR
GR
GS
[0.75 0 0 0.75 840.25314 304.50001] CT
0.149 GC
/Helvetica 13.333 F
GS
[1 0 0 1 0 0] CT
-7.5 14 moveto 
1 -1 scale
(10) t 
GR
GR
GS
[0.75 0 0 0.75 1004.46524 304.50001] CT
0.149 GC
/Helvetica 13.333 F
GS
[1 0 0 1 0 0] CT
-7.5 14 moveto 
1 -1 scale
(15) t 
GR
GR
GS
[0.75 0 0 0.75 739.12532 318.24999] CT
0.149 GC
/Helvetica 14.667 F
GS
[1 0 0 1 0 0] CT
-14 15 moveto 
1 -1 scale
(x[m]) t 
GR
GR
GS
[0.75 0 0 0.75 0 -0.25] CT
0.149 GC
2 setlinecap
1 LJ
0.667 LW
N
487.253 401 M
487.253 72 L
S
GR
GS
[0.75 0 0 0.75 0 -0.25] CT
0.149 GC
2 setlinecap
1 LJ
0.667 LW
N
487.253 361.896 M
497.218 361.896 L
S
GR
GS
[0.75 0 0 0.75 0 -0.25] CT
0.149 GC
2 setlinecap
1 LJ
0.667 LW
N
487.253 318.106 M
497.218 318.106 L
S
GR
GS
[0.75 0 0 0.75 0 -0.25] CT
0.149 GC
2 setlinecap
1 LJ
0.667 LW
N
487.253 274.316 M
497.218 274.316 L
S
GR
GS
[0.75 0 0 0.75 0 -0.25] CT
0.149 GC
2 setlinecap
1 LJ
0.667 LW
N
487.253 230.527 M
497.218 230.527 L
S
GR
GS
[0.75 0 0 0.75 0 -0.25] CT
0.149 GC
2 setlinecap
1 LJ
0.667 LW
N
487.253 186.737 M
497.218 186.737 L
S
GR
GS
[0.75 0 0 0.75 0 -0.25] CT
0.149 GC
2 setlinecap
1 LJ
0.667 LW
N
487.253 142.947 M
497.218 142.947 L
S
GR
GS
[0.75 0 0 0.75 0 -0.25] CT
0.149 GC
2 setlinecap
1 LJ
0.667 LW
N
487.253 99.157 M
497.218 99.157 L
S
GR
GS
[0.75 0 0 0.75 361.43976 271.17223] CT
0.149 GC
/Helvetica 13.333 F
GS
[1 0 0 1 0 0] CT
-12 5.5 moveto 
1 -1 scale
(-2) t 
GR
GR
GS
[0.75 0 0 0.75 361.43976 238.32981] CT
0.149 GC
/Helvetica 13.333 F
GS
[1 0 0 1 0 0] CT
-12 5.5 moveto 
1 -1 scale
(-1) t 
GR
GR
GS
[0.75 0 0 0.75 361.43976 205.48737] CT
0.149 GC
/Helvetica 13.333 F
GS
[1 0 0 1 0 0] CT
-8 5.5 moveto 
1 -1 scale
(0) t 
GR
GR
GS
[0.75 0 0 0.75 361.43976 172.64496] CT
0.149 GC
/Helvetica 13.333 F
GS
[1 0 0 1 0 0] CT
-8 5.5 moveto 
1 -1 scale
(1) t 
GR
GR
GS
[0.75 0 0 0.75 361.43976 139.80253] CT
0.149 GC
/Helvetica 13.333 F
GS
[1 0 0 1 0 0] CT
-8 5.5 moveto 
1 -1 scale
(2) t 
GR
GR
GS
[0.75 0 0 0.75 361.43976 106.96011] CT
0.149 GC
/Helvetica 13.333 F
GS
[1 0 0 1 0 0] CT
-8 5.5 moveto 
1 -1 scale
(3) t 
GR
GR
GS
[0.75 0 0 0.75 361.43976 74.11768] CT
0.149 GC
/Helvetica 13.333 F
GS
[1 0 0 1 0 0] CT
-8 5.5 moveto 
1 -1 scale
(4) t 
GR
GR
GS
[0 -0.75 0.75 0 349.43976 177.12489] CT
0.149 GC
/Helvetica 14.667 F
GS
[1 0 0 1 0 0] CT
-14 -4 moveto 
1 -1 scale
(y[m]) t 
GR
GR
GS
[0.75 0 0 0.75 694.5 44] CT
/Helvetica-Bold 14.667 F
GS
[1 0 0 1 0 0] CT
0 0 moveto 
1 -1 scale
(X) t 
GR
GR
GS
[0.75 0 0 0.75 702 49.25] CT
/Helvetica-Bold 11.733 F
GS
[1 0 0 1 0 0] CT
0 0 moveto 
1 -1 scale
(G) t 
GR
GR
GS
[0.75 0 0 0.75 709.5 44] CT
/Helvetica-Bold 14.667 F
GS
[1 0 0 1 0 0] CT
0 0 moveto 
1 -1 scale
( =[11   0   0   0]) t 
GR
GR
GS
[0.75 0 0 0.75 0 -0.25] CT
0 0.447 0.741 RC
1 LJ
0.667 LW
N
901.388 401.01 M
901.388 71.99 L
S
GR
GS
[0.75 0 0 0.75 0 -0.25] CT
0 0.447 0.741 RC
1 LJ
0.667 LW
N
682.439 71.99 M
682.439 401.01 L
S
GR
GS
[0.75 0 0 0.75 0 -0.25] CT
0.851 0.325 0.098 RC
1 LJ
0.667 LW
N
682.439 164.842 M
1164.127 164.842 L
1164.127 71.99 L
S
GR
GS
[0.75 0 0 0.75 0 -0.25] CT
0.851 0.325 0.098 RC
1 LJ
0.667 LW
N
682.439 71.99 M
682.439 164.842 L
S
GR
GS
[0.75 0 0 0.75 0 -0.25] CT
0.929 0.694 0.125 RC
1 LJ
0.667 LW
N
1164.127 401.01 M
1164.127 71.99 L
S
GR
GS
[0.75 0 0 0.75 0 -0.25] CT
0.929 0.694 0.125 RC
1 LJ
0.667 LW
N
945.178 71.99 M
945.178 401.01 L
S
GR
GS
[0.75 0 0 0.75 533.03874 205.48737] CT
0 0 1 RC
10.0 ML
N
4 0 M
4 -2.209 2.209 -4 0 -4 C
-2.209 -4 -4 -2.209 -4 0 C
-4 2.209 -2.209 4 0 4 C
2.209 4 4 2.209 4 0 C
cp
S
GR
GS
[0.75 0 0 0.75 575.71193 199.58952] CT
0 0 1 RC
10.0 ML
N
4 0 M
4 -2.209 2.209 -4 0 -4 C
-2.209 -4 -4 -2.209 -4 0 C
-4 2.209 -2.209 4 0 4 C
2.209 4 4 2.209 4 0 C
cp
S
GR
GS
[0.75 0 0 0.75 613.54138 164.93592] CT
0 0 1 RC
10.0 ML
N
4 0 M
4 -2.209 2.209 -4 0 -4 C
-2.209 -4 -4 -2.209 -4 0 C
-4 2.209 -2.209 4 0 4 C
2.209 4 4 2.209 4 0 C
cp
S
GR
GS
[0.75 0 0 0.75 646.1396 123.38131] CT
0 0 1 RC
10.0 ML
N
4 0 M
4 -2.209 2.209 -4 0 -4 C
-2.209 -4 -4 -2.209 -4 0 C
-4 2.209 -2.209 4 0 4 C
2.209 4 4 2.209 4 0 C
cp
S
GR
GS
[0.75 0 0 0.75 654.21964 113.08134] CT
0 0 1 RC
10.0 ML
N
4 0 M
4 -2.209 2.209 -4 0 -4 C
-2.209 -4 -4 -2.209 -4 0 C
-4 2.209 -2.209 4 0 4 C
2.209 4 4 2.209 4 0 C
cp
S
GR
GS
[0.75 0 0 0.75 692.46222 86.58728] CT
0 0 1 RC
10.0 ML
N
4 0 M
4 -2.209 2.209 -4 0 -4 C
-2.209 -4 -4 -2.209 -4 0 C
-4 2.209 -2.209 4 0 4 C
2.209 4 4 2.209 4 0 C
cp
S
GR
GS
[0.75 0 0 0.75 730.7048 113.08134] CT
0 0 1 RC
10.0 ML
N
4 0 M
4 -2.209 2.209 -4 0 -4 C
-2.209 -4 -4 -2.209 -4 0 C
-4 2.209 -2.209 4 0 4 C
2.209 4 4 2.209 4 0 C
cp
S
GR
GS
[0.75 0 0 0.75 738.78484 123.38131] CT
0 0 1 RC
10.0 ML
N
4 0 M
4 -2.209 2.209 -4 0 -4 C
-2.209 -4 -4 -2.209 -4 0 C
-4 2.209 -2.209 4 0 4 C
2.209 4 4 2.209 4 0 C
cp
S
GR
GS
[0.75 0 0 0.75 771.38306 164.93593] CT
0 0 1 RC
10.0 ML
N
4 0 M
4 -2.209 2.209 -4 0 -4 C
-2.209 -4 -4 -2.209 -4 0 C
-4 2.209 -2.209 4 0 4 C
2.209 4 4 2.209 4 0 C
cp
S
GR
GS
[0.75 0 0 0.75 809.21255 199.58952] CT
0 0 1 RC
10.0 ML
N
4 0 M
4 -2.209 2.209 -4 0 -4 C
-2.209 -4 -4 -2.209 -4 0 C
-4 2.209 -2.209 4 0 4 C
2.209 4 4 2.209 4 0 C
cp
S
GR
GS
[0.75 0 0 0.75 851.88565 205.48737] CT
0 0 1 RC
10.0 ML
N
4 0 M
4 -2.209 2.209 -4 0 -4 C
-2.209 -4 -4 -2.209 -4 0 C
-4 2.209 -2.209 4 0 4 C
2.209 4 4 2.209 4 0 C
cp
S
GR
GS
[0.75 0 0 0.75 873.09558 205.48737] CT
0 0 1 RC
10.0 ML
N
4 0 M
4 -2.209 2.209 -4 0 -4 C
-2.209 -4 -4 -2.209 -4 0 C
-4 2.209 -2.209 4 0 4 C
2.209 4 4 2.209 4 0 C
cp
S
GR
GS
[0.75 0 0 0.75 0 -0.25] CT
0.494 0.184 0.557 RC
1 LJ
0.667 LW
N
682.439 274.316 M
710.718 274.316 L
710.718 274.316 L
711.154 274.316 L
711.589 274.316 L
712.024 274.316 L
712.459 274.316 L
712.894 274.316 L
713.329 274.316 L
713.764 274.315 L
714.2 274.314 L
714.635 274.314 L
715.07 274.313 L
715.505 274.311 L
715.94 274.31 L
716.375 274.308 L
716.81 274.306 L
717.246 274.304 L
717.681 274.301 L
718.116 274.298 L
718.551 274.295 L
718.986 274.291 L
719.421 274.287 L
719.856 274.283 L
720.292 274.278 L
720.727 274.273 L
721.162 274.267 L
721.597 274.26 L
722.032 274.254 L
722.467 274.246 L
722.902 274.238 L
723.337 274.23 L
723.772 274.221 L
724.207 274.211 L
724.642 274.2 L
725.077 274.189 L
725.512 274.178 L
725.947 274.165 L
726.382 274.152 L
726.817 274.138 L
727.252 274.123 L
727.687 274.108 L
728.122 274.092 L
728.557 274.075 L
728.991 274.057 L
729.426 274.038 L
729.861 274.018 L
730.296 273.998 L
730.73 273.976 L
731.165 273.954 L
731.599 273.931 L
732.034 273.906 L
732.468 273.881 L
732.903 273.855 L
733.337 273.827 L
733.771 273.799 L
734.205 273.769 L
734.639 273.738 L
735.073 273.707 L
735.507 273.674 L
735.941 273.639 L
736.375 273.604 L
736.808 273.568 L
737.242 273.53 L
737.675 273.491 L
738.108 273.451 L
738.542 273.409 L
738.975 273.366 L
739.408 273.322 L
739.84 273.277 L
740.273 273.23 L
740.705 273.182 L
741.138 273.132 L
741.57 273.081 L
742.002 273.029 L
742.434 272.975 L
742.865 272.919 L
743.297 272.862 L
743.728 272.804 L
744.159 272.744 L
744.59 272.682 L
745.02 272.619 L
745.451 272.554 L
745.881 272.488 L
746.31 272.42 L
746.74 272.35 L
747.169 272.279 L
747.598 272.206 L
748.027 272.132 L
748.455 272.055 L
748.883 271.977 L
749.311 271.897 L
749.739 271.815 L
750.166 271.732 L
750.592 271.646 L
751.019 271.559 L
751.445 271.47 L
751.87 271.379 L
752.295 271.286 L
752.72 271.192 L
753.144 271.095 L
753.568 270.996 L
753.991 270.896 L
754.414 270.793 L
754.837 270.689 L
755.259 270.582 L
755.68 270.473 L
756.101 270.363 L
756.521 270.25 L
756.941 270.135 L
757.36 270.018 L
757.779 269.899 L
758.196 269.778 L
758.614 269.655 L
759.03 269.529 L
759.446 269.401 L
759.862 269.271 L
760.276 269.139 L
760.69 269.005 L
761.103 268.868 L
761.516 268.729 L
761.927 268.588 L
762.338 268.445 L
762.748 268.299 L
763.157 268.151 L
763.566 268.001 L
763.973 267.848 L
764.38 267.693 L
764.785 267.535 L
765.19 267.375 L
765.594 267.213 L
765.997 267.048 L
766.398 266.881 L
766.799 266.712 L
767.199 266.54 L
767.598 266.365 L
767.997 266.187 L
768.396 266.007 L
768.794 265.824 L
769.19 265.639 L
769.585 265.451 L
769.98 265.261 L
770.373 265.068 L
770.765 264.874 L
771.155 264.676 L
771.545 264.477 L
771.933 264.275 L
772.321 264.071 L
772.707 263.865 L
773.092 263.657 L
773.475 263.447 L
773.858 263.234 L
774.239 263.019 L
774.619 262.802 L
774.998 262.583 L
775.376 262.362 L
775.752 262.139 L
776.128 261.914 L
776.502 261.687 L
776.875 261.458 L
777.246 261.227 L
777.617 260.993 L
777.986 260.759 L
778.354 260.522 L
778.721 260.283 L
779.086 260.042 L
779.451 259.8 L
779.814 259.556 L
780.176 259.31 L
780.536 259.062 L
780.896 258.812 L
781.254 258.561 L
781.611 258.308 L
781.967 258.053 L
782.322 257.797 L
782.675 257.539 L
783.027 257.279 L
783.379 257.018 L
783.728 256.755 L
784.077 256.49 L
784.425 256.224 L
784.771 255.957 L
785.116 255.688 L
785.46 255.417 L
785.803 255.145 L
786.144 254.871 L
786.485 254.596 L
786.824 254.32 L
787.162 254.042 L
787.499 253.763 L
787.835 253.482 L
788.17 253.2 L
788.503 252.917 L
788.836 252.632 L
789.167 252.346 L
789.497 252.059 L
789.826 251.77 L
790.154 251.481 L
790.481 251.19 L
790.807 250.897 L
791.132 250.604 L
791.455 250.309 L
791.778 250.014 L
792.099 249.717 L
792.42 249.419 L
792.739 249.12 L
793.057 248.819 L
793.375 248.518 L
793.691 248.216 L
794.007 247.912 L
794.321 247.608 L
794.634 247.302 L
794.947 246.995 L
795.258 246.688 L
795.568 246.379 L
795.878 246.07 L
796.186 245.759 L
796.494 245.448 L
796.8 245.136 L
797.106 244.823 L
797.411 244.509 L
797.715 244.194 L
798.018 243.878 L
798.32 243.561 L
798.621 243.244 L
798.922 242.926 L
799.221 242.607 L
799.52 242.287 L
799.818 241.966 L
800.115 241.645 L
800.411 241.323 L
800.706 241 L
801.001 240.676 L
801.295 240.352 L
801.588 240.027 L
801.88 239.701 L
802.172 239.375 L
802.463 239.048 L
802.753 238.72 L
803.043 238.392 L
803.332 238.063 L
803.62 237.734 L
803.907 237.404 L
804.194 237.073 L
804.48 236.742 L
804.766 236.41 L
805.05 236.078 L
805.335 235.745 L
805.618 235.412 L
805.901 235.078 L
806.184 234.744 L
806.466 234.41 L
806.747 234.074 L
807.028 233.739 L
807.308 233.403 L
807.588 233.066 L
807.868 232.729 L
808.146 232.392 L
808.425 232.054 L
808.703 231.716 L
808.98 231.378 L
809.257 231.039 L
809.534 230.7 L
809.81 230.36 L
810.086 230.02 L
810.361 229.68 L
810.636 229.34 L
810.911 228.999 L
811.185 228.658 L
811.459 228.317 L
811.733 227.976 L
812.006 227.634 L
812.28 227.292 L
812.552 226.95 L
812.825 226.607 L
813.097 226.265 L
813.369 225.922 L
813.641 225.579 L
813.913 225.236 L
814.184 224.893 L
814.456 224.549 L
814.727 224.206 L
814.998 223.862 L
815.268 223.518 L
815.539 223.174 L
815.81 222.83 L
816.08 222.486 L
816.35 222.142 L
816.621 221.798 L
816.891 221.453 L
817.161 221.109 L
817.431 220.765 L
817.701 220.421 L
817.971 220.076 L
817.971 220.076 L
861.436 164.67 L
872.209 150.937 L
872.209 150.937 L
872.479 150.592 L
872.75 150.248 L
873.02 149.904 L
873.29 149.56 L
873.561 149.215 L
873.832 148.871 L
874.102 148.528 L
874.373 148.184 L
874.645 147.84 L
874.916 147.497 L
875.188 147.154 L
875.461 146.811 L
875.733 146.469 L
876.006 146.127 L
876.28 145.785 L
876.553 145.443 L
876.828 145.102 L
877.103 144.762 L
877.378 144.421 L
877.654 144.081 L
877.93 143.742 L
878.207 143.403 L
878.485 143.065 L
878.764 142.727 L
879.043 142.39 L
879.323 142.053 L
879.603 141.717 L
879.884 141.382 L
880.167 141.047 L
880.45 140.713 L
880.733 140.38 L
881.018 140.048 L
881.304 139.716 L
881.59 139.385 L
881.878 139.055 L
882.166 138.726 L
882.456 138.397 L
882.746 138.07 L
883.038 137.743 L
883.33 137.418 L
883.624 137.093 L
883.919 136.77 L
884.215 136.447 L
884.512 136.126 L
884.811 135.806 L
885.11 135.487 L
885.411 135.169 L
885.713 134.852 L
886.017 134.536 L
886.321 134.222 L
886.627 133.909 L
886.935 133.598 L
887.243 133.287 L
887.554 132.978 L
887.865 132.671 L
888.178 132.365 L
888.493 132.06 L
888.808 131.757 L
889.126 131.456 L
889.445 131.156 L
889.765 130.858 L
890.087 130.561 L
890.41 130.266 L
890.735 129.973 L
891.062 129.681 L
891.39 129.392 L
891.72 129.104 L
892.052 128.818 L
892.385 128.534 L
892.719 128.252 L
893.056 127.972 L
893.394 127.694 L
893.734 127.418 L
894.075 127.144 L
894.418 126.872 L
894.763 126.603 L
895.11 126.335 L
895.458 126.07 L
895.808 125.807 L
896.16 125.547 L
896.513 125.289 L
896.869 125.033 L
897.226 124.78 L
897.584 124.529 L
897.945 124.281 L
898.307 124.035 L
898.671 123.792 L
899.037 123.552 L
899.405 123.314 L
899.774 123.08 L
900.146 122.848 L
900.519 122.619 L
900.893 122.392 L
901.27 122.169 L
901.648 121.949 L
902.028 121.731 L
902.41 121.517 L
902.793 121.306 L
903.179 121.098 L
903.565 120.894 L
903.954 120.692 L
904.344 120.494 L
904.737 120.3 L
905.13 120.108 L
905.526 119.92 L
905.923 119.736 L
906.321 119.555 L
906.721 119.378 L
907.123 119.204 L
907.527 119.035 L
907.932 118.868 L
908.338 118.706 L
908.746 118.548 L
909.156 118.393 L
909.567 118.242 L
909.979 118.096 L
910.393 117.953 L
910.808 117.815 L
911.225 117.68 L
911.643 117.55 L
912.062 117.424 L
912.482 117.302 L
912.904 117.185 L
913.327 117.072 L
913.751 116.963 L
914.176 116.859 L
914.602 116.759 L
915.03 116.664 L
915.458 116.574 L
915.887 116.488 L
916.317 116.407 L
916.748 116.33 L
917.18 116.259 L
917.613 116.192 L
918.046 116.13 L
918.48 116.073 L
918.915 116.021 L
919.35 115.974 L
919.786 115.932 L
920.222 115.896 L
920.659 115.864 L
921.095 115.837 L
921.533 115.816 L
921.97 115.8 L
922.408 115.789 L
922.845 115.784 L
923.283 115.784 L
923.721 115.789 L
924.158 115.8 L
924.596 115.816 L
925.033 115.837 L
925.47 115.864 L
925.907 115.896 L
926.343 115.932 L
926.778 115.974 L
927.214 116.021 L
927.648 116.073 L
928.082 116.13 L
928.516 116.192 L
928.948 116.259 L
929.38 116.33 L
929.811 116.407 L
930.241 116.488 L
930.67 116.574 L
931.099 116.664 L
931.526 116.759 L
931.952 116.859 L
932.377 116.963 L
932.801 117.072 L
933.224 117.185 L
933.646 117.302 L
934.066 117.424 L
934.486 117.55 L
934.904 117.68 L
935.32 117.815 L
935.735 117.953 L
936.149 118.096 L
936.562 118.242 L
936.973 118.393 L
937.382 118.548 L
937.79 118.706 L
938.197 118.868 L
938.602 119.035 L
939.005 119.204 L
939.407 119.378 L
939.807 119.555 L
940.206 119.736 L
940.603 119.92 L
940.998 120.108 L
941.392 120.3 L
941.784 120.494 L
942.174 120.692 L
942.563 120.894 L
942.95 121.098 L
943.335 121.306 L
943.719 121.517 L
944.1 121.731 L
944.48 121.949 L
944.859 122.169 L
945.235 122.392 L
945.61 122.619 L
945.983 122.848 L
946.354 123.08 L
946.724 123.314 L
947.091 123.552 L
947.457 123.792 L
947.821 124.035 L
948.184 124.281 L
948.544 124.529 L
948.903 124.78 L
949.26 125.033 L
949.615 125.289 L
949.969 125.547 L
950.321 125.807 L
950.671 126.07 L
951.019 126.335 L
951.365 126.603 L
951.71 126.872 L
952.053 127.144 L
952.395 127.418 L
952.735 127.694 L
953.073 127.972 L
953.409 128.252 L
953.744 128.534 L
954.077 128.818 L
954.408 129.104 L
954.738 129.392 L
955.066 129.681 L
955.393 129.973 L
955.718 130.266 L
956.041 130.561 L
956.363 130.858 L
956.684 131.156 L
957.003 131.456 L
957.32 131.757 L
957.636 132.06 L
957.95 132.365 L
958.263 132.671 L
958.575 132.978 L
958.885 133.287 L
959.194 133.598 L
959.501 133.909 L
959.807 134.222 L
960.112 134.536 L
960.415 134.852 L
960.717 135.169 L
961.018 135.487 L
961.318 135.806 L
961.616 136.126 L
961.913 136.447 L
962.209 136.77 L
962.504 137.093 L
962.798 137.418 L
963.091 137.743 L
963.382 138.07 L
963.673 138.397 L
963.962 138.726 L
964.251 139.055 L
964.538 139.385 L
964.825 139.716 L
965.11 140.048 L
965.395 140.38 L
965.679 140.713 L
965.962 141.047 L
966.244 141.382 L
966.525 141.717 L
966.806 142.053 L
967.086 142.39 L
967.365 142.727 L
967.643 143.065 L
967.921 143.403 L
968.198 143.742 L
968.475 144.081 L
968.75 144.421 L
969.026 144.762 L
969.301 145.102 L
969.575 145.443 L
969.849 145.785 L
970.122 146.127 L
970.395 146.469 L
970.668 146.811 L
970.94 147.154 L
971.212 147.497 L
971.484 147.84 L
971.755 148.184 L
972.026 148.528 L
972.297 148.871 L
972.568 149.215 L
972.838 149.56 L
973.109 149.904 L
973.379 150.248 L
973.649 150.592 L
973.919 150.937 L
974.189 151.281 L
974.189 151.281 L
984.963 165.014 L
1028.427 220.421 L
1028.427 220.421 L
1028.697 220.765 L
1028.967 221.109 L
1029.238 221.454 L
1029.508 221.798 L
1029.778 222.142 L
1030.048 222.486 L
1030.319 222.83 L
1030.589 223.174 L
1030.86 223.518 L
1031.131 223.862 L
1031.402 224.206 L
1031.673 224.549 L
1031.944 224.893 L
1032.216 225.236 L
1032.487 225.579 L
1032.759 225.922 L
1033.031 226.265 L
1033.304 226.607 L
1033.576 226.95 L
1033.849 227.292 L
1034.122 227.634 L
1034.396 227.976 L
1034.669 228.317 L
1034.943 228.658 L
1035.218 228.999 L
1035.492 229.34 L
1035.767 229.68 L
1036.043 230.021 L
1036.318 230.36 L
1036.595 230.7 L
1036.871 231.039 L
1037.148 231.378 L
1037.426 231.716 L
1037.704 232.054 L
1037.982 232.392 L
1038.261 232.729 L
1038.54 233.066 L
1038.82 233.403 L
1039.1 233.739 L
1039.381 234.074 L
1039.663 234.41 L
1039.945 234.744 L
1040.227 235.079 L
1040.51 235.412 L
1040.794 235.746 L
1041.078 236.078 L
1041.363 236.411 L
1041.649 236.742 L
1041.935 237.073 L
1042.221 237.404 L
1042.509 237.734 L
1042.797 238.063 L
1043.086 238.392 L
1043.375 238.72 L
1043.665 239.048 L
1043.956 239.375 L
1044.248 239.701 L
1044.54 240.027 L
1044.833 240.352 L
1045.127 240.676 L
1045.422 241 L
1045.718 241.323 L
1046.014 241.645 L
1046.311 241.966 L
1046.609 242.287 L
1046.907 242.607 L
1047.207 242.926 L
1047.507 243.244 L
1047.809 243.561 L
1048.111 243.878 L
1048.414 244.194 L
1048.718 244.509 L
1049.022 244.823 L
1049.328 245.136 L
1049.635 245.448 L
1049.942 245.76 L
1050.251 246.07 L
1050.56 246.379 L
1050.871 246.688 L
1051.182 246.996 L
1051.494 247.302 L
1051.808 247.608 L
1052.122 247.912 L
1052.437 248.216 L
1052.754 248.518 L
1053.071 248.819 L
1053.389 249.12 L
1053.709 249.419 L
1054.029 249.717 L
1054.351 250.014 L
1054.673 250.31 L
1054.997 250.604 L
1055.322 250.898 L
1055.647 251.19 L
1055.974 251.481 L
1056.302 251.771 L
1056.631 252.059 L
1056.962 252.346 L
1057.293 252.632 L
1057.625 252.917 L
1057.959 253.2 L
1058.294 253.482 L
1058.629 253.763 L
1058.966 254.042 L
1059.304 254.32 L
1059.644 254.596 L
1059.984 254.871 L
1060.326 255.145 L
1060.669 255.417 L
1061.013 255.688 L
1061.358 255.957 L
1061.704 256.224 L
1062.051 256.49 L
1062.4 256.755 L
1062.75 257.018 L
1063.101 257.279 L
1063.453 257.539 L
1063.807 257.797 L
1064.161 258.053 L
1064.517 258.308 L
1064.874 258.561 L
1065.233 258.812 L
1065.592 259.062 L
1065.953 259.31 L
1066.315 259.556 L
1066.678 259.8 L
1067.042 260.042 L
1067.408 260.283 L
1067.775 260.522 L
1068.143 260.759 L
1068.512 260.994 L
1068.882 261.227 L
1069.254 261.458 L
1069.627 261.687 L
1070.001 261.914 L
1070.376 262.139 L
1070.753 262.362 L
1071.13 262.583 L
1071.509 262.802 L
1071.89 263.019 L
1072.271 263.234 L
1072.653 263.447 L
1073.037 263.657 L
1073.422 263.865 L
1073.808 264.072 L
1074.195 264.275 L
1074.584 264.477 L
1074.973 264.676 L
1075.364 264.874 L
1075.756 265.068 L
1076.149 265.261 L
1076.543 265.451 L
1076.938 265.639 L
1077.335 265.824 L
1077.732 266.007 L
1078.131 266.187 L
1078.531 266.365 L
1078.932 266.541 L
1079.332 266.713 L
1079.732 266.882 L
1080.134 267.05 L
1080.537 267.214 L
1080.941 267.377 L
1081.345 267.536 L
1081.751 267.694 L
1082.158 267.849 L
1082.565 268.002 L
1082.973 268.152 L
1083.383 268.3 L
1083.793 268.446 L
1084.203 268.589 L
1084.615 268.731 L
1085.027 268.869 L
1085.441 269.006 L
1085.854 269.14 L
1086.269 269.272 L
1086.684 269.402 L
1087.1 269.53 L
1087.517 269.656 L
1087.934 269.779 L
1088.352 269.9 L
1088.771 270.019 L
1089.19 270.136 L
1089.61 270.251 L
1090.03 270.364 L
1090.451 270.474 L
1090.872 270.583 L
1091.294 270.69 L
1091.716 270.794 L
1092.139 270.897 L
1092.563 270.997 L
1092.987 271.096 L
1093.411 271.193 L
1093.836 271.287 L
1094.261 271.38 L
1094.686 271.471 L
1095.112 271.56 L
1095.539 271.647 L
1095.965 271.733 L
1096.392 271.816 L
1096.82 271.898 L
1097.247 271.978 L
1097.676 272.056 L
1098.104 272.133 L
1098.533 272.207 L
1098.962 272.28 L
1099.391 272.352 L
1099.82 272.421 L
1100.25 272.489 L
1100.68 272.555 L
1101.111 272.62 L
1101.541 272.683 L
1101.972 272.745 L
1102.403 272.805 L
1102.834 272.863 L
1103.266 272.92 L
1103.697 272.976 L
1104.129 273.03 L
1104.561 273.082 L
1104.993 273.133 L
1105.425 273.183 L
1105.858 273.231 L
1106.29 273.278 L
1106.723 273.323 L
1107.156 273.368 L
1107.589 273.41 L
1108.022 273.452 L
1108.456 273.492 L
1108.889 273.531 L
1109.323 273.569 L
1109.756 273.605 L
1110.19 273.641 L
1110.624 273.675 L
1111.058 273.708 L
1111.492 273.739 L
1111.926 273.77 L
1112.36 273.8 L
1112.794 273.828 L
1113.228 273.856 L
1113.663 273.882 L
1114.097 273.907 L
1114.531 273.932 L
1114.966 273.955 L
1115.401 273.977 L
1115.835 273.999 L
1116.27 274.02 L
1116.705 274.039 L
1117.139 274.058 L
1117.574 274.076 L
1118.009 274.093 L
1118.444 274.109 L
1118.879 274.125 L
1119.314 274.139 L
1119.749 274.153 L
1120.183 274.166 L
1120.618 274.179 L
1121.053 274.19 L
1121.488 274.201 L
1121.923 274.212 L
1122.359 274.222 L
1122.794 274.231 L
1123.229 274.239 L
1123.664 274.247 L
1124.099 274.255 L
1124.534 274.262 L
1124.969 274.268 L
1125.404 274.274 L
1125.839 274.279 L
1126.274 274.284 L
1126.709 274.288 L
1127.145 274.293 L
1127.58 274.296 L
1128.015 274.299 L
1128.45 274.302 L
1128.885 274.305 L
1129.32 274.307 L
1129.755 274.309 L
1130.191 274.311 L
1130.626 274.312 L
1131.061 274.314 L
1131.496 274.315 L
1131.931 274.315 L
1132.366 274.316 L
1132.802 274.317 L
1133.237 274.317 L
1133.672 274.317 L
1134.107 274.317 L
1134.542 274.318 L
1134.977 274.318 L
1135.412 274.318 L
1135.848 274.318 L
1135.848 274.318 L
1164.127 274.318 L
S
GR
GS
[0.75 0 0 0.75 873.09558 205.48737] CT
0 1 1 RC
10.0 ML
N
-2.828 -2.828 M
2.828 2.828 L
-2.828 2.828 M
2.828 -2.828 L
S
GR
GS
[0.75 0 0 0.75 0 -0.25] CT
0 1 1 RC
1 LJ
0.667 LW
N
1164.127 274.316 M
1168.506 274.316 L
S
GR
GS
[0.75 0 0 0.75 0 -0.25] CT
1 GC
N
248 857 M
1723 857 L
1723 529 L
248 529 L
cp
f
GR
GS
[0.75 0 0 0.75 0 -0.25] CT
0.149 GC
2 setlinecap
1 LJ
0.667 LW
N
248 857 M
1723 857 L
S
GR
GS
[0.75 0 0 0.75 0 -0.25] CT
0.149 GC
2 setlinecap
1 LJ
0.667 LW
N
248 857 M
248 842.25 L
S
GR
GS
[0.75 0 0 0.75 0 -0.25] CT
0.149 GC
2 setlinecap
1 LJ
0.667 LW
N
739.667 857 M
739.667 842.25 L
S
GR
GS
[0.75 0 0 0.75 0 -0.25] CT
0.149 GC
2 setlinecap
1 LJ
0.667 LW
N
1231.333 857 M
1231.333 842.25 L
S
GR
GS
[0.75 0 0 0.75 0 -0.25] CT
0.149 GC
2 setlinecap
1 LJ
0.667 LW
N
1723 857 M
1723 842.25 L
S
GR
GS
[0.75 0 0 0.75 186 646.49998] CT
0.149 GC
/Helvetica 13.333 F
GS
[1 0 0 1 0 0] CT
-4 14 moveto 
1 -1 scale
(0) t 
GR
GR
GS
[0.75 0 0 0.75 554.75002 646.49998] CT
0.149 GC
/Helvetica 13.333 F
GS
[1 0 0 1 0 0] CT
-4 14 moveto 
1 -1 scale
(5) t 
GR
GR
GS
[0.75 0 0 0.75 923.50003 646.49998] CT
0.149 GC
/Helvetica 13.333 F
GS
[1 0 0 1 0 0] CT
-7.5 14 moveto 
1 -1 scale
(10) t 
GR
GR
GS
[0.75 0 0 0.75 1292.25 646.49998] CT
0.149 GC
/Helvetica 13.333 F
GS
[1 0 0 1 0 0] CT
-7.5 14 moveto 
1 -1 scale
(15) t 
GR
GR
GS
[0.75 0 0 0.75 739.12555 660.25002] CT
0.149 GC
/Helvetica 14.667 F
GS
[1 0 0 1 0 0] CT
-14 15 moveto 
1 -1 scale
(s[m]) t 
GR
GR
GS
[0.75 0 0 0.75 0 -0.25] CT
0.149 GC
2 setlinecap
1 LJ
0.667 LW
N
248 857 M
248 529 L
S
GR
GS
[0.75 0 0 0.75 0 -0.25] CT
0.149 GC
2 setlinecap
1 LJ
0.667 LW
N
248 857 M
262.75 857 L
S
GR
GS
[0.75 0 0 0.75 0 -0.25] CT
0.149 GC
2 setlinecap
1 LJ
0.667 LW
N
248 791.4 M
262.75 791.4 L
S
GR
GS
[0.75 0 0 0.75 0 -0.25] CT
0.149 GC
2 setlinecap
1 LJ
0.667 LW
N
248 725.8 M
262.75 725.8 L
S
GR
GS
[0.75 0 0 0.75 0 -0.25] CT
0.149 GC
2 setlinecap
1 LJ
0.667 LW
N
248 660.2 M
262.75 660.2 L
S
GR
GS
[0.75 0 0 0.75 0 -0.25] CT
0.149 GC
2 setlinecap
1 LJ
0.667 LW
N
248 594.6 M
262.75 594.6 L
S
GR
GS
[0.75 0 0 0.75 0 -0.25] CT
0.149 GC
2 setlinecap
1 LJ
0.667 LW
N
248 529 M
262.75 529 L
S
GR
GS
[0.75 0 0 0.75 182 642.5] CT
0.149 GC
/Helvetica 13.333 F
GS
[1 0 0 1 0 0] CT
-23 5.5 moveto 
1 -1 scale
(-1.5) t 
GR
GR
GS
[0.75 0 0 0.75 182 593.30002] CT
0.149 GC
/Helvetica 13.333 F
GS
[1 0 0 1 0 0] CT
-12 5.5 moveto 
1 -1 scale
(-1) t 
GR
GR
GS
[0.75 0 0 0.75 182 544.09999] CT
0.149 GC
/Helvetica 13.333 F
GS
[1 0 0 1 0 0] CT
-23 5.5 moveto 
1 -1 scale
(-0.5) t 
GR
GR
GS
[0.75 0 0 0.75 182 494.90001] CT
0.149 GC
/Helvetica 13.333 F
GS
[1 0 0 1 0 0] CT
-8 5.5 moveto 
1 -1 scale
(0) t 
GR
GR
GS
[0.75 0 0 0.75 182 445.69998] CT
0.149 GC
/Helvetica 13.333 F
GS
[1 0 0 1 0 0] CT
-19 5.5 moveto 
1 -1 scale
(0.5) t 
GR
GR
GS
[0.75 0 0 0.75 182 396.5] CT
0.149 GC
/Helvetica 13.333 F
GS
[1 0 0 1 0 0] CT
-8 5.5 moveto 
1 -1 scale
(1) t 
GR
GR
GS
[0.75 0 0 0.75 233.6283 494.90001] CT
1 0 0 RC
10.0 ML
N
4 0 M
4 -2.209 2.209 -4 0 -4 C
-2.209 -4 -4 -2.209 -4 0 C
-4 2.209 -2.209 4 0 4 C
2.209 4 4 2.209 4 0 C
cp
S
GR
GS
[0.75 0 0 0.75 331.10037 454.29848] CT
1 0 0 RC
10.0 ML
N
4 0 M
4 -2.209 2.209 -4 0 -4 C
-2.209 -4 -4 -2.209 -4 0 C
-4 2.209 -2.209 4 0 4 C
2.209 4 4 2.209 4 0 C
cp
S
GR
GS
[0.75 0 0 0.75 447.55664 405.78917] CT
1 0 0 RC
10.0 ML
N
4 0 M
4 -2.209 2.209 -4 0 -4 C
-2.209 -4 -4 -2.209 -4 0 C
-4 2.209 -2.209 4 0 4 C
2.209 4 4 2.209 4 0 C
cp
S
GR
GS
[0.75 0 0 0.75 566.15666 405.78917] CT
1 0 0 RC
10.0 ML
N
4 0 M
4 -2.209 2.209 -4 0 -4 C
-2.209 -4 -4 -2.209 -4 0 C
-4 2.209 -2.209 4 0 4 C
2.209 4 4 2.209 4 0 C
cp
S
GR
GS
[0.75 0 0 0.75 233.6283 494.90001] CT
0 1 0 RC
10.0 ML
N
4 0 M
4 -2.209 2.209 -4 0 -4 C
-2.209 -4 -4 -2.209 -4 0 C
-4 2.209 -2.209 4 0 4 C
2.209 4 4 2.209 4 0 C
cp
S
GR
GS
[0.75 0 0 0.75 331.10037 433.45956] CT
0 1 0 RC
10.0 ML
N
4 0 M
4 -2.209 2.209 -4 0 -4 C
-2.209 -4 -4 -2.209 -4 0 C
-4 2.209 -2.209 4 0 4 C
2.209 4 4 2.209 4 0 C
cp
S
GR
GS
[0.75 0 0 0.75 447.55664 494.90001] CT
0 1 0 RC
10.0 ML
N
4 0 M
4 -2.209 2.209 -4 0 -4 C
-2.209 -4 -4 -2.209 -4 0 C
-4 2.209 -2.209 4 0 4 C
2.209 4 4 2.209 4 0 C
cp
S
GR
GS
[0.75 0 0 0.75 566.15666 494.90001] CT
0 1 0 RC
10.0 ML
N
4 0 M
4 -2.209 2.209 -4 0 -4 C
-2.209 -4 -4 -2.209 -4 0 C
-4 2.209 -2.209 4 0 4 C
2.209 4 4 2.209 4 0 C
cp
S
GR
GS
[0.75 0 0 0.75 595.55356 405.78917] CT
1 0 0 RC
10.0 ML
N
4 0 M
4 -2.209 2.209 -4 0 -4 C
-2.209 -4 -4 -2.209 -4 0 C
-4 2.209 -2.209 4 0 4 C
2.209 4 4 2.209 4 0 C
cp
S
GR
GS
[0.75 0 0 0.75 703.92403 494.90001] CT
1 0 0 RC
10.0 ML
N
4 0 M
4 -2.209 2.209 -4 0 -4 C
-2.209 -4 -4 -2.209 -4 0 C
-4 2.209 -2.209 4 0 4 C
2.209 4 4 2.209 4 0 C
cp
S
GR
GS
[0.75 0 0 0.75 812.29449 584.01085] CT
1 0 0 RC
10.0 ML
N
4 0 M
4 -2.209 2.209 -4 0 -4 C
-2.209 -4 -4 -2.209 -4 0 C
-4 2.209 -2.209 4 0 4 C
2.209 4 4 2.209 4 0 C
cp
S
GR
GS
[0.75 0 0 0.75 841.69144 584.01085] CT
1 0 0 RC
10.0 ML
N
4 0 M
4 -2.209 2.209 -4 0 -4 C
-2.209 -4 -4 -2.209 -4 0 C
-4 2.209 -2.209 4 0 4 C
2.209 4 4 2.209 4 0 C
cp
S
GR
GS
[0.75 0 0 0.75 595.55356 494.90001] CT
0 1 0 RC
10.0 ML
N
4 0 M
4 -2.209 2.209 -4 0 -4 C
-2.209 -4 -4 -2.209 -4 0 C
-4 2.209 -2.209 4 0 4 C
2.209 4 4 2.209 4 0 C
cp
S
GR
GS
[0.75 0 0 0.75 703.92403 616.18623] CT
0 1 0 RC
10.0 ML
N
4 0 M
4 -2.209 2.209 -4 0 -4 C
-2.209 -4 -4 -2.209 -4 0 C
-4 2.209 -2.209 4 0 4 C
2.209 4 4 2.209 4 0 C
cp
S
GR
GS
[0.75 0 0 0.75 812.29449 494.90001] CT
0 1 0 RC
10.0 ML
N
4 0 M
4 -2.209 2.209 -4 0 -4 C
-2.209 -4 -4 -2.209 -4 0 C
-4 2.209 -2.209 4 0 4 C
2.209 4 4 2.209 4 0 C
cp
S
GR
GS
[0.75 0 0 0.75 841.69144 494.90001] CT
0 1 0 RC
10.0 ML
N
4 0 M
4 -2.209 2.209 -4 0 -4 C
-2.209 -4 -4 -2.209 -4 0 C
-4 2.209 -2.209 4 0 4 C
2.209 4 4 2.209 4 0 C
cp
S
GR
GS
[0.75 0 0 0.75 960.29141 584.01085] CT
1 0 0 RC
10.0 ML
N
4 0 M
4 -2.209 2.209 -4 0 -4 C
-2.209 -4 -4 -2.209 -4 0 C
-4 2.209 -2.209 4 0 4 C
2.209 4 4 2.209 4 0 C
cp
S
GR
GS
[0.75 0 0 0.75 1076.74768 535.50154] CT
1 0 0 RC
10.0 ML
N
4 0 M
4 -2.209 2.209 -4 0 -4 C
-2.209 -4 -4 -2.209 -4 0 C
-4 2.209 -2.209 4 0 4 C
2.209 4 4 2.209 4 0 C
cp
S
GR
GS
[0.75 0 0 0.75 1174.21976 494.90001] CT
1 0 0 RC
10.0 ML
N
4 0 M
4 -2.209 2.209 -4 0 -4 C
-2.209 -4 -4 -2.209 -4 0 C
-4 2.209 -2.209 4 0 4 C
2.209 4 4 2.209 4 0 C
cp
S
GR
GS
[0.75 0 0 0.75 1221.84805 494.90001] CT
1 0 0 RC
10.0 ML
N
4 0 M
4 -2.209 2.209 -4 0 -4 C
-2.209 -4 -4 -2.209 -4 0 C
-4 2.209 -2.209 4 0 4 C
2.209 4 4 2.209 4 0 C
cp
S
GR
GS
[0.75 0 0 0.75 960.29141 494.90001] CT
0 1 0 RC
10.0 ML
N
4 0 M
4 -2.209 2.209 -4 0 -4 C
-2.209 -4 -4 -2.209 -4 0 C
-4 2.209 -2.209 4 0 4 C
2.209 4 4 2.209 4 0 C
cp
S
GR
GS
[0.75 0 0 0.75 1076.74768 433.45956] CT
0 1 0 RC
10.0 ML
N
4 0 M
4 -2.209 2.209 -4 0 -4 C
-2.209 -4 -4 -2.209 -4 0 C
-4 2.209 -2.209 4 0 4 C
2.209 4 4 2.209 4 0 C
cp
S
GR
GS
[0.75 0 0 0.75 1174.21976 494.90001] CT
0 1 0 RC
10.0 ML
N
4 0 M
4 -2.209 2.209 -4 0 -4 C
-2.209 -4 -4 -2.209 -4 0 C
-4 2.209 -2.209 4 0 4 C
2.209 4 4 2.209 4 0 C
cp
S
GR
GS
[0.75 0 0 0.75 1221.84805 494.90001] CT
0 1 0 RC
10.0 ML
N
4 0 M
4 -2.209 2.209 -4 0 -4 C
-2.209 -4 -4 -2.209 -4 0 C
-4 2.209 -2.209 4 0 4 C
2.209 4 4 2.209 4 0 C
cp
S
GR
GS
[0.75 0 0 0.75 0 -0.25] CT
1 0 0 RC
1 LJ
0.667 LW
N
248 660.2 M
311.504 660.2 L
311.504 660.2 L
312.482 660.197 L
313.459 660.188 L
314.436 660.172 L
315.413 660.151 L
316.39 660.123 L
317.367 660.09 L
318.345 660.05 L
319.322 660.004 L
320.299 659.952 L
321.276 659.894 L
322.253 659.83 L
323.23 659.759 L
324.208 659.683 L
325.185 659.6 L
326.162 659.511 L
327.139 659.417 L
328.116 659.316 L
329.093 659.208 L
330.07 659.095 L
331.048 658.976 L
332.025 658.85 L
333.002 658.719 L
333.979 658.581 L
334.956 658.437 L
335.933 658.287 L
336.911 658.131 L
337.888 657.969 L
338.865 657.801 L
339.842 657.626 L
340.819 657.446 L
341.796 657.259 L
342.774 657.066 L
343.751 656.867 L
344.728 656.662 L
345.705 656.451 L
346.682 656.234 L
347.659 656.01 L
348.637 655.781 L
349.614 655.545 L
350.591 655.303 L
351.568 655.055 L
352.545 654.801 L
353.522 654.541 L
354.5 654.275 L
355.477 654.003 L
356.454 653.724 L
357.431 653.44 L
358.408 653.149 L
359.385 652.852 L
360.363 652.549 L
361.34 652.24 L
362.317 651.925 L
363.294 651.603 L
364.271 651.276 L
365.248 650.942 L
366.226 650.603 L
367.203 650.257 L
368.18 649.905 L
369.157 649.547 L
370.134 649.183 L
371.111 648.812 L
372.089 648.436 L
373.066 648.053 L
374.043 647.665 L
375.02 647.27 L
375.997 646.869 L
376.974 646.462 L
377.952 646.049 L
378.929 645.629 L
379.906 645.204 L
380.883 644.773 L
381.86 644.335 L
382.837 643.891 L
383.815 643.441 L
384.792 642.985 L
385.769 642.523 L
386.746 642.055 L
387.723 641.581 L
388.7 641.1 L
389.677 640.613 L
390.655 640.121 L
391.632 639.622 L
392.609 639.117 L
393.586 638.606 L
394.563 638.089 L
395.54 637.565 L
396.518 637.036 L
397.495 636.5 L
398.472 635.959 L
399.449 635.411 L
400.426 634.857 L
401.403 634.297 L
402.381 633.731 L
403.358 633.158 L
404.335 632.58 L
405.312 631.995 L
406.289 631.405 L
407.266 630.808 L
408.244 630.205 L
409.221 629.596 L
410.198 628.981 L
411.175 628.36 L
412.152 627.732 L
413.129 627.099 L
414.107 626.459 L
415.084 625.813 L
416.061 625.161 L
417.038 624.504 L
418.015 623.839 L
418.992 623.169 L
419.97 622.493 L
420.947 621.81 L
421.924 621.122 L
422.901 620.427 L
423.878 619.726 L
424.855 619.019 L
425.833 618.306 L
426.81 617.587 L
427.787 616.862 L
428.764 616.13 L
429.741 615.393 L
430.718 614.649 L
431.696 613.899 L
432.673 613.143 L
433.65 612.381 L
434.627 611.613 L
435.604 610.839 L
436.581 610.058 L
437.559 609.272 L
438.536 608.479 L
439.513 607.68 L
440.49 606.876 L
441.467 606.065 L
442.45 605.248 L
443.433 604.438 L
444.415 603.632 L
445.398 602.831 L
446.381 602.036 L
447.364 601.246 L
448.346 600.461 L
449.329 599.681 L
450.312 598.906 L
451.295 598.136 L
452.277 597.372 L
453.26 596.613 L
454.243 595.859 L
455.226 595.11 L
456.208 594.367 L
457.191 593.628 L
458.174 592.895 L
459.157 592.167 L
460.139 591.444 L
461.122 590.727 L
462.105 590.014 L
463.088 589.307 L
464.07 588.605 L
465.053 587.908 L
466.036 587.216 L
467.019 586.529 L
468.001 585.848 L
468.984 585.172 L
469.967 584.501 L
470.95 583.835 L
471.933 583.174 L
472.915 582.519 L
473.898 581.868 L
474.881 581.223 L
475.864 580.583 L
476.846 579.948 L
477.829 579.319 L
478.812 578.694 L
479.795 578.075 L
480.777 577.461 L
481.76 576.852 L
482.743 576.249 L
483.726 575.65 L
484.708 575.057 L
485.691 574.469 L
486.674 573.886 L
487.657 573.308 L
488.639 572.735 L
489.622 572.168 L
490.605 571.606 L
491.588 571.049 L
492.57 570.497 L
493.553 569.95 L
494.536 569.409 L
495.519 568.872 L
496.501 568.341 L
497.484 567.815 L
498.467 567.294 L
499.45 566.779 L
500.432 566.268 L
501.415 565.763 L
502.398 565.263 L
503.381 564.768 L
504.363 564.279 L
505.346 563.794 L
506.329 563.315 L
507.312 562.841 L
508.294 562.372 L
509.277 561.908 L
510.26 561.449 L
511.243 560.996 L
512.225 560.548 L
513.208 560.105 L
514.191 559.667 L
515.174 559.234 L
516.156 558.807 L
517.139 558.384 L
518.122 557.967 L
519.105 557.555 L
520.087 557.149 L
521.07 556.747 L
522.053 556.351 L
523.036 555.959 L
524.018 555.573 L
525.001 555.192 L
525.984 554.817 L
526.967 554.446 L
527.949 554.081 L
528.932 553.721 L
529.915 553.366 L
530.898 553.016 L
531.88 552.671 L
532.863 552.332 L
533.846 551.998 L
534.829 551.669 L
535.811 551.345 L
536.794 551.026 L
537.777 550.713 L
538.76 550.404 L
539.742 550.101 L
540.725 549.803 L
541.708 549.511 L
542.691 549.223 L
543.673 548.941 L
544.656 548.663 L
545.639 548.391 L
546.622 548.124 L
547.604 547.863 L
548.587 547.606 L
549.57 547.355 L
550.553 547.109 L
551.536 546.868 L
552.518 546.632 L
553.501 546.401 L
554.484 546.176 L
555.467 545.956 L
556.449 545.741 L
557.432 545.531 L
558.415 545.326 L
559.398 545.127 L
560.38 544.932 L
561.363 544.743 L
562.346 544.559 L
563.329 544.381 L
564.311 544.207 L
565.294 544.039 L
566.277 543.875 L
567.26 543.717 L
568.242 543.564 L
569.225 543.417 L
570.208 543.274 L
571.191 543.137 L
572.173 543.005 L
573.156 542.878 L
574.139 542.756 L
575.122 542.64 L
576.104 542.528 L
577.087 542.422 L
578.07 542.321 L
579.053 542.225 L
580.035 542.134 L
581.018 542.049 L
582.001 541.969 L
582.984 541.893 L
583.966 541.823 L
584.949 541.759 L
585.932 541.699 L
586.915 541.645 L
587.897 541.595 L
588.88 541.551 L
589.863 541.513 L
590.846 541.479 L
591.828 541.45 L
592.811 541.427 L
593.794 541.409 L
594.777 541.396 L
595.759 541.388 L
596.742 541.386 L
596.742 541.386 L
754.876 541.386 L
794.071 541.386 L
794.071 541.386 L
795.054 541.391 L
796.037 541.408 L
797.02 541.435 L
798.003 541.474 L
798.986 541.523 L
799.969 541.583 L
800.952 541.655 L
801.935 541.737 L
802.918 541.831 L
803.901 541.935 L
804.884 542.051 L
805.867 542.177 L
806.85 542.315 L
807.833 542.463 L
808.816 542.623 L
809.799 542.793 L
810.782 542.975 L
811.765 543.167 L
812.747 543.37 L
813.73 543.585 L
814.713 543.81 L
815.696 544.047 L
816.679 544.294 L
817.662 544.553 L
818.645 544.822 L
819.628 545.102 L
820.611 545.394 L
821.594 545.696 L
822.577 546.01 L
823.56 546.334 L
824.543 546.669 L
825.526 547.016 L
826.509 547.373 L
827.492 547.742 L
828.475 548.121 L
829.458 548.511 L
830.441 548.913 L
831.424 549.325 L
832.406 549.749 L
833.39 550.183 L
834.372 550.628 L
835.355 551.085 L
836.338 551.552 L
837.321 552.03 L
838.304 552.52 L
839.287 553.02 L
840.27 553.531 L
841.253 554.054 L
842.236 554.587 L
843.219 555.131 L
844.202 555.687 L
845.185 556.253 L
846.168 556.831 L
847.151 557.419 L
848.134 558.018 L
849.117 558.628 L
850.1 559.25 L
851.083 559.882 L
852.066 560.525 L
853.049 561.18 L
854.031 561.845 L
855.014 562.521 L
855.997 563.209 L
856.98 563.907 L
857.963 564.616 L
858.946 565.336 L
859.929 566.068 L
860.912 566.81 L
861.895 567.563 L
862.878 568.328 L
863.861 569.103 L
864.844 569.889 L
865.827 570.686 L
866.81 571.495 L
867.793 572.314 L
868.776 573.144 L
869.759 573.985 L
870.742 574.838 L
871.725 575.701 L
872.708 576.575 L
873.691 577.46 L
874.673 578.357 L
875.656 579.264 L
876.639 580.182 L
877.622 581.111 L
878.605 582.052 L
879.588 583.003 L
880.571 583.965 L
881.554 584.938 L
882.537 585.922 L
883.52 586.918 L
884.503 587.924 L
885.486 588.941 L
886.469 589.969 L
887.452 591.008 L
888.435 592.059 L
889.418 593.12 L
890.401 594.192 L
891.384 595.275 L
892.367 596.369 L
893.35 597.474 L
894.333 598.591 L
895.315 599.718 L
896.298 600.856 L
897.281 602.005 L
898.264 603.165 L
899.247 604.336 L
900.23 605.519 L
901.213 606.712 L
902.196 607.916 L
903.179 609.131 L
904.162 610.357 L
905.145 611.594 L
906.128 612.842 L
907.111 614.102 L
908.094 615.372 L
909.077 616.653 L
910.06 617.945 L
911.043 619.248 L
912.026 620.562 L
913.009 621.887 L
913.992 623.223 L
914.974 624.57 L
915.957 625.929 L
916.94 627.298 L
917.923 628.678 L
918.906 630.069 L
919.889 631.471 L
920.872 632.884 L
921.855 634.308 L
922.838 635.743 L
923.821 637.189 L
924.804 638.646 L
925.787 640.114 L
926.77 641.594 L
927.753 643.084 L
928.736 644.585 L
929.719 646.097 L
930.702 647.62 L
931.685 649.154 L
932.668 650.699 L
933.651 652.255 L
934.634 653.822 L
935.617 655.4 L
936.599 656.989 L
937.582 658.589 L
938.565 660.2 L
939.548 661.811 L
940.531 663.411 L
941.514 665 L
942.497 666.578 L
943.48 668.145 L
944.463 669.701 L
945.446 671.246 L
946.429 672.78 L
947.412 674.303 L
948.395 675.815 L
949.378 677.316 L
950.361 678.807 L
951.344 680.286 L
952.327 681.754 L
953.31 683.211 L
954.293 684.657 L
955.276 686.092 L
956.258 687.516 L
957.241 688.929 L
958.224 690.331 L
959.207 691.722 L
960.19 693.102 L
961.173 694.471 L
962.156 695.829 L
963.139 697.177 L
964.122 698.513 L
965.105 699.838 L
966.088 701.152 L
967.071 702.455 L
968.054 703.747 L
969.037 705.028 L
970.02 706.298 L
971.003 707.558 L
971.986 708.806 L
972.969 710.043 L
973.952 711.269 L
974.935 712.484 L
975.918 713.688 L
976.901 714.881 L
977.883 716.064 L
978.866 717.235 L
979.849 718.395 L
980.832 719.544 L
981.815 720.682 L
982.798 721.809 L
983.781 722.925 L
984.764 724.031 L
985.747 725.125 L
986.73 726.208 L
987.713 727.28 L
988.696 728.341 L
989.679 729.392 L
990.662 730.431 L
991.645 731.459 L
992.628 732.476 L
993.611 733.482 L
994.594 734.478 L
995.577 735.462 L
996.56 736.435 L
997.542 737.397 L
998.525 738.348 L
999.508 739.289 L
1000.491 740.218 L
1001.474 741.136 L
1002.457 742.043 L
1003.44 742.94 L
1004.423 743.825 L
1005.406 744.699 L
1006.389 745.562 L
1007.372 746.415 L
1008.355 747.256 L
1009.338 748.086 L
1010.321 748.905 L
1011.304 749.714 L
1012.287 750.511 L
1013.27 751.297 L
1014.253 752.072 L
1015.236 752.837 L
1016.219 753.59 L
1017.202 754.332 L
1018.185 755.064 L
1019.167 755.784 L
1020.15 756.493 L
1021.133 757.191 L
1022.116 757.879 L
1023.099 758.555 L
1024.082 759.22 L
1025.065 759.875 L
1026.048 760.518 L
1027.031 761.15 L
1028.014 761.772 L
1028.997 762.382 L
1029.98 762.981 L
1030.963 763.57 L
1031.946 764.147 L
1032.929 764.713 L
1033.912 765.268 L
1034.895 765.813 L
1035.878 766.346 L
1036.861 766.869 L
1037.844 767.38 L
1038.826 767.88 L
1039.809 768.37 L
1040.792 768.848 L
1041.775 769.315 L
1042.758 769.772 L
1043.741 770.217 L
1044.724 770.651 L
1045.707 771.075 L
1046.69 771.487 L
1047.673 771.889 L
1048.656 772.279 L
1049.639 772.658 L
1050.622 773.027 L
1051.605 773.384 L
1052.588 773.731 L
1053.571 774.066 L
1054.554 774.39 L
1055.537 774.704 L
1056.52 775.006 L
1057.503 775.298 L
1058.485 775.578 L
1059.469 775.847 L
1060.452 776.106 L
1061.434 776.353 L
1062.417 776.59 L
1063.4 776.815 L
1064.383 777.03 L
1065.366 777.233 L
1066.349 777.425 L
1067.332 777.607 L
1068.315 777.777 L
1069.298 777.937 L
1070.281 778.085 L
1071.264 778.223 L
1072.247 778.349 L
1073.23 778.465 L
1074.213 778.569 L
1075.196 778.663 L
1076.179 778.745 L
1077.162 778.817 L
1078.145 778.877 L
1079.128 778.927 L
1080.11 778.965 L
1081.093 778.992 L
1082.076 779.009 L
1083.059 779.014 L
1083.059 779.014 L
1122.255 779.014 L
1280.389 779.014 L
1280.389 779.014 L
1281.371 779.012 L
1282.354 779.004 L
1283.337 778.991 L
1284.32 778.973 L
1285.302 778.95 L
1286.285 778.921 L
1287.268 778.888 L
1288.251 778.849 L
1289.233 778.805 L
1290.216 778.755 L
1291.199 778.701 L
1292.182 778.641 L
1293.164 778.577 L
1294.147 778.507 L
1295.13 778.432 L
1296.113 778.351 L
1297.095 778.266 L
1298.078 778.175 L
1299.061 778.079 L
1300.044 777.978 L
1301.026 777.872 L
1302.009 777.76 L
1302.992 777.644 L
1303.975 777.522 L
1304.957 777.395 L
1305.94 777.263 L
1306.923 777.126 L
1307.906 776.983 L
1308.888 776.836 L
1309.871 776.683 L
1310.854 776.525 L
1311.837 776.361 L
1312.819 776.193 L
1313.802 776.019 L
1314.785 775.841 L
1315.768 775.657 L
1316.75 775.468 L
1317.733 775.273 L
1318.716 775.074 L
1319.699 774.869 L
1320.681 774.659 L
1321.664 774.444 L
1322.647 774.224 L
1323.63 773.998 L
1324.612 773.768 L
1325.595 773.532 L
1326.578 773.291 L
1327.561 773.045 L
1328.543 772.794 L
1329.526 772.537 L
1330.509 772.276 L
1331.492 772.009 L
1332.474 771.737 L
1333.457 771.459 L
1334.44 771.177 L
1335.423 770.889 L
1336.406 770.597 L
1337.388 770.299 L
1338.371 769.996 L
1339.354 769.687 L
1340.337 769.374 L
1341.319 769.055 L
1342.302 768.731 L
1343.285 768.402 L
1344.268 768.068 L
1345.25 767.729 L
1346.233 767.384 L
1347.216 767.034 L
1348.198 766.679 L
1349.181 766.319 L
1350.164 765.954 L
1351.147 765.583 L
1352.13 765.208 L
1353.112 764.827 L
1354.095 764.441 L
1355.078 764.049 L
1356.061 763.653 L
1357.043 763.251 L
1358.026 762.845 L
1359.009 762.433 L
1359.992 762.016 L
1360.974 761.593 L
1361.957 761.166 L
1362.94 760.733 L
1363.922 760.295 L
1364.905 759.852 L
1365.888 759.404 L
1366.871 758.951 L
1367.854 758.492 L
1368.836 758.028 L
1369.819 757.559 L
1370.802 757.085 L
1371.785 756.606 L
1372.767 756.121 L
1373.75 755.632 L
1374.733 755.137 L
1375.716 754.637 L
1376.698 754.132 L
1377.681 753.621 L
1378.664 753.106 L
1379.647 752.585 L
1380.629 752.059 L
1381.612 751.528 L
1382.595 750.991 L
1383.578 750.45 L
1384.56 749.903 L
1385.543 749.351 L
1386.526 748.794 L
1387.509 748.232 L
1388.491 747.665 L
1389.474 747.092 L
1390.457 746.514 L
1391.44 745.931 L
1392.422 745.343 L
1393.405 744.75 L
1394.388 744.151 L
1395.371 743.548 L
1396.353 742.939 L
1397.336 742.325 L
1398.319 741.706 L
1399.302 741.081 L
1400.284 740.452 L
1401.267 739.817 L
1402.25 739.177 L
1403.233 738.532 L
1404.215 737.881 L
1405.198 737.226 L
1406.181 736.565 L
1407.164 735.899 L
1408.146 735.228 L
1409.129 734.552 L
1410.112 733.871 L
1411.095 733.184 L
1412.077 732.492 L
1413.06 731.795 L
1414.043 731.093 L
1415.026 730.386 L
1416.009 729.673 L
1416.991 728.956 L
1417.974 728.233 L
1418.957 727.505 L
1419.939 726.772 L
1420.922 726.033 L
1421.905 725.29 L
1422.888 724.541 L
1423.87 723.787 L
1424.853 723.028 L
1425.836 722.264 L
1426.819 721.494 L
1427.802 720.719 L
1428.784 719.94 L
1429.767 719.154 L
1430.75 718.364 L
1431.733 717.569 L
1432.715 716.768 L
1433.698 715.962 L
1434.681 715.152 L
1435.664 714.335 L
1436.641 713.524 L
1437.618 712.719 L
1438.595 711.921 L
1439.572 711.128 L
1440.549 710.342 L
1441.526 709.561 L
1442.504 708.787 L
1443.481 708.019 L
1444.458 707.257 L
1445.435 706.501 L
1446.412 705.751 L
1447.39 705.007 L
1448.367 704.27 L
1449.344 703.538 L
1450.321 702.813 L
1451.298 702.094 L
1452.275 701.381 L
1453.253 700.674 L
1454.23 699.973 L
1455.207 699.278 L
1456.184 698.59 L
1457.161 697.907 L
1458.138 697.231 L
1459.115 696.561 L
1460.093 695.896 L
1461.07 695.239 L
1462.047 694.587 L
1463.024 693.941 L
1464.001 693.301 L
1464.978 692.668 L
1465.956 692.04 L
1466.933 691.419 L
1467.91 690.804 L
1468.887 690.195 L
1469.864 689.592 L
1470.841 688.995 L
1471.819 688.405 L
1472.796 687.82 L
1473.773 687.242 L
1474.75 686.669 L
1475.727 686.103 L
1476.704 685.543 L
1477.682 684.989 L
1478.659 684.441 L
1479.636 683.9 L
1480.613 683.364 L
1481.59 682.835 L
1482.567 682.311 L
1483.545 681.794 L
1484.522 681.283 L
1485.499 680.778 L
1486.476 680.279 L
1487.453 679.787 L
1488.43 679.3 L
1489.407 678.819 L
1490.385 678.345 L
1491.362 677.877 L
1492.339 677.415 L
1493.316 676.959 L
1494.293 676.509 L
1495.271 676.065 L
1496.248 675.627 L
1497.225 675.196 L
1498.202 674.771 L
1499.179 674.351 L
1500.156 673.938 L
1501.134 673.531 L
1502.111 673.13 L
1503.088 672.735 L
1504.065 672.347 L
1505.042 671.964 L
1506.019 671.588 L
1506.996 671.217 L
1507.974 670.853 L
1508.951 670.495 L
1509.928 670.143 L
1510.905 669.797 L
1511.882 669.458 L
1512.859 669.124 L
1513.837 668.797 L
1514.814 668.475 L
1515.791 668.16 L
1516.768 667.851 L
1517.745 667.548 L
1518.723 667.251 L
1519.7 666.96 L
1520.677 666.676 L
1521.654 666.397 L
1522.631 666.125 L
1523.608 665.859 L
1524.585 665.599 L
1525.563 665.345 L
1526.54 665.097 L
1527.517 664.855 L
1528.494 664.619 L
1529.471 664.39 L
1530.448 664.166 L
1531.426 663.949 L
1532.403 663.738 L
1533.38 663.533 L
1534.357 663.334 L
1535.334 663.141 L
1536.311 662.954 L
1537.289 662.774 L
1538.266 662.599 L
1539.243 662.431 L
1540.22 662.269 L
1541.197 662.113 L
1542.174 661.963 L
1543.152 661.819 L
1544.129 661.681 L
1545.106 661.55 L
1546.083 661.424 L
1547.06 661.305 L
1548.037 661.192 L
1549.015 661.084 L
1549.992 660.983 L
1550.969 660.889 L
1551.946 660.8 L
1552.923 660.717 L
1553.9 660.641 L
1554.877 660.57 L
1555.855 660.506 L
1556.832 660.448 L
1557.809 660.396 L
1558.786 660.35 L
1559.763 660.31 L
1560.74 660.276 L
1561.718 660.249 L
1562.695 660.228 L
1563.672 660.212 L
1564.649 660.203 L
1565.626 660.2 L
1565.626 660.2 L
1629.131 660.2 L
S
GR
GS
[0.75 0 0 0.75 0 -0.25] CT
0 1 0 RC
1 LJ
0.667 LW
N
248 660.2 M
311.504 660.2 L
311.504 660.2 L
312.482 659.584 L
313.459 658.968 L
314.436 658.352 L
315.413 657.736 L
316.39 657.12 L
317.367 656.504 L
318.345 655.888 L
319.322 655.272 L
320.299 654.656 L
321.276 654.041 L
322.253 653.425 L
323.23 652.809 L
324.208 652.193 L
325.185 651.577 L
326.162 650.961 L
327.139 650.345 L
328.116 649.729 L
329.093 649.113 L
330.07 648.497 L
331.048 647.881 L
332.025 647.265 L
333.002 646.649 L
333.979 646.033 L
334.956 645.417 L
335.933 644.801 L
336.911 644.185 L
337.888 643.57 L
338.865 642.954 L
339.842 642.338 L
340.819 641.722 L
341.796 641.106 L
342.774 640.49 L
343.751 639.874 L
344.728 639.258 L
345.705 638.642 L
346.682 638.026 L
347.659 637.41 L
348.637 636.794 L
349.614 636.178 L
350.591 635.562 L
351.568 634.946 L
352.545 634.33 L
353.522 633.714 L
354.5 633.098 L
355.477 632.482 L
356.454 631.867 L
357.431 631.251 L
358.408 630.635 L
359.385 630.019 L
360.363 629.403 L
361.34 628.787 L
362.317 628.171 L
363.294 627.555 L
364.271 626.939 L
365.248 626.323 L
366.226 625.707 L
367.203 625.091 L
368.18 624.475 L
369.157 623.859 L
370.134 623.243 L
371.111 622.627 L
372.089 622.011 L
373.066 621.396 L
374.043 620.78 L
375.02 620.164 L
375.997 619.548 L
376.974 618.932 L
377.952 618.316 L
378.929 617.7 L
379.906 617.084 L
380.883 616.468 L
381.86 615.852 L
382.837 615.236 L
383.815 614.62 L
384.792 614.004 L
385.769 613.388 L
386.746 612.772 L
387.723 612.156 L
388.7 611.54 L
389.677 610.924 L
390.655 610.309 L
391.632 609.693 L
392.609 609.077 L
393.586 608.461 L
394.563 607.845 L
395.54 607.229 L
396.518 606.613 L
397.495 605.997 L
398.472 605.381 L
399.449 604.765 L
400.426 604.149 L
401.403 603.533 L
402.381 602.917 L
403.358 602.301 L
404.335 601.685 L
405.312 601.069 L
406.289 600.453 L
407.266 599.837 L
408.244 599.221 L
409.221 598.606 L
410.198 597.99 L
411.175 597.374 L
412.152 596.758 L
413.129 596.142 L
414.107 595.526 L
415.084 594.91 L
416.061 594.294 L
417.038 593.678 L
418.015 593.062 L
418.992 592.446 L
419.97 591.83 L
420.947 591.214 L
421.924 590.598 L
422.901 589.982 L
423.878 589.366 L
424.855 588.75 L
425.833 588.135 L
426.81 587.519 L
427.787 586.903 L
428.764 586.287 L
429.741 585.671 L
430.718 585.055 L
431.696 584.439 L
432.673 583.823 L
433.65 583.207 L
434.627 582.591 L
435.604 581.975 L
436.581 581.359 L
437.559 580.743 L
438.536 580.127 L
439.513 579.511 L
440.49 578.895 L
441.467 578.279 L
442.45 578.798 L
443.433 579.316 L
444.415 579.835 L
445.398 580.353 L
446.381 580.872 L
447.364 581.39 L
448.346 581.909 L
449.329 582.427 L
450.312 582.946 L
451.295 583.464 L
452.277 583.983 L
453.26 584.501 L
454.243 585.02 L
455.226 585.538 L
456.208 586.057 L
457.191 586.575 L
458.174 587.094 L
459.157 587.612 L
460.139 588.131 L
461.122 588.649 L
462.105 589.168 L
463.088 589.686 L
464.07 590.205 L
465.053 590.723 L
466.036 591.242 L
467.019 591.76 L
468.001 592.279 L
468.984 592.797 L
469.967 593.315 L
470.95 593.834 L
471.933 594.352 L
472.915 594.871 L
473.898 595.389 L
474.881 595.908 L
475.864 596.426 L
476.846 596.945 L
477.829 597.463 L
478.812 597.982 L
479.795 598.5 L
480.777 599.019 L
481.76 599.537 L
482.743 600.056 L
483.726 600.574 L
484.708 601.093 L
485.691 601.611 L
486.674 602.13 L
487.657 602.648 L
488.639 603.167 L
489.622 603.685 L
490.605 604.204 L
491.588 604.722 L
492.57 605.241 L
493.553 605.759 L
494.536 606.278 L
495.519 606.796 L
496.501 607.315 L
497.484 607.833 L
498.467 608.352 L
499.45 608.87 L
500.432 609.388 L
501.415 609.907 L
502.398 610.425 L
503.381 610.944 L
504.363 611.462 L
505.346 611.981 L
506.329 612.499 L
507.312 613.018 L
508.294 613.536 L
509.277 614.055 L
510.26 614.573 L
511.243 615.092 L
512.225 615.61 L
513.208 616.129 L
514.191 616.647 L
515.174 617.166 L
516.156 617.684 L
517.139 618.203 L
518.122 618.721 L
519.105 619.24 L
520.087 619.758 L
521.07 620.277 L
522.053 620.795 L
523.036 621.314 L
524.018 621.832 L
525.001 622.351 L
525.984 622.869 L
526.967 623.388 L
527.949 623.906 L
528.932 624.425 L
529.915 624.943 L
530.898 625.462 L
531.88 625.98 L
532.863 626.498 L
533.846 627.017 L
534.829 627.535 L
535.811 628.054 L
536.794 628.572 L
537.777 629.091 L
538.76 629.609 L
539.742 630.128 L
540.725 630.646 L
541.708 631.165 L
542.691 631.683 L
543.673 632.202 L
544.656 632.72 L
545.639 633.239 L
546.622 633.757 L
547.604 634.276 L
548.587 634.794 L
549.57 635.313 L
550.553 635.831 L
551.536 636.35 L
552.518 636.868 L
553.501 637.387 L
554.484 637.905 L
555.467 638.424 L
556.449 638.942 L
557.432 639.461 L
558.415 639.979 L
559.398 640.498 L
560.38 641.016 L
561.363 641.535 L
562.346 642.053 L
563.329 642.572 L
564.311 643.09 L
565.294 643.609 L
566.277 644.127 L
567.26 644.645 L
568.242 645.164 L
569.225 645.682 L
570.208 646.201 L
571.191 646.719 L
572.173 647.238 L
573.156 647.756 L
574.139 648.275 L
575.122 648.793 L
576.104 649.312 L
577.087 649.83 L
578.07 650.349 L
579.053 650.867 L
580.035 651.386 L
581.018 651.904 L
582.001 652.423 L
582.984 652.941 L
583.966 653.46 L
584.949 653.978 L
585.932 654.497 L
586.915 655.015 L
587.897 655.534 L
588.88 656.052 L
589.863 656.571 L
590.846 657.089 L
591.828 657.608 L
592.811 658.126 L
593.794 658.645 L
594.777 659.163 L
595.759 659.682 L
596.742 660.2 L
596.742 660.2 L
754.876 660.2 L
794.071 660.2 L
794.071 660.2 L
795.054 661.3 L
796.037 662.4 L
797.02 663.5 L
798.003 664.6 L
798.986 665.701 L
799.969 666.801 L
800.952 667.901 L
801.935 669.001 L
802.918 670.101 L
803.901 671.201 L
804.884 672.301 L
805.867 673.401 L
806.85 674.501 L
807.833 675.601 L
808.816 676.702 L
809.799 677.802 L
810.782 678.902 L
811.765 680.002 L
812.747 681.102 L
813.73 682.202 L
814.713 683.302 L
815.696 684.402 L
816.679 685.502 L
817.662 686.602 L
818.645 687.703 L
819.628 688.803 L
820.611 689.903 L
821.594 691.003 L
822.577 692.103 L
823.56 693.203 L
824.543 694.303 L
825.526 695.403 L
826.509 696.503 L
827.492 697.603 L
828.475 698.704 L
829.458 699.804 L
830.441 700.904 L
831.424 702.004 L
832.406 703.104 L
833.39 704.204 L
834.372 705.304 L
835.355 706.404 L
836.338 707.504 L
837.321 708.604 L
838.304 709.705 L
839.287 710.805 L
840.27 711.905 L
841.253 713.005 L
842.236 714.105 L
843.219 715.205 L
844.202 716.305 L
845.185 717.405 L
846.168 718.505 L
847.151 719.606 L
848.134 720.706 L
849.117 721.806 L
850.1 722.906 L
851.083 724.006 L
852.066 725.106 L
853.049 726.206 L
854.031 727.306 L
855.014 728.406 L
855.997 729.506 L
856.98 730.607 L
857.963 731.707 L
858.946 732.807 L
859.929 733.907 L
860.912 735.007 L
861.895 736.107 L
862.878 737.207 L
863.861 738.307 L
864.844 739.407 L
865.827 740.507 L
866.81 741.608 L
867.793 742.708 L
868.776 743.808 L
869.759 744.908 L
870.742 746.008 L
871.725 747.108 L
872.708 748.208 L
873.691 749.308 L
874.673 750.408 L
875.656 751.508 L
876.639 752.609 L
877.622 753.709 L
878.605 754.809 L
879.588 755.909 L
880.571 757.009 L
881.554 758.109 L
882.537 759.209 L
883.52 760.309 L
884.503 761.409 L
885.486 762.51 L
886.469 763.61 L
887.452 764.71 L
888.435 765.81 L
889.418 766.91 L
890.401 768.01 L
891.384 769.11 L
892.367 770.21 L
893.35 771.31 L
894.333 772.41 L
895.315 773.51 L
896.298 774.611 L
897.281 775.711 L
898.264 776.811 L
899.247 777.911 L
900.23 779.011 L
901.213 780.111 L
902.196 781.211 L
903.179 782.311 L
904.162 783.411 L
905.145 784.512 L
906.128 785.612 L
907.111 786.712 L
908.094 787.812 L
909.077 788.912 L
910.06 790.012 L
911.043 791.112 L
912.026 792.212 L
913.009 793.312 L
913.992 794.412 L
914.974 795.513 L
915.957 796.613 L
916.94 797.713 L
917.923 798.813 L
918.906 799.913 L
919.889 801.013 L
920.872 802.113 L
921.855 803.213 L
922.838 804.313 L
923.821 805.414 L
924.804 806.514 L
925.787 807.614 L
926.77 808.714 L
927.753 809.814 L
928.736 810.914 L
929.719 812.014 L
930.702 813.114 L
931.685 814.214 L
932.668 815.314 L
933.651 816.414 L
934.634 817.515 L
935.617 818.615 L
936.599 819.715 L
937.582 820.815 L
938.565 821.915 L
939.548 820.815 L
940.531 819.715 L
941.514 818.615 L
942.497 817.515 L
943.48 816.414 L
944.463 815.314 L
945.446 814.214 L
946.429 813.114 L
947.412 812.014 L
948.395 810.914 L
949.378 809.814 L
950.361 808.714 L
951.344 807.614 L
952.327 806.514 L
953.31 805.414 L
954.293 804.313 L
955.276 803.213 L
956.258 802.113 L
957.241 801.013 L
958.224 799.913 L
959.207 798.813 L
960.19 797.713 L
961.173 796.613 L
962.156 795.513 L
963.139 794.412 L
964.122 793.312 L
965.105 792.212 L
966.088 791.112 L
967.071 790.012 L
968.054 788.912 L
969.037 787.812 L
970.02 786.712 L
971.003 785.612 L
971.986 784.512 L
972.969 783.411 L
973.952 782.311 L
974.935 781.211 L
975.918 780.111 L
976.901 779.011 L
977.883 777.911 L
978.866 776.811 L
979.849 775.711 L
980.832 774.611 L
981.815 773.51 L
982.798 772.41 L
983.781 771.31 L
984.764 770.21 L
985.747 769.11 L
986.73 768.01 L
987.713 766.91 L
988.696 765.81 L
989.679 764.71 L
990.662 763.61 L
991.645 762.51 L
992.628 761.409 L
993.611 760.309 L
994.594 759.209 L
995.577 758.109 L
996.56 757.009 L
997.542 755.909 L
998.525 754.809 L
999.508 753.709 L
1000.491 752.609 L
1001.474 751.508 L
1002.457 750.408 L
1003.44 749.308 L
1004.423 748.208 L
1005.406 747.108 L
1006.389 746.008 L
1007.372 744.908 L
1008.355 743.808 L
1009.338 742.708 L
1010.321 741.608 L
1011.304 740.507 L
1012.287 739.407 L
1013.27 738.307 L
1014.253 737.207 L
1015.236 736.107 L
1016.219 735.007 L
1017.202 733.907 L
1018.185 732.807 L
1019.167 731.707 L
1020.15 730.607 L
1021.133 729.506 L
1022.116 728.406 L
1023.099 727.306 L
1024.082 726.206 L
1025.065 725.106 L
1026.048 724.006 L
1027.031 722.906 L
1028.014 721.806 L
1028.997 720.706 L
1029.98 719.606 L
1030.963 718.505 L
1031.946 717.405 L
1032.929 716.305 L
1033.912 715.205 L
1034.895 714.105 L
1035.878 713.005 L
1036.861 711.905 L
1037.844 710.805 L
1038.826 709.705 L
1039.809 708.604 L
1040.792 707.504 L
1041.775 706.404 L
1042.758 705.304 L
1043.741 704.204 L
1044.724 703.104 L
1045.707 702.004 L
1046.69 700.904 L
1047.673 699.804 L
1048.656 698.704 L
1049.639 697.603 L
1050.622 696.503 L
1051.605 695.403 L
1052.588 694.303 L
1053.571 693.203 L
1054.554 692.103 L
1055.537 691.003 L
1056.52 689.903 L
1057.503 688.803 L
1058.485 687.703 L
1059.469 686.602 L
1060.452 685.502 L
1061.434 684.402 L
1062.417 683.302 L
1063.4 682.202 L
1064.383 681.102 L
1065.366 680.002 L
1066.349 678.902 L
1067.332 677.802 L
1068.315 676.702 L
1069.298 675.601 L
1070.281 674.501 L
1071.264 673.401 L
1072.247 672.301 L
1073.23 671.201 L
1074.213 670.101 L
1075.196 669.001 L
1076.179 667.901 L
1077.162 666.801 L
1078.145 665.701 L
1079.128 664.6 L
1080.11 663.5 L
1081.093 662.4 L
1082.076 661.3 L
1083.059 660.2 L
1083.059 660.2 L
1122.255 660.2 L
1280.389 660.2 L
1280.389 660.2 L
1281.371 659.682 L
1282.354 659.163 L
1283.337 658.645 L
1284.32 658.126 L
1285.302 657.608 L
1286.285 657.089 L
1287.268 656.571 L
1288.251 656.052 L
1289.233 655.534 L
1290.216 655.015 L
1291.199 654.497 L
1292.182 653.978 L
1293.164 653.46 L
1294.147 652.941 L
1295.13 652.423 L
1296.113 651.904 L
1297.095 651.386 L
1298.078 650.867 L
1299.061 650.349 L
1300.044 649.83 L
1301.026 649.312 L
1302.009 648.793 L
1302.992 648.275 L
1303.975 647.756 L
1304.957 647.238 L
1305.94 646.719 L
1306.923 646.201 L
1307.906 645.682 L
1308.888 645.164 L
1309.871 644.645 L
1310.854 644.127 L
1311.837 643.608 L
1312.819 643.09 L
1313.802 642.572 L
1314.785 642.053 L
1315.768 641.535 L
1316.75 641.016 L
1317.733 640.498 L
1318.716 639.979 L
1319.699 639.461 L
1320.681 638.942 L
1321.664 638.424 L
1322.647 637.905 L
1323.63 637.387 L
1324.612 636.868 L
1325.595 636.35 L
1326.578 635.831 L
1327.561 635.313 L
1328.543 634.794 L
1329.526 634.276 L
1330.509 633.757 L
1331.492 633.239 L
1332.474 632.72 L
1333.457 632.202 L
1334.44 631.683 L
1335.423 631.165 L
1336.406 630.646 L
1337.388 630.128 L
1338.371 629.609 L
1339.354 629.091 L
1340.337 628.572 L
1341.319 628.054 L
1342.302 627.535 L
1343.285 627.017 L
1344.268 626.498 L
1345.25 625.98 L
1346.233 625.462 L
1347.216 624.943 L
1348.198 624.425 L
1349.181 623.906 L
1350.164 623.388 L
1351.147 622.869 L
1352.13 622.351 L
1353.112 621.832 L
1354.095 621.314 L
1355.078 620.795 L
1356.061 620.277 L
1357.043 619.758 L
1358.026 619.24 L
1359.009 618.721 L
1359.992 618.203 L
1360.974 617.684 L
1361.957 617.166 L
1362.94 616.647 L
1363.922 616.129 L
1364.905 615.61 L
1365.888 615.092 L
1366.871 614.573 L
1367.854 614.055 L
1368.836 613.536 L
1369.819 613.018 L
1370.802 612.499 L
1371.785 611.981 L
1372.767 611.462 L
1373.75 610.944 L
1374.733 610.425 L
1375.716 609.907 L
1376.698 609.388 L
1377.681 608.87 L
1378.664 608.352 L
1379.647 607.833 L
1380.629 607.315 L
1381.612 606.796 L
1382.595 606.278 L
1383.578 605.759 L
1384.56 605.241 L
1385.543 604.722 L
1386.526 604.204 L
1387.509 603.685 L
1388.491 603.167 L
1389.474 602.648 L
1390.457 602.13 L
1391.44 601.611 L
1392.422 601.093 L
1393.405 600.574 L
1394.388 600.056 L
1395.371 599.537 L
1396.353 599.019 L
1397.336 598.5 L
1398.319 597.982 L
1399.302 597.463 L
1400.284 596.945 L
1401.267 596.426 L
1402.25 595.908 L
1403.233 595.389 L
1404.215 594.871 L
1405.198 594.352 L
1406.181 593.834 L
1407.164 593.315 L
1408.146 592.797 L
1409.129 592.279 L
1410.112 591.76 L
1411.095 591.242 L
1412.077 590.723 L
1413.06 590.205 L
1414.043 589.686 L
1415.026 589.168 L
1416.009 588.649 L
1416.991 588.131 L
1417.974 587.612 L
1418.957 587.094 L
1419.939 586.575 L
1420.922 586.057 L
1421.905 585.538 L
1422.888 585.02 L
1423.87 584.501 L
1424.853 583.983 L
1425.836 583.464 L
1426.819 582.946 L
1427.802 582.427 L
1428.784 581.909 L
1429.767 581.39 L
1430.75 580.872 L
1431.733 580.353 L
1432.715 579.835 L
1433.698 579.316 L
1434.681 578.798 L
1435.664 578.279 L
1436.641 578.895 L
1437.618 579.511 L
1438.595 580.127 L
1439.572 580.743 L
1440.549 581.359 L
1441.526 581.975 L
1442.504 582.591 L
1443.481 583.207 L
1444.458 583.823 L
1445.435 584.439 L
1446.412 585.055 L
1447.39 585.671 L
1448.367 586.287 L
1449.344 586.903 L
1450.321 587.519 L
1451.298 588.135 L
1452.275 588.75 L
1453.253 589.366 L
1454.23 589.982 L
1455.207 590.598 L
1456.184 591.214 L
1457.161 591.83 L
1458.138 592.446 L
1459.115 593.062 L
1460.093 593.678 L
1461.07 594.294 L
1462.047 594.91 L
1463.024 595.526 L
1464.001 596.142 L
1464.978 596.758 L
1465.956 597.374 L
1466.933 597.99 L
1467.91 598.606 L
1468.887 599.221 L
1469.864 599.837 L
1470.841 600.453 L
1471.819 601.069 L
1472.796 601.685 L
1473.773 602.301 L
1474.75 602.917 L
1475.727 603.533 L
1476.704 604.149 L
1477.682 604.765 L
1478.659 605.381 L
1479.636 605.997 L
1480.613 606.613 L
1481.59 607.229 L
1482.567 607.845 L
1483.545 608.461 L
1484.522 609.077 L
1485.499 609.693 L
1486.476 610.309 L
1487.453 610.924 L
1488.43 611.54 L
1489.407 612.156 L
1490.385 612.772 L
1491.362 613.388 L
1492.339 614.004 L
1493.316 614.62 L
1494.293 615.236 L
1495.271 615.852 L
1496.248 616.468 L
1497.225 617.084 L
1498.202 617.7 L
1499.179 618.316 L
1500.156 618.932 L
1501.134 619.548 L
1502.111 620.164 L
1503.088 620.78 L
1504.065 621.396 L
1505.042 622.011 L
1506.019 622.627 L
1506.996 623.243 L
1507.974 623.859 L
1508.951 624.475 L
1509.928 625.091 L
1510.905 625.707 L
1511.882 626.323 L
1512.859 626.939 L
1513.837 627.555 L
1514.814 628.171 L
1515.791 628.787 L
1516.768 629.403 L
1517.745 630.019 L
1518.723 630.635 L
1519.7 631.251 L
1520.677 631.867 L
1521.654 632.482 L
1522.631 633.098 L
1523.608 633.714 L
1524.585 634.33 L
1525.563 634.946 L
1526.54 635.562 L
1527.517 636.178 L
1528.494 636.794 L
1529.471 637.41 L
1530.448 638.026 L
1531.426 638.642 L
1532.403 639.258 L
1533.38 639.874 L
1534.357 640.49 L
1535.334 641.106 L
1536.311 641.722 L
1537.289 642.338 L
1538.266 642.954 L
1539.243 643.57 L
1540.22 644.185 L
1541.197 644.801 L
1542.174 645.417 L
1543.152 646.033 L
1544.129 646.649 L
1545.106 647.265 L
1546.083 647.881 L
1547.06 648.497 L
1548.037 649.113 L
1549.015 649.729 L
1549.992 650.345 L
1550.969 650.961 L
1551.946 651.577 L
1552.923 652.193 L
1553.9 652.809 L
1554.877 653.425 L
1555.855 654.041 L
1556.832 654.656 L
1557.809 655.272 L
1558.786 655.888 L
1559.763 656.504 L
1560.74 657.12 L
1561.718 657.736 L
1562.695 658.352 L
1563.672 658.968 L
1564.649 659.584 L
1565.626 660.2 L
1565.626 660.2 L
1629.131 660.2 L
S
GR
GS
[0.75 0 0 0.75 0 -0.25] CT
1 GC
N
1712 615 M
1712 540 L
1593 540 L
1593 615 L
cp
f
GR
GS
[0.75 0 0 0.75 1230 416] CT
/Helvetica 12 F
GS
[1 0 0 1 0 0] CT
0 0 moveto 
1 -1 scale
(s-) t 
GR
GR
GS
[0.75 0 0 0.75 1237.5 416] CT
N
2.859 2.344 M
3.422 0.109 L
2.906 0.109 2.414 -0.086 QT
1.922 -0.281 1.617 -0.664 QT
1.313 -1.047 1.313 -1.594 QT
1.313 -1.906 1.43 -2.305 QT
1.547 -2.703 1.672 -3.039 QT
1.797 -3.375 2 -3.922 QT
2.156 -4.359 2.156 -4.641 QT
2.156 -5 1.906 -5 QT
1.422 -5 1.117 -4.508 QT
0.813 -4.016 0.656 -3.406 QT
0.641 -3.328 0.563 -3.328 QT
0.422 -3.328 L
0.328 -3.328 0.328 -3.453 QT
0.328 -3.484 L
0.516 -4.203 0.914 -4.75 QT
1.313 -5.297 1.922 -5.297 QT
2.344 -5.297 2.641 -5.016 QT
2.938 -4.734 2.938 -4.313 QT
2.938 -4.078 2.844 -3.844 QT
2.625 -3.297 2.508 -2.977 QT
2.391 -2.656 2.273 -2.242 QT
2.156 -1.828 2.156 -1.516 QT
2.156 -0.922 2.523 -0.602 QT
2.891 -0.281 3.5 -0.203 QT
5.516 -8.25 L
5.531 -8.328 5.609 -8.328 QT
5.75 -8.328 L
5.844 -8.328 5.844 -8.203 QT
3.844 -0.188 L
3.969 -0.188 L
4.484 -0.188 5.039 -0.484 QT
5.594 -0.781 6.055 -1.266 QT
6.516 -1.75 6.789 -2.313 QT
7.063 -2.875 7.063 -3.359 QT
7.063 -3.719 6.945 -3.922 QT
6.828 -4.125 6.641 -4.344 QT
6.453 -4.563 6.453 -4.688 QT
6.453 -4.922 6.641 -5.117 QT
6.828 -5.313 7.063 -5.313 QT
7.359 -5.313 7.484 -5.047 QT
7.609 -4.781 7.609 -4.453 QT
7.609 -4.109 7.539 -3.758 QT
7.469 -3.406 7.344 -2.922 QT
7.063 -1.828 6.188 -0.953 QT
5.891 -0.656 5.531 -0.406 QT
5.172 -0.156 4.773 -0.008 QT
4.375 0.141 3.969 0.141 QT
3.766 0.141 L
3.203 2.391 L
3.188 2.469 3.109 2.469 QT
2.969 2.469 L
2.922 2.469 2.891 2.43 QT
2.859 2.391 2.859 2.344 QT
cp
f
GR
GS
[0.75 0 0 0.75 1243.5 416] CT
/Helvetica 12 F
GS
[1 0 0 1 0 0] CT
0 0 moveto 
1 -1 scale
( [rad]) t 
GR
GR
GS
[0.75 0 0 0.75 1212.75 412.20033] CT
1 0 0 RC
10.0 ML
N
4 0 M
4 -2.209 2.209 -4 0 -4 C
-2.209 -4 -4 -2.209 -4 0 C
-4 2.209 -2.209 4 0 4 C
2.209 4 4 2.209 4 0 C
cp
S
GR
GS
[0.75 0 0 0.75 1230 431] CT
/Helvetica 12 F
GS
[1 0 0 1 0 0] CT
0 0 moveto 
1 -1 scale
(s-) t 
GR
GR
GS
[0.75 0 0 0.75 1237.5 431] CT
N
0.641 -0.203 M
0.641 -0.281 0.656 -0.313 QT
1.797 -4.922 L
1.844 -5.094 1.984 -5.195 QT
2.125 -5.297 2.297 -5.297 QT
2.453 -5.297 2.563 -5.211 QT
2.672 -5.125 2.672 -4.969 QT
2.672 -4.938 2.664 -4.914 QT
2.656 -4.891 2.656 -4.875 QT
2.219 -3.141 L
2.703 -3.297 3.5 -3.961 QT
4.297 -4.625 4.703 -4.898 QT
5.109 -5.172 5.703 -5.172 QT
5.891 -5.172 6.023 -5.055 QT
6.156 -4.938 6.156 -4.734 QT
6.156 -4.453 5.953 -4.258 QT
5.75 -4.063 5.469 -4.063 QT
5.281 -4.063 5.148 -4.188 QT
5.016 -4.313 5.016 -4.5 QT
5.016 -4.641 5.063 -4.734 QT
4.781 -4.609 4.477 -4.398 QT
4.172 -4.188 3.93 -3.977 QT
3.688 -3.766 3.336 -3.477 QT
2.984 -3.188 2.719 -3.031 QT
3.203 -3.031 3.719 -2.93 QT
4.234 -2.828 4.617 -2.547 QT
5 -2.266 5 -1.781 QT
5 -1.578 4.953 -1.438 QT
4.828 -0.969 4.828 -0.719 QT
4.828 -0.188 5.203 -0.188 QT
5.641 -0.188 5.867 -0.656 QT
6.094 -1.125 6.234 -1.766 QT
6.266 -1.828 6.328 -1.828 QT
6.484 -1.828 L
6.531 -1.828 6.563 -1.797 QT
6.594 -1.766 6.594 -1.734 QT
6.594 -1.719 6.578 -1.688 QT
6.141 0.141 5.188 0.141 QT
4.844 0.141 4.586 -0.023 QT
4.328 -0.188 4.188 -0.461 QT
4.047 -0.734 4.047 -1.063 QT
4.047 -1.281 4.094 -1.469 QT
4.125 -1.625 4.125 -1.734 QT
4.125 -2.125 3.789 -2.352 QT
3.453 -2.578 2.984 -2.656 QT
2.516 -2.734 2.109 -2.734 QT
1.5 -0.266 L
1.453 -0.094 1.313 0.023 QT
1.172 0.141 1 0.141 QT
0.844 0.141 0.742 0.047 QT
0.641 -0.047 0.641 -0.203 QT
cp
f
GR
GS
[0.75 0 0 0.75 1242.75 431] CT
/Helvetica 12 F
GS
[1 0 0 1 0 0] CT
0 0 moveto 
1 -1 scale
( [rad.m) t 
GR
GR
GS
[0.75 0 0 0.75 1271.25 426.5] CT
/Helvetica 9.6 F
GS
[1 0 0 1 0 0] CT
0 0 moveto 
1 -1 scale
(-1) t 
GR
GR
GS
[0.75 0 0 0.75 1278 431] CT
/Helvetica 12 F
GS
[1 0 0 1 0 0] CT
0 0 moveto 
1 -1 scale
(]) t 
GR
GR
GS
[0.75 0 0 0.75 1212.75 425.61093] CT
0 1 0 RC
10.0 ML
N
4 0 M
4 -2.209 2.209 -4 0 -4 C
-2.209 -4 -4 -2.209 -4 0 C
-4 2.209 -2.209 4 0 4 C
2.209 4 4 2.209 4 0 C
cp
S
GR
GS
[0.75 0 0 0.75 1230 443] CT
/Helvetica 12 F
GS
[1 0 0 1 0 0] CT
0 0 moveto 
1 -1 scale
(s-) t 
GR
GR
GS
[0.75 0 0 0.75 1237.5 443] CT
N
/f-1827787501{2.859 2.344 M
3.422 0.109 L
2.906 0.109 2.414 -0.086 QT
1.922 -0.281 1.617 -0.664 QT
1.313 -1.047 1.313 -1.594 QT
1.313 -1.906 1.43 -2.305 QT
1.547 -2.703 1.672 -3.039 QT
1.797 -3.375 2 -3.922 QT
2.156 -4.359 2.156 -4.641 QT
2.156 -5 1.906 -5 QT
1.422 -5 1.117 -4.508 QT
0.813 -4.016 0.656 -3.406 QT
0.641 -3.328 0.563 -3.328 QT
0.422 -3.328 L
0.328 -3.328 0.328 -3.453 QT
0.328 -3.484 L
0.516 -4.203 0.914 -4.75 QT
1.313 -5.297 1.922 -5.297 QT
2.344 -5.297 2.641 -5.016 QT
2.938 -4.734 2.938 -4.313 QT
2.938 -4.078 2.844 -3.844 QT
2.625 -3.297 2.508 -2.977 QT
2.391 -2.656 2.273 -2.242 QT
2.156 -1.828 2.156 -1.516 QT
2.156 -0.922 2.523 -0.602 QT
2.891 -0.281 3.5 -0.203 QT
5.516 -8.25 L
5.531 -8.328 5.609 -8.328 QT
5.75 -8.328 L
5.844 -8.328 5.844 -8.203 QT
3.844 -0.188 L
3.969 -0.188 L
4.484 -0.188 5.039 -0.484 QT
5.594 -0.781 6.055 -1.266 QT
6.516 -1.75 6.789 -2.313 QT
7.063 -2.875 7.063 -3.359 QT
7.063 -3.719 6.945 -3.922 QT
6.828 -4.125 6.641 -4.344 QT
6.453 -4.563 6.453 -4.688 QT
6.453 -4.922 6.641 -5.117 QT
6.828 -5.313 7.063 -5.313 QT
7.359 -5.313 7.484 -5.047 QT
7.609 -4.781 7.609 -4.453 QT
7.609 -4.109 7.539 -3.758 QT
7.469 -3.406 7.344 -2.922 QT
7.063 -1.828 6.188 -0.953 QT
5.891 -0.656 5.531 -0.406 QT
5.172 -0.156 4.773 -0.008 QT
4.375 0.141 3.969 0.141 QT
3.766 0.141 L
3.203 2.391 L
3.188 2.469 3.109 2.469 QT
2.969 2.469 L
2.922 2.469 2.891 2.43 QT
2.859 2.391 2.859 2.344 QT
cp}def
f-1827787501
f
GR
GS
[0.75 0 0 0.75 1243.5 443] CT
/Helvetica 12 F
GS
[1 0 0 1 0 0] CT
0 0 moveto 
1 -1 scale
( [rad]) t 
GR
GR
GS
[0.75 0 0 0.75 1212.75 439.02153] CT
1 0 0 RC
10.0 ML
N
4 0 M
4 -2.209 2.209 -4 0 -4 C
-2.209 -4 -4 -2.209 -4 0 C
-4 2.209 -2.209 4 0 4 C
2.209 4 4 2.209 4 0 C
cp
S
GR
GS
[0.75 0 0 0.75 1230 458] CT
/Helvetica 12 F
GS
[1 0 0 1 0 0] CT
0 0 moveto 
1 -1 scale
(s-) t 
GR
GR
GS
[0.75 0 0 0.75 1237.5 458] CT
N
/f1404424740{0.641 -0.203 M
0.641 -0.281 0.656 -0.313 QT
1.797 -4.922 L
1.844 -5.094 1.984 -5.195 QT
2.125 -5.297 2.297 -5.297 QT
2.453 -5.297 2.563 -5.211 QT
2.672 -5.125 2.672 -4.969 QT
2.672 -4.938 2.664 -4.914 QT
2.656 -4.891 2.656 -4.875 QT
2.219 -3.141 L
2.703 -3.297 3.5 -3.961 QT
4.297 -4.625 4.703 -4.898 QT
5.109 -5.172 5.703 -5.172 QT
5.891 -5.172 6.023 -5.055 QT
6.156 -4.938 6.156 -4.734 QT
6.156 -4.453 5.953 -4.258 QT
5.75 -4.063 5.469 -4.063 QT
5.281 -4.063 5.148 -4.188 QT
5.016 -4.313 5.016 -4.5 QT
5.016 -4.641 5.063 -4.734 QT
4.781 -4.609 4.477 -4.398 QT
4.172 -4.188 3.93 -3.977 QT
3.688 -3.766 3.336 -3.477 QT
2.984 -3.188 2.719 -3.031 QT
3.203 -3.031 3.719 -2.93 QT
4.234 -2.828 4.617 -2.547 QT
5 -2.266 5 -1.781 QT
5 -1.578 4.953 -1.438 QT
4.828 -0.969 4.828 -0.719 QT
4.828 -0.188 5.203 -0.188 QT
5.641 -0.188 5.867 -0.656 QT
6.094 -1.125 6.234 -1.766 QT
6.266 -1.828 6.328 -1.828 QT
6.484 -1.828 L
6.531 -1.828 6.563 -1.797 QT
6.594 -1.766 6.594 -1.734 QT
6.594 -1.719 6.578 -1.688 QT
6.141 0.141 5.188 0.141 QT
4.844 0.141 4.586 -0.023 QT
4.328 -0.188 4.188 -0.461 QT
4.047 -0.734 4.047 -1.063 QT
4.047 -1.281 4.094 -1.469 QT
4.125 -1.625 4.125 -1.734 QT
4.125 -2.125 3.789 -2.352 QT
3.453 -2.578 2.984 -2.656 QT
2.516 -2.734 2.109 -2.734 QT
1.5 -0.266 L
1.453 -0.094 1.313 0.023 QT
1.172 0.141 1 0.141 QT
0.844 0.141 0.742 0.047 QT
0.641 -0.047 0.641 -0.203 QT
cp}def
f1404424740
f
GR
GS
[0.75 0 0 0.75 1242.75 458] CT
/Helvetica 12 F
GS
[1 0 0 1 0 0] CT
0 0 moveto 
1 -1 scale
( [rad.m) t 
GR
GR
GS
[0.75 0 0 0.75 1271.25 453.5] CT
/Helvetica 9.6 F
GS
[1 0 0 1 0 0] CT
0 0 moveto 
1 -1 scale
(-1) t 
GR
GR
GS
[0.75 0 0 0.75 1278 458] CT
/Helvetica 12 F
GS
[1 0 0 1 0 0] CT
0 0 moveto 
1 -1 scale
(]) t 
GR
GR
GS
[0.75 0 0 0.75 1212.75 452.43213] CT
0 1 0 RC
10.0 ML
N
4 0 M
4 -2.209 2.209 -4 0 -4 C
-2.209 -4 -4 -2.209 -4 0 C
-4 2.209 -2.209 4 0 4 C
2.209 4 4 2.209 4 0 C
cp
S
GR
GS
[0.75 0 0 0.75 0 -0.25] CT
0.149 GC
10.0 ML
0.667 LW
N
1593 615 M
1593 540 L
1712 540 L
1712 615 L
cp
S
GR
%%Trailer
%%Pages: 1
%%EOF
