%!PS-Adobe-3.0 EPSF-3.0
%%Creator: (MATLAB, The Mathworks, Inc. Version 9.5.0.944444 \(R2018b\). Operating System: Windows 10)
%%Title: C:/Users/Ed/git_clones/clothoid-composition-method/Exploration/convex_constraints/w0.001.eps
%%CreationDate: 2019-11-26T18:01:56
%%Pages: (atend)
%%BoundingBox: 0 0 420 315
%%LanguageLevel: 3
%%EndComments
%%BeginProlog
%%BeginResource: procset (Apache XML Graphics Std ProcSet) 1.2 0
%%Version: 1.2 0
%%Copyright: (Copyright 2001-2003,2010 The Apache Software Foundation. License terms: http://www.apache.org/licenses/LICENSE-2.0)
/bd{bind def}bind def
/ld{load def}bd
/GR/grestore ld
/GS/gsave ld
/RM/rmoveto ld
/C/curveto ld
/t/show ld
/L/lineto ld
/ML/setmiterlimit ld
/CT/concat ld
/f/fill ld
/N/newpath ld
/S/stroke ld
/CC/setcmykcolor ld
/A/ashow ld
/cp/closepath ld
/RC/setrgbcolor ld
/LJ/setlinejoin ld
/GC/setgray ld
/LW/setlinewidth ld
/M/moveto ld
/re {4 2 roll M
1 index 0 rlineto
0 exch rlineto
neg 0 rlineto
cp } bd
/_ctm matrix def
/_tm matrix def
/BT { _ctm currentmatrix pop matrix _tm copy pop 0 0 moveto } bd
/ET { _ctm setmatrix } bd
/iTm { _ctm setmatrix _tm concat } bd
/Tm { _tm astore pop iTm 0 0 moveto } bd
/ux 0.0 def
/uy 0.0 def
/F {
  /Tp exch def
  /Tf exch def
  Tf findfont Tp scalefont setfont
  /cf Tf def  /cs Tp def
} bd
/ULS {currentpoint /uy exch def /ux exch def} bd
/ULE {
  /Tcx currentpoint pop def
  gsave
  newpath
  cf findfont cs scalefont dup
  /FontMatrix get 0 get /Ts exch def /FontInfo get dup
  /UnderlinePosition get Ts mul /To exch def
  /UnderlineThickness get Ts mul /Tt exch def
  ux uy To add moveto  Tcx uy To add lineto
  Tt setlinewidth stroke
  grestore
} bd
/OLE {
  /Tcx currentpoint pop def
  gsave
  newpath
  cf findfont cs scalefont dup
  /FontMatrix get 0 get /Ts exch def /FontInfo get dup
  /UnderlinePosition get Ts mul /To exch def
  /UnderlineThickness get Ts mul /Tt exch def
  ux uy To add cs add moveto Tcx uy To add cs add lineto
  Tt setlinewidth stroke
  grestore
} bd
/SOE {
  /Tcx currentpoint pop def
  gsave
  newpath
  cf findfont cs scalefont dup
  /FontMatrix get 0 get /Ts exch def /FontInfo get dup
  /UnderlinePosition get Ts mul /To exch def
  /UnderlineThickness get Ts mul /Tt exch def
  ux uy To add cs 10 mul 26 idiv add moveto Tcx uy To add cs 10 mul 26 idiv add lineto
  Tt setlinewidth stroke
  grestore
} bd
/QT {
/Y22 exch store
/X22 exch store
/Y21 exch store
/X21 exch store
currentpoint
/Y21 load 2 mul add 3 div exch
/X21 load 2 mul add 3 div exch
/X21 load 2 mul /X22 load add 3 div
/Y21 load 2 mul /Y22 load add 3 div
/X22 load /Y22 load curveto
} bd
/SSPD {
dup length /d exch dict def
{
/v exch def
/k exch def
currentpagedevice k known {
/cpdv currentpagedevice k get def
v cpdv ne {
/upd false def
/nullv v type /nulltype eq def
/nullcpdv cpdv type /nulltype eq def
nullv nullcpdv or
{
/upd true def
} {
/sametype v type cpdv type eq def
sametype {
v type /arraytype eq {
/vlen v length def
/cpdvlen cpdv length def
vlen cpdvlen eq {
0 1 vlen 1 sub {
/i exch def
/obj v i get def
/cpdobj cpdv i get def
obj cpdobj ne {
/upd true def
exit
} if
} for
} {
/upd true def
} ifelse
} {
v type /dicttype eq {
v {
/dv exch def
/dk exch def
/cpddv cpdv dk get def
dv cpddv ne {
/upd true def
exit
} if
} forall
} {
/upd true def
} ifelse
} ifelse
} if
} ifelse
upd true eq {
d k v put
} if
} if
} if
} forall
d length 0 gt {
d setpagedevice
} if
} bd
/RE { % /NewFontName [NewEncodingArray] /FontName RE -
  findfont dup length dict begin
  {
    1 index /FID ne
    {def} {pop pop} ifelse
  } forall
  /Encoding exch def
  /FontName 1 index def
  currentdict definefont pop
  end
} bind def
%%EndResource
%%BeginResource: procset (Apache XML Graphics EPS ProcSet) 1.0 0
%%Version: 1.0 0
%%Copyright: (Copyright 2002-2003 The Apache Software Foundation. License terms: http://www.apache.org/licenses/LICENSE-2.0)
/BeginEPSF { %def
/b4_Inc_state save def         % Save state for cleanup
/dict_count countdictstack def % Count objects on dict stack
/op_count count 1 sub def      % Count objects on operand stack
userdict begin                 % Push userdict on dict stack
/showpage { } def              % Redefine showpage, { } = null proc
0 setgray 0 setlinecap         % Prepare graphics state
1 setlinewidth 0 setlinejoin
10 setmiterlimit [ ] 0 setdash newpath
/languagelevel where           % If level not equal to 1 then
{pop languagelevel             % set strokeadjust and
1 ne                           % overprint to their defaults.
{false setstrokeadjust false setoverprint
} if
} if
} bd
/EndEPSF { %def
count op_count sub {pop} repeat            % Clean up stacks
countdictstack dict_count sub {end} repeat
b4_Inc_state restore
} bd
%%EndResource
%FOPBeginFontDict
%%IncludeResource: font Courier-Oblique
%%IncludeResource: font Courier-BoldOblique
%%IncludeResource: font Courier-Bold
%%IncludeResource: font ZapfDingbats
%%IncludeResource: font Symbol
%%IncludeResource: font Helvetica
%%IncludeResource: font Helvetica-Oblique
%%IncludeResource: font Helvetica-Bold
%%IncludeResource: font Helvetica-BoldOblique
%%IncludeResource: font Times-Roman
%%IncludeResource: font Times-Italic
%%IncludeResource: font Times-Bold
%%IncludeResource: font Times-BoldItalic
%%IncludeResource: font Courier
%FOPEndFontDict
%%BeginResource: encoding WinAnsiEncoding
/WinAnsiEncoding [
/.notdef /.notdef /.notdef /.notdef /.notdef
/.notdef /.notdef /.notdef /.notdef /.notdef
/.notdef /.notdef /.notdef /.notdef /.notdef
/.notdef /.notdef /.notdef /.notdef /.notdef
/.notdef /.notdef /.notdef /.notdef /.notdef
/.notdef /.notdef /.notdef /.notdef /.notdef
/.notdef /.notdef /space /exclam /quotedbl
/numbersign /dollar /percent /ampersand /quotesingle
/parenleft /parenright /asterisk /plus /comma
/hyphen /period /slash /zero /one
/two /three /four /five /six
/seven /eight /nine /colon /semicolon
/less /equal /greater /question /at
/A /B /C /D /E
/F /G /H /I /J
/K /L /M /N /O
/P /Q /R /S /T
/U /V /W /X /Y
/Z /bracketleft /backslash /bracketright /asciicircum
/underscore /quoteleft /a /b /c
/d /e /f /g /h
/i /j /k /l /m
/n /o /p /q /r
/s /t /u /v /w
/x /y /z /braceleft /bar
/braceright /asciitilde /bullet /Euro /bullet
/quotesinglbase /florin /quotedblbase /ellipsis /dagger
/daggerdbl /circumflex /perthousand /Scaron /guilsinglleft
/OE /bullet /Zcaron /bullet /bullet
/quoteleft /quoteright /quotedblleft /quotedblright /bullet
/endash /emdash /asciitilde /trademark /scaron
/guilsinglright /oe /bullet /zcaron /Ydieresis
/space /exclamdown /cent /sterling /currency
/yen /brokenbar /section /dieresis /copyright
/ordfeminine /guillemotleft /logicalnot /sfthyphen /registered
/macron /degree /plusminus /twosuperior /threesuperior
/acute /mu /paragraph /middot /cedilla
/onesuperior /ordmasculine /guillemotright /onequarter /onehalf
/threequarters /questiondown /Agrave /Aacute /Acircumflex
/Atilde /Adieresis /Aring /AE /Ccedilla
/Egrave /Eacute /Ecircumflex /Edieresis /Igrave
/Iacute /Icircumflex /Idieresis /Eth /Ntilde
/Ograve /Oacute /Ocircumflex /Otilde /Odieresis
/multiply /Oslash /Ugrave /Uacute /Ucircumflex
/Udieresis /Yacute /Thorn /germandbls /agrave
/aacute /acircumflex /atilde /adieresis /aring
/ae /ccedilla /egrave /eacute /ecircumflex
/edieresis /igrave /iacute /icircumflex /idieresis
/eth /ntilde /ograve /oacute /ocircumflex
/otilde /odieresis /divide /oslash /ugrave
/uacute /ucircumflex /udieresis /yacute /thorn
/ydieresis
] def
%%EndResource
%FOPBeginFontReencode
/Courier-Oblique findfont
dup length dict begin
  {1 index /FID ne {def} {pop pop} ifelse} forall
  /Encoding WinAnsiEncoding def
  currentdict
end
/Courier-Oblique exch definefont pop
/Courier-BoldOblique findfont
dup length dict begin
  {1 index /FID ne {def} {pop pop} ifelse} forall
  /Encoding WinAnsiEncoding def
  currentdict
end
/Courier-BoldOblique exch definefont pop
/Courier-Bold findfont
dup length dict begin
  {1 index /FID ne {def} {pop pop} ifelse} forall
  /Encoding WinAnsiEncoding def
  currentdict
end
/Courier-Bold exch definefont pop
/Helvetica findfont
dup length dict begin
  {1 index /FID ne {def} {pop pop} ifelse} forall
  /Encoding WinAnsiEncoding def
  currentdict
end
/Helvetica exch definefont pop
/Helvetica-Oblique findfont
dup length dict begin
  {1 index /FID ne {def} {pop pop} ifelse} forall
  /Encoding WinAnsiEncoding def
  currentdict
end
/Helvetica-Oblique exch definefont pop
/Helvetica-Bold findfont
dup length dict begin
  {1 index /FID ne {def} {pop pop} ifelse} forall
  /Encoding WinAnsiEncoding def
  currentdict
end
/Helvetica-Bold exch definefont pop
/Helvetica-BoldOblique findfont
dup length dict begin
  {1 index /FID ne {def} {pop pop} ifelse} forall
  /Encoding WinAnsiEncoding def
  currentdict
end
/Helvetica-BoldOblique exch definefont pop
/Times-Roman findfont
dup length dict begin
  {1 index /FID ne {def} {pop pop} ifelse} forall
  /Encoding WinAnsiEncoding def
  currentdict
end
/Times-Roman exch definefont pop
/Times-Italic findfont
dup length dict begin
  {1 index /FID ne {def} {pop pop} ifelse} forall
  /Encoding WinAnsiEncoding def
  currentdict
end
/Times-Italic exch definefont pop
/Times-Bold findfont
dup length dict begin
  {1 index /FID ne {def} {pop pop} ifelse} forall
  /Encoding WinAnsiEncoding def
  currentdict
end
/Times-Bold exch definefont pop
/Times-BoldItalic findfont
dup length dict begin
  {1 index /FID ne {def} {pop pop} ifelse} forall
  /Encoding WinAnsiEncoding def
  currentdict
end
/Times-BoldItalic exch definefont pop
/Courier findfont
dup length dict begin
  {1 index /FID ne {def} {pop pop} ifelse} forall
  /Encoding WinAnsiEncoding def
  currentdict
end
/Courier exch definefont pop
%FOPEndFontReencode
%%EndProlog
%%Page: 1 1
%%PageBoundingBox: 0 0 420 315
%%BeginPageSetup
[1 0 0 -1 0 315] CT
%%EndPageSetup
GS
[0.75 0 0 0.75 0 0] CT
1 GC
N
0 0 560 420 re
f
GR
GS
[0.75 0 0 0.75 0 0] CT
1 GC
N
0 0 560 420 re
f
GR
GS
[0.75 0 0 0.75 0 0] CT
1 GC
N
74.951 173 M
505.049 173 L
505.049 31 L
74.951 31 L
cp
f
GR
GS
[0.75 0 0 0.75 0 0] CT
0.149 GC
2 setlinecap
1 LJ
0.667 LW
N
74.951 173 M
505.049 173 L
S
GR
GS
[0.75 0 0 0.75 0 0] CT
0.149 GC
2 setlinecap
1 LJ
0.667 LW
N
138.06 173 M
138.06 168.699 L
S
GR
GS
[0.75 0 0 0.75 0 0] CT
0.149 GC
2 setlinecap
1 LJ
0.667 LW
N
209.06 173 M
209.06 168.699 L
S
GR
GS
[0.75 0 0 0.75 0 0] CT
0.149 GC
2 setlinecap
1 LJ
0.667 LW
N
280.06 173 M
280.06 168.699 L
S
GR
GS
[0.75 0 0 0.75 0 0] CT
0.149 GC
2 setlinecap
1 LJ
0.667 LW
N
351.06 173 M
351.06 168.699 L
S
GR
GS
[0.75 0 0 0.75 0 0] CT
0.149 GC
2 setlinecap
1 LJ
0.667 LW
N
422.06 173 M
422.06 168.699 L
S
GR
GS
[0.75 0 0 0.75 0 0] CT
0.149 GC
2 setlinecap
1 LJ
0.667 LW
N
493.06 173 M
493.06 168.699 L
S
GR
GS
[0.75 0 0 0.75 103.545 132.55] CT
0.149 GC
/Helvetica 12 F
GS
[1 0 0 1 0 0] CT
-5.5 13 moveto 
1 -1 scale
(-5) t 
GR
GR
GS
[0.75 0 0 0.75 156.795 132.55] CT
0.149 GC
/Helvetica 12 F
GS
[1 0 0 1 0 0] CT
-3.5 13 moveto 
1 -1 scale
(0) t 
GR
GR
GS
[0.75 0 0 0.75 210.045 132.55] CT
0.149 GC
/Helvetica 12 F
GS
[1 0 0 1 0 0] CT
-3.5 13 moveto 
1 -1 scale
(5) t 
GR
GR
GS
[0.75 0 0 0.75 263.295 132.55] CT
0.149 GC
/Helvetica 12 F
GS
[1 0 0 1 0 0] CT
-7 13 moveto 
1 -1 scale
(10) t 
GR
GR
GS
[0.75 0 0 0.75 316.545 132.55] CT
0.149 GC
/Helvetica 12 F
GS
[1 0 0 1 0 0] CT
-7 13 moveto 
1 -1 scale
(15) t 
GR
GR
GS
[0.75 0 0 0.75 369.795 132.55] CT
0.149 GC
/Helvetica 12 F
GS
[1 0 0 1 0 0] CT
-7 13 moveto 
1 -1 scale
(20) t 
GR
GR
GS
[0.75 0 0 0.75 217.50016 145.05] CT
0.149 GC
/Helvetica 13.2 F
GS
[1 0 0 1 0 0] CT
-12.5 14 moveto 
1 -1 scale
(x[m]) t 
GR
GR
GS
[0.75 0 0 0.75 0 0] CT
0.149 GC
2 setlinecap
1 LJ
0.667 LW
N
74.951 173 M
74.951 31 L
S
GR
GS
[0.75 0 0 0.75 0 0] CT
0.149 GC
2 setlinecap
1 LJ
0.667 LW
N
74.951 173 M
79.252 173 L
S
GR
GS
[0.75 0 0 0.75 0 0] CT
0.149 GC
2 setlinecap
1 LJ
0.667 LW
N
74.951 102 M
79.252 102 L
S
GR
GS
[0.75 0 0 0.75 0 0] CT
0.149 GC
2 setlinecap
1 LJ
0.667 LW
N
74.951 31 M
79.252 31 L
S
GR
GS
[0.75 0 0 0.75 53.41336 129.75] CT
0.149 GC
/Helvetica 12 F
GS
[1 0 0 1 0 0] CT
-11 5 moveto 
1 -1 scale
(-5) t 
GR
GR
GS
[0.75 0 0 0.75 53.41336 76.5] CT
0.149 GC
/Helvetica 12 F
GS
[1 0 0 1 0 0] CT
-7 5 moveto 
1 -1 scale
(0) t 
GR
GR
GS
[0.75 0 0 0.75 53.41336 23.25] CT
0.149 GC
/Helvetica 12 F
GS
[1 0 0 1 0 0] CT
-7 5 moveto 
1 -1 scale
(5) t 
GR
GR
GS
[0 -0.75 0.75 0 43.16336 76.49995] CT
0.149 GC
/Helvetica 13.2 F
GS
[1 0 0 1 0 0] CT
-12.5 -3 moveto 
1 -1 scale
(y[m]) t 
GR
GR
GS
[0.75 0 0 0.75 159 19.5] CT
/Helvetica-Bold 13.2 F
GS
[1 0 0 1 0 0] CT
0 0 moveto 
1 -1 scale
(sharpness weight b=10) t 
GR
GR
GS
[0.75 0 0 0.75 268.5 15] CT
/Helvetica-Bold 10.56 F
GS
[1 0 0 1 0 0] CT
0 0 moveto 
1 -1 scale
(-3) t 
GR
GR
GS
[0.75 0 0 0.75 0 0] CT
0 0.447 0.741 RC
1 LJ
0.667 LW
N
209.06 173 M
280.06 173 L
280.06 31 L
209.06 31 L
209.06 173 L
S
GR
GS
[0.75 0 0 0.75 0 0] CT
0.851 0.325 0.098 RC
1 LJ
0.667 LW
N
209.06 66.5 M
365.26 66.5 L
365.26 31 L
209.06 31 L
209.06 66.5 L
S
GR
GS
[0.75 0 0 0.75 0 0] CT
0.929 0.694 0.125 RC
1 LJ
0.667 LW
N
294.26 173 M
365.26 173 L
365.26 31 L
294.26 31 L
294.26 173 L
S
GR
GS
[0.75 0 0 0.75 167.29926 76.5] CT
0 0 1 RC
10.0 ML
N
4 0 M
4 -2.209 2.209 -4 0 -4 C
-2.209 -4 -4 -2.209 -4 0 C
-4 2.209 -2.209 4 0 4 C
2.209 4 4 2.209 4 0 C
cp
S
GR
GS
[0.75 0 0 0.75 180.80134 74.66647] CT
0 0 1 RC
10.0 ML
N
4 0 M
4 -2.209 2.209 -4 0 -4 C
-2.209 -4 -4 -2.209 -4 0 C
-4 2.209 -2.209 4 0 4 C
2.209 4 4 2.209 4 0 C
cp
S
GR
GS
[0.75 0 0 0.75 192.86961 63.92525] CT
0 0 1 RC
10.0 ML
N
4 0 M
4 -2.209 2.209 -4 0 -4 C
-2.209 -4 -4 -2.209 -4 0 C
-4 2.209 -2.209 4 0 4 C
2.209 4 4 2.209 4 0 C
cp
S
GR
GS
[0.75 0 0 0.75 204.3035 49.875] CT
0 0 1 RC
10.0 ML
N
4 0 M
4 -2.209 2.209 -4 0 -4 C
-2.209 -4 -4 -2.209 -4 0 C
-4 2.209 -2.209 4 0 4 C
2.209 4 4 2.209 4 0 C
cp
S
GR
GS
[0.75 0 0 0.75 208.48842 44.73244] CT
0 0 1 RC
10.0 ML
N
4 0 M
4 -2.209 2.209 -4 0 -4 C
-2.209 -4 -4 -2.209 -4 0 C
-4 2.209 -2.209 4 0 4 C
2.209 4 4 2.209 4 0 C
cp
S
GR
GS
[0.75 0 0 0.75 215.37 40.08669] CT
0 0 1 RC
10.0 ML
N
4 0 M
4 -2.209 2.209 -4 0 -4 C
-2.209 -4 -4 -2.209 -4 0 C
-4 2.209 -2.209 4 0 4 C
2.209 4 4 2.209 4 0 C
cp
S
GR
GS
[0.75 0 0 0.75 222.25159 44.73244] CT
0 0 1 RC
10.0 ML
N
4 0 M
4 -2.209 2.209 -4 0 -4 C
-2.209 -4 -4 -2.209 -4 0 C
-4 2.209 -2.209 4 0 4 C
2.209 4 4 2.209 4 0 C
cp
S
GR
GS
[0.75 0 0 0.75 226.43651 49.875] CT
0 0 1 RC
10.0 ML
N
4 0 M
4 -2.209 2.209 -4 0 -4 C
-2.209 -4 -4 -2.209 -4 0 C
-4 2.209 -2.209 4 0 4 C
2.209 4 4 2.209 4 0 C
cp
S
GR
GS
[0.75 0 0 0.75 237.87037 63.92525] CT
0 0 1 RC
10.0 ML
N
4 0 M
4 -2.209 2.209 -4 0 -4 C
-2.209 -4 -4 -2.209 -4 0 C
-4 2.209 -2.209 4 0 4 C
2.209 4 4 2.209 4 0 C
cp
S
GR
GS
[0.75 0 0 0.75 249.93867 74.66647] CT
0 0 1 RC
10.0 ML
N
4 0 M
4 -2.209 2.209 -4 0 -4 C
-2.209 -4 -4 -2.209 -4 0 C
-4 2.209 -2.209 4 0 4 C
2.209 4 4 2.209 4 0 C
cp
S
GR
GS
[0.75 0 0 0.75 263.44075 76.5] CT
0 0 1 RC
10.0 ML
N
4 0 M
4 -2.209 2.209 -4 0 -4 C
-2.209 -4 -4 -2.209 -4 0 C
-4 2.209 -2.209 4 0 4 C
2.209 4 4 2.209 4 0 C
cp
S
GR
GS
[0.75 0 0 0.75 273.94501 76.5] CT
0 0 1 RC
10.0 ML
N
4 0 M
4 -2.209 2.209 -4 0 -4 C
-2.209 -4 -4 -2.209 -4 0 C
-4 2.209 -2.209 4 0 4 C
2.209 4 4 2.209 4 0 C
cp
S
GR
GS
[0.75 0 0 0.75 0 0] CT
0.494 0.184 0.557 RC
1 LJ
0.667 LW
N
209.06 102 M
223.066 102 L
223.066 102 L
223.208 102 L
223.349 102 L
223.491 102 L
223.633 102 L
223.775 102 L
223.917 102 L
224.059 102 L
224.201 101.999 L
224.343 101.999 L
224.484 101.999 L
224.626 101.998 L
224.768 101.998 L
224.91 101.997 L
225.052 101.996 L
225.194 101.996 L
225.336 101.995 L
225.477 101.994 L
225.619 101.993 L
225.761 101.991 L
225.903 101.99 L
226.045 101.989 L
226.187 101.987 L
226.329 101.985 L
226.471 101.983 L
226.612 101.981 L
226.754 101.979 L
226.896 101.976 L
227.038 101.973 L
227.18 101.97 L
227.322 101.967 L
227.463 101.964 L
227.605 101.96 L
227.747 101.957 L
227.889 101.953 L
228.031 101.948 L
228.172 101.944 L
228.314 101.939 L
228.456 101.934 L
228.598 101.929 L
228.74 101.923 L
228.881 101.918 L
229.023 101.912 L
229.165 101.905 L
229.307 101.898 L
229.448 101.891 L
229.59 101.884 L
229.732 101.877 L
229.873 101.869 L
230.015 101.86 L
230.156 101.852 L
230.298 101.843 L
230.44 101.833 L
230.581 101.824 L
230.723 101.814 L
230.864 101.803 L
231.006 101.792 L
231.147 101.781 L
231.288 101.769 L
231.43 101.757 L
231.571 101.745 L
231.712 101.732 L
231.854 101.719 L
231.995 101.705 L
232.136 101.691 L
232.277 101.676 L
232.418 101.661 L
232.559 101.646 L
232.7 101.63 L
232.841 101.614 L
232.982 101.597 L
233.123 101.579 L
233.264 101.561 L
233.404 101.543 L
233.545 101.524 L
233.685 101.505 L
233.826 101.485 L
233.966 101.464 L
234.107 101.444 L
234.247 101.422 L
234.387 101.4 L
234.527 101.377 L
234.667 101.354 L
234.807 101.331 L
234.947 101.306 L
235.086 101.281 L
235.226 101.256 L
235.365 101.23 L
235.505 101.203 L
235.644 101.176 L
235.783 101.148 L
235.922 101.12 L
236.061 101.091 L
236.2 101.061 L
236.338 101.031 L
236.477 101 L
236.615 100.968 L
236.753 100.936 L
236.891 100.903 L
237.029 100.87 L
237.167 100.835 L
237.304 100.801 L
237.442 100.765 L
237.579 100.729 L
237.716 100.692 L
237.852 100.654 L
237.989 100.616 L
238.125 100.577 L
238.262 100.537 L
238.398 100.496 L
238.533 100.455 L
238.669 100.413 L
238.804 100.37 L
238.939 100.327 L
239.074 100.283 L
239.209 100.238 L
239.343 100.192 L
239.477 100.146 L
239.611 100.099 L
239.744 100.051 L
239.877 100.002 L
240.01 99.952 L
240.143 99.902 L
240.275 99.851 L
240.407 99.799 L
240.539 99.746 L
240.671 99.693 L
240.802 99.638 L
240.932 99.583 L
241.063 99.527 L
241.192 99.471 L
241.321 99.413 L
241.45 99.355 L
241.579 99.296 L
241.707 99.236 L
241.834 99.176 L
241.962 99.115 L
242.089 99.053 L
242.215 98.99 L
242.342 98.926 L
242.468 98.862 L
242.593 98.797 L
242.718 98.732 L
242.843 98.665 L
242.967 98.598 L
243.091 98.53 L
243.215 98.462 L
243.338 98.392 L
243.461 98.323 L
243.584 98.252 L
243.706 98.181 L
243.827 98.109 L
243.949 98.036 L
244.07 97.963 L
244.19 97.889 L
244.31 97.815 L
244.43 97.74 L
244.549 97.664 L
244.668 97.588 L
244.787 97.511 L
244.905 97.434 L
245.023 97.356 L
245.141 97.277 L
245.258 97.198 L
245.374 97.118 L
245.491 97.038 L
245.606 96.957 L
245.722 96.875 L
245.837 96.793 L
245.952 96.711 L
246.066 96.628 L
246.18 96.544 L
246.294 96.46 L
246.407 96.376 L
246.52 96.291 L
246.632 96.205 L
246.744 96.119 L
246.856 96.032 L
246.967 95.945 L
247.078 95.858 L
247.189 95.77 L
247.299 95.681 L
247.409 95.592 L
247.519 95.503 L
247.628 95.413 L
247.737 95.323 L
247.845 95.232 L
247.953 95.141 L
248.061 95.05 L
248.168 94.958 L
248.275 94.866 L
248.382 94.773 L
248.488 94.68 L
248.594 94.586 L
248.7 94.492 L
248.805 94.398 L
248.91 94.303 L
249.015 94.208 L
249.119 94.113 L
249.223 94.017 L
249.327 93.921 L
249.43 93.825 L
249.533 93.728 L
249.636 93.631 L
249.738 93.533 L
249.84 93.436 L
249.942 93.337 L
250.043 93.239 L
250.144 93.14 L
250.245 93.041 L
250.346 92.942 L
250.446 92.842 L
250.546 92.742 L
250.646 92.642 L
250.745 92.542 L
250.844 92.441 L
250.943 92.34 L
251.041 92.239 L
251.14 92.137 L
251.238 92.035 L
251.335 91.933 L
251.433 91.831 L
251.53 91.728 L
251.627 91.625 L
251.724 91.522 L
251.82 91.419 L
251.917 91.316 L
252.013 91.212 L
252.108 91.108 L
252.204 91.004 L
252.299 90.899 L
252.394 90.795 L
252.489 90.69 L
252.584 90.585 L
252.678 90.48 L
252.773 90.375 L
252.867 90.269 L
252.961 90.164 L
253.054 90.058 L
253.148 89.952 L
253.241 89.845 L
253.334 89.739 L
253.427 89.633 L
253.52 89.526 L
253.612 89.419 L
253.705 89.312 L
253.797 89.205 L
253.889 89.098 L
253.981 88.991 L
254.073 88.883 L
254.164 88.775 L
254.256 88.668 L
254.347 88.56 L
254.438 88.452 L
254.529 88.344 L
254.62 88.236 L
254.711 88.127 L
254.802 88.019 L
254.892 87.91 L
254.983 87.802 L
255.073 87.693 L
255.163 87.584 L
255.254 87.476 L
255.344 87.367 L
255.434 87.258 L
255.524 87.149 L
255.614 87.04 L
255.703 86.93 L
255.793 86.821 L
255.883 86.712 L
255.972 86.603 L
256.062 86.493 L
256.151 86.384 L
256.241 86.274 L
256.33 86.165 L
256.419 86.055 L
256.509 85.946 L
256.598 85.836 L
256.687 85.727 L
256.777 85.617 L
256.866 85.508 L
256.955 85.398 L
257.044 85.288 L
257.133 85.179 L
257.133 85.179 L
272.379 66.445 L
277.958 59.588 L
277.958 59.588 L
278.048 59.479 L
278.137 59.369 L
278.227 59.259 L
278.316 59.149 L
278.406 59.04 L
278.496 58.931 L
278.586 58.821 L
278.676 58.712 L
278.767 58.604 L
278.858 58.495 L
278.949 58.387 L
279.04 58.279 L
279.132 58.171 L
279.224 58.063 L
279.317 57.956 L
279.41 57.85 L
279.504 57.744 L
279.598 57.638 L
279.693 57.532 L
279.788 57.428 L
279.883 57.323 L
279.98 57.22 L
280.077 57.116 L
280.174 57.014 L
280.273 56.912 L
280.372 56.811 L
280.471 56.71 L
280.572 56.611 L
280.673 56.512 L
280.775 56.414 L
280.878 56.316 L
280.982 56.22 L
281.086 56.124 L
281.192 56.03 L
281.298 55.936 L
281.405 55.844 L
281.513 55.752 L
281.622 55.662 L
281.732 55.573 L
281.843 55.485 L
281.955 55.398 L
282.067 55.312 L
282.181 55.228 L
282.296 55.145 L
282.412 55.064 L
282.528 54.983 L
282.646 54.905 L
282.765 54.828 L
282.885 54.752 L
283.005 54.678 L
283.127 54.606 L
283.25 54.535 L
283.373 54.467 L
283.498 54.4 L
283.624 54.334 L
283.75 54.271 L
283.878 54.21 L
284.007 54.15 L
284.136 54.093 L
284.266 54.038 L
284.398 53.985 L
284.53 53.934 L
284.663 53.885 L
284.797 53.839 L
284.931 53.795 L
285.066 53.753 L
285.202 53.714 L
285.339 53.678 L
285.477 53.643 L
285.615 53.612 L
285.753 53.583 L
285.892 53.557 L
286.032 53.533 L
286.172 53.512 L
286.312 53.495 L
286.453 53.48 L
286.594 53.468 L
286.735 53.458 L
286.877 53.452 L
287.018 53.449 L
287.16 53.449 L
287.302 53.452 L
287.443 53.458 L
287.584 53.468 L
287.725 53.48 L
287.866 53.495 L
288.007 53.512 L
288.147 53.533 L
288.286 53.557 L
288.425 53.583 L
288.564 53.612 L
288.702 53.643 L
288.839 53.678 L
288.976 53.714 L
289.112 53.753 L
289.247 53.795 L
289.382 53.839 L
289.516 53.885 L
289.649 53.934 L
289.781 53.985 L
289.912 54.038 L
290.042 54.093 L
290.172 54.15 L
290.3 54.21 L
290.428 54.271 L
290.555 54.334 L
290.68 54.4 L
290.805 54.467 L
290.929 54.535 L
291.051 54.606 L
291.173 54.678 L
291.294 54.752 L
291.414 54.828 L
291.532 54.905 L
291.65 54.983 L
291.767 55.064 L
291.883 55.145 L
291.997 55.228 L
292.111 55.312 L
292.224 55.398 L
292.336 55.485 L
292.447 55.573 L
292.556 55.662 L
292.665 55.752 L
292.773 55.844 L
292.881 55.936 L
292.987 56.03 L
293.092 56.124 L
293.197 56.22 L
293.3 56.316 L
293.403 56.414 L
293.505 56.512 L
293.607 56.611 L
293.707 56.71 L
293.807 56.811 L
293.906 56.912 L
294.004 57.014 L
294.102 57.116 L
294.199 57.22 L
294.295 57.323 L
294.391 57.428 L
294.486 57.532 L
294.581 57.638 L
294.675 57.744 L
294.768 57.85 L
294.861 57.956 L
294.954 58.063 L
295.046 58.171 L
295.138 58.279 L
295.23 58.387 L
295.321 58.495 L
295.412 58.604 L
295.502 58.712 L
295.592 58.821 L
295.683 58.931 L
295.772 59.04 L
295.862 59.149 L
295.952 59.259 L
296.041 59.369 L
296.131 59.479 L
296.22 59.588 L
296.309 59.698 L
296.309 59.698 L
301.889 66.555 L
317.134 85.289 L
317.134 85.289 L
317.224 85.398 L
317.313 85.508 L
317.402 85.617 L
317.491 85.727 L
317.581 85.837 L
317.67 85.946 L
317.759 86.056 L
317.849 86.165 L
317.938 86.275 L
318.027 86.384 L
318.117 86.493 L
318.206 86.603 L
318.296 86.712 L
318.386 86.821 L
318.475 86.931 L
318.565 87.04 L
318.655 87.149 L
318.745 87.258 L
318.835 87.367 L
318.925 87.476 L
319.015 87.585 L
319.105 87.693 L
319.196 87.802 L
319.286 87.911 L
319.377 88.019 L
319.468 88.127 L
319.558 88.236 L
319.649 88.344 L
319.74 88.452 L
319.832 88.56 L
319.923 88.668 L
320.014 88.776 L
320.106 88.883 L
320.198 88.991 L
320.29 89.098 L
320.382 89.205 L
320.474 89.312 L
320.566 89.419 L
320.659 89.526 L
320.752 89.633 L
320.845 89.739 L
320.938 89.846 L
321.031 89.952 L
321.124 90.058 L
321.218 90.164 L
321.312 90.269 L
321.406 90.375 L
321.5 90.48 L
321.595 90.585 L
321.689 90.69 L
321.784 90.795 L
321.879 90.9 L
321.975 91.004 L
322.07 91.108 L
322.166 91.212 L
322.262 91.316 L
322.358 91.419 L
322.455 91.523 L
322.551 91.626 L
322.648 91.728 L
322.746 91.831 L
322.843 91.933 L
322.941 92.035 L
323.039 92.137 L
323.137 92.239 L
323.236 92.34 L
323.335 92.441 L
323.434 92.542 L
323.533 92.642 L
323.633 92.743 L
323.733 92.842 L
323.833 92.942 L
323.934 93.041 L
324.034 93.14 L
324.135 93.239 L
324.237 93.338 L
324.339 93.436 L
324.441 93.533 L
324.543 93.631 L
324.646 93.728 L
324.749 93.825 L
324.852 93.921 L
324.956 94.017 L
325.06 94.113 L
325.164 94.208 L
325.269 94.304 L
325.374 94.398 L
325.479 94.492 L
325.585 94.586 L
325.69 94.68 L
325.797 94.773 L
325.903 94.866 L
326.01 94.958 L
326.118 95.05 L
326.226 95.141 L
326.334 95.233 L
326.442 95.323 L
326.551 95.413 L
326.66 95.503 L
326.77 95.593 L
326.879 95.681 L
326.99 95.77 L
327.1 95.858 L
327.211 95.945 L
327.323 96.032 L
327.434 96.119 L
327.546 96.205 L
327.659 96.291 L
327.772 96.376 L
327.885 96.46 L
327.999 96.544 L
328.112 96.628 L
328.227 96.711 L
328.342 96.794 L
328.457 96.876 L
328.572 96.957 L
328.688 97.038 L
328.804 97.118 L
328.921 97.198 L
329.038 97.277 L
329.156 97.356 L
329.273 97.434 L
329.392 97.511 L
329.51 97.588 L
329.629 97.665 L
329.749 97.74 L
329.868 97.815 L
329.988 97.89 L
330.109 97.963 L
330.23 98.037 L
330.351 98.109 L
330.473 98.181 L
330.595 98.252 L
330.718 98.323 L
330.84 98.393 L
330.964 98.462 L
331.087 98.53 L
331.211 98.598 L
331.336 98.665 L
331.46 98.732 L
331.586 98.797 L
331.711 98.862 L
331.837 98.927 L
331.963 98.99 L
332.09 99.053 L
332.217 99.115 L
332.344 99.176 L
332.472 99.237 L
332.6 99.296 L
332.728 99.355 L
332.857 99.413 L
332.986 99.471 L
333.116 99.527 L
333.246 99.583 L
333.377 99.638 L
333.508 99.693 L
333.639 99.746 L
333.771 99.799 L
333.903 99.851 L
334.035 99.902 L
334.168 99.952 L
334.301 100.002 L
334.434 100.051 L
334.567 100.099 L
334.701 100.146 L
334.835 100.192 L
334.97 100.238 L
335.104 100.283 L
335.239 100.327 L
335.374 100.37 L
335.509 100.413 L
335.645 100.455 L
335.781 100.496 L
335.917 100.537 L
336.053 100.577 L
336.189 100.616 L
336.326 100.654 L
336.462 100.692 L
336.599 100.729 L
336.737 100.765 L
336.874 100.8 L
337.011 100.835 L
337.149 100.87 L
337.287 100.903 L
337.425 100.936 L
337.563 100.968 L
337.701 101 L
337.84 101.031 L
337.978 101.061 L
338.117 101.091 L
338.256 101.12 L
338.395 101.148 L
338.534 101.176 L
338.673 101.203 L
338.813 101.23 L
338.952 101.256 L
339.092 101.281 L
339.232 101.306 L
339.371 101.331 L
339.511 101.354 L
339.651 101.377 L
339.791 101.4 L
339.931 101.422 L
340.072 101.443 L
340.212 101.464 L
340.352 101.485 L
340.493 101.505 L
340.633 101.524 L
340.774 101.543 L
340.915 101.561 L
341.055 101.579 L
341.196 101.597 L
341.337 101.614 L
341.478 101.63 L
341.619 101.646 L
341.76 101.661 L
341.901 101.676 L
342.042 101.691 L
342.183 101.705 L
342.324 101.719 L
342.466 101.732 L
342.607 101.745 L
342.748 101.757 L
342.89 101.769 L
343.031 101.781 L
343.173 101.792 L
343.314 101.803 L
343.455 101.814 L
343.597 101.824 L
343.738 101.833 L
343.88 101.843 L
344.022 101.852 L
344.163 101.86 L
344.305 101.869 L
344.447 101.877 L
344.588 101.884 L
344.73 101.891 L
344.872 101.898 L
345.013 101.905 L
345.155 101.912 L
345.297 101.918 L
345.439 101.923 L
345.58 101.929 L
345.722 101.934 L
345.864 101.939 L
346.006 101.944 L
346.147 101.948 L
346.289 101.953 L
346.431 101.957 L
346.573 101.96 L
346.715 101.964 L
346.857 101.967 L
346.998 101.97 L
347.14 101.973 L
347.282 101.976 L
347.424 101.979 L
347.566 101.981 L
347.708 101.983 L
347.849 101.985 L
347.991 101.987 L
348.133 101.989 L
348.275 101.99 L
348.417 101.991 L
348.559 101.993 L
348.701 101.994 L
348.843 101.995 L
348.984 101.996 L
349.126 101.996 L
349.268 101.997 L
349.41 101.998 L
349.552 101.998 L
349.694 101.999 L
349.836 101.999 L
349.977 101.999 L
350.119 101.999 L
350.261 102 L
350.403 102 L
350.545 102 L
350.687 102 L
350.829 102 L
350.971 102 L
351.112 102 L
351.254 102 L
351.254 102 L
365.26 102 L
S
GR
GS
[0.75 0 0 0.75 273.94501 76.5] CT
0 1 1 RC
10.0 ML
N
-2.828 -2.828 M
2.828 2.828 L
-2.828 2.828 M
2.828 -2.828 L
S
GR
GS
[0.75 0 0 0.75 0 0] CT
0 1 1 RC
1 LJ
0.667 LW
N
365.26 102 M
370.94 102 L
S
GR
GS
[0.75 0 0 0.75 0 0] CT
1 GC
N
73 372 M
507 372 L
507 231 L
73 231 L
cp
f
GR
GS
[0.75 0 0 0.75 0 0] CT
0.149 GC
2 setlinecap
1 LJ
0.667 LW
N
73 372 M
507 372 L
S
GR
GS
[0.75 0 0 0.75 0 0] CT
0.149 GC
2 setlinecap
1 LJ
0.667 LW
N
73 231 M
507 231 L
S
GR
GS
[0.75 0 0 0.75 0 0] CT
0.149 GC
2 setlinecap
1 LJ
0.667 LW
N
73 372 M
73 367.66 L
S
GR
GS
[0.75 0 0 0.75 0 0] CT
0.149 GC
2 setlinecap
1 LJ
0.667 LW
N
135 372 M
135 367.66 L
S
GR
GS
[0.75 0 0 0.75 0 0] CT
0.149 GC
2 setlinecap
1 LJ
0.667 LW
N
197 372 M
197 367.66 L
S
GR
GS
[0.75 0 0 0.75 0 0] CT
0.149 GC
2 setlinecap
1 LJ
0.667 LW
N
259 372 M
259 367.66 L
S
GR
GS
[0.75 0 0 0.75 0 0] CT
0.149 GC
2 setlinecap
1 LJ
0.667 LW
N
321 372 M
321 367.66 L
S
GR
GS
[0.75 0 0 0.75 0 0] CT
0.149 GC
2 setlinecap
1 LJ
0.667 LW
N
383 372 M
383 367.66 L
S
GR
GS
[0.75 0 0 0.75 0 0] CT
0.149 GC
2 setlinecap
1 LJ
0.667 LW
N
445 372 M
445 367.66 L
S
GR
GS
[0.75 0 0 0.75 0 0] CT
0.149 GC
2 setlinecap
1 LJ
0.667 LW
N
507 372 M
507 367.66 L
S
GR
GS
[0.75 0 0 0.75 0 0] CT
0.149 GC
2 setlinecap
1 LJ
0.667 LW
N
73 231 M
73 235.34 L
S
GR
GS
[0.75 0 0 0.75 0 0] CT
0.149 GC
2 setlinecap
1 LJ
0.667 LW
N
135 231 M
135 235.34 L
S
GR
GS
[0.75 0 0 0.75 0 0] CT
0.149 GC
2 setlinecap
1 LJ
0.667 LW
N
197 231 M
197 235.34 L
S
GR
GS
[0.75 0 0 0.75 0 0] CT
0.149 GC
2 setlinecap
1 LJ
0.667 LW
N
259 231 M
259 235.34 L
S
GR
GS
[0.75 0 0 0.75 0 0] CT
0.149 GC
2 setlinecap
1 LJ
0.667 LW
N
321 231 M
321 235.34 L
S
GR
GS
[0.75 0 0 0.75 0 0] CT
0.149 GC
2 setlinecap
1 LJ
0.667 LW
N
383 231 M
383 235.34 L
S
GR
GS
[0.75 0 0 0.75 0 0] CT
0.149 GC
2 setlinecap
1 LJ
0.667 LW
N
445 231 M
445 235.34 L
S
GR
GS
[0.75 0 0 0.75 0 0] CT
0.149 GC
2 setlinecap
1 LJ
0.667 LW
N
507 231 M
507 235.34 L
S
GR
GS
[0.75 0 0 0.75 54.75 281.8] CT
0.149 GC
/Helvetica 12 F
GS
[1 0 0 1 0 0] CT
-3.5 13 moveto 
1 -1 scale
(0) t 
GR
GR
GS
[0.75 0 0 0.75 101.25 281.8] CT
0.149 GC
/Helvetica 12 F
GS
[1 0 0 1 0 0] CT
-3.5 13 moveto 
1 -1 scale
(2) t 
GR
GR
GS
[0.75 0 0 0.75 147.75 281.8] CT
0.149 GC
/Helvetica 12 F
GS
[1 0 0 1 0 0] CT
-3.5 13 moveto 
1 -1 scale
(4) t 
GR
GR
GS
[0.75 0 0 0.75 194.25 281.8] CT
0.149 GC
/Helvetica 12 F
GS
[1 0 0 1 0 0] CT
-3.5 13 moveto 
1 -1 scale
(6) t 
GR
GR
GS
[0.75 0 0 0.75 240.75 281.8] CT
0.149 GC
/Helvetica 12 F
GS
[1 0 0 1 0 0] CT
-3.5 13 moveto 
1 -1 scale
(8) t 
GR
GR
GS
[0.75 0 0 0.75 287.25 281.8] CT
0.149 GC
/Helvetica 12 F
GS
[1 0 0 1 0 0] CT
-7 13 moveto 
1 -1 scale
(10) t 
GR
GR
GS
[0.75 0 0 0.75 333.75 281.8] CT
0.149 GC
/Helvetica 12 F
GS
[1 0 0 1 0 0] CT
-7 13 moveto 
1 -1 scale
(12) t 
GR
GR
GS
[0.75 0 0 0.75 380.25 281.8] CT
0.149 GC
/Helvetica 12 F
GS
[1 0 0 1 0 0] CT
-7 13 moveto 
1 -1 scale
(14) t 
GR
GR
GS
[0.75 0 0 0.75 217.50016 294.3] CT
0.149 GC
/Helvetica 13.2 F
GS
[1 0 0 1 0 0] CT
-12.5 14 moveto 
1 -1 scale
(s[m]) t 
GR
GR
GS
[0.75 0 0 0.75 0 0] CT
0.149 GC
2 setlinecap
1 LJ
0.667 LW
N
73 372 M
73 231 L
S
GR
GS
[0.75 0 0 0.75 0 0] CT
0.149 GC
2 setlinecap
1 LJ
0.667 LW
N
507 372 M
507 231 L
S
GR
GS
[0.75 0 0 0.75 0 0] CT
0.149 GC
2 setlinecap
1 LJ
0.667 LW
N
73 348.5 M
77.34 348.5 L
S
GR
GS
[0.75 0 0 0.75 0 0] CT
0.149 GC
2 setlinecap
1 LJ
0.667 LW
N
73 301.5 M
77.34 301.5 L
S
GR
GS
[0.75 0 0 0.75 0 0] CT
0.149 GC
2 setlinecap
1 LJ
0.667 LW
N
73 254.5 M
77.34 254.5 L
S
GR
GS
[0.75 0 0 0.75 0 0] CT
0.149 GC
2 setlinecap
1 LJ
0.667 LW
N
507 348.5 M
502.66 348.5 L
S
GR
GS
[0.75 0 0 0.75 0 0] CT
0.149 GC
2 setlinecap
1 LJ
0.667 LW
N
507 301.5 M
502.66 301.5 L
S
GR
GS
[0.75 0 0 0.75 0 0] CT
0.149 GC
2 setlinecap
1 LJ
0.667 LW
N
507 254.5 M
502.66 254.5 L
S
GR
GS
[0.75 0 0 0.75 51.95 261.375] CT
0.149 GC
/Helvetica 12 F
GS
[1 0 0 1 0 0] CT
-11 5 moveto 
1 -1 scale
(-2) t 
GR
GR
GS
[0.75 0 0 0.75 51.95 226.125] CT
0.149 GC
/Helvetica 12 F
GS
[1 0 0 1 0 0] CT
-7 5 moveto 
1 -1 scale
(0) t 
GR
GR
GS
[0.75 0 0 0.75 51.95 190.875] CT
0.149 GC
/Helvetica 12 F
GS
[1 0 0 1 0 0] CT
-7 5 moveto 
1 -1 scale
(2) t 
GR
GR
GS
[0.75 0 0 0.75 0 0] CT
1 0 0 RC
1 LJ
0.667 LW
N
73 301.5 M
73 301.5 L
S
GR
GS
[0.75 0 0 0.75 0 0] CT
0 1 0 RC
1 LJ
0.667 LW
N
73 301.5 M
73 301.5 L
S
GR
GS
[0.75 0 0 0.75 77.68181 226.125] CT
0 1 0 RC
10.0 ML
N
4 0 M
4 -2.209 2.209 -4 0 -4 C
-2.209 -4 -4 -2.209 -4 0 C
-4 2.209 -2.209 4 0 4 C
2.209 4 4 2.209 4 0 C
cp
S
GR
GS
[0.75 0 0 0.75 107.64713 215.03499] CT
0 1 0 RC
10.0 ML
N
4 0 M
4 -2.209 2.209 -4 0 -4 C
-2.209 -4 -4 -2.209 -4 0 C
-4 2.209 -2.209 4 0 4 C
2.209 4 4 2.209 4 0 C
cp
S
GR
GS
[0.75 0 0 0.75 143.28429 226.125] CT
0 1 0 RC
10.0 ML
N
4 0 M
4 -2.209 2.209 -4 0 -4 C
-2.209 -4 -4 -2.209 -4 0 C
-4 2.209 -2.209 4 0 4 C
2.209 4 4 2.209 4 0 C
cp
S
GR
GS
[0.75 0 0 0.75 182.8305 226.125] CT
0 1 0 RC
10.0 ML
N
4 0 M
4 -2.209 2.209 -4 0 -4 C
-2.209 -4 -4 -2.209 -4 0 C
-4 2.209 -2.209 4 0 4 C
2.209 4 4 2.209 4 0 C
cp
S
GR
GS
[0.75 0 0 0.75 54.75 226.125] CT
1 0 0 RC
10.0 ML
N
4 0 M
4 -2.209 2.209 -4 0 -4 C
-2.209 -4 -4 -2.209 -4 0 C
-4 2.209 -2.209 4 0 4 C
2.209 4 4 2.209 4 0 C
cp
S
GR
GS
[0.75 0 0 0.75 77.68181 226.125] CT
1 0 0 RC
10.0 ML
N
4 0 M
4 -2.209 2.209 -4 0 -4 C
-2.209 -4 -4 -2.209 -4 0 C
-4 2.209 -2.209 4 0 4 C
2.209 4 4 2.209 4 0 C
cp
S
GR
GS
[0.75 0 0 0.75 77.68181 217.5203] CT
1 0 0 RC
10.0 ML
N
4 0 M
4 -2.209 2.209 -4 0 -4 C
-2.209 -4 -4 -2.209 -4 0 C
-4 2.209 -2.209 4 0 4 C
2.209 4 4 2.209 4 0 C
cp
S
GR
GS
[0.75 0 0 0.75 107.64713 217.5203] CT
1 0 0 RC
10.0 ML
N
4 0 M
4 -2.209 2.209 -4 0 -4 C
-2.209 -4 -4 -2.209 -4 0 C
-4 2.209 -2.209 4 0 4 C
2.209 4 4 2.209 4 0 C
cp
S
GR
GS
[0.75 0 0 0.75 107.64713 233.36021] CT
1 0 0 RC
10.0 ML
N
4 0 M
4 -2.209 2.209 -4 0 -4 C
-2.209 -4 -4 -2.209 -4 0 C
-4 2.209 -2.209 4 0 4 C
2.209 4 4 2.209 4 0 C
cp
S
GR
GS
[0.75 0 0 0.75 143.28429 233.36021] CT
1 0 0 RC
10.0 ML
N
4 0 M
4 -2.209 2.209 -4 0 -4 C
-2.209 -4 -4 -2.209 -4 0 C
-4 2.209 -2.209 4 0 4 C
2.209 4 4 2.209 4 0 C
cp
S
GR
GS
[0.75 0 0 0.75 143.28429 226.125] CT
1 0 0 RC
10.0 ML
N
4 0 M
4 -2.209 2.209 -4 0 -4 C
-2.209 -4 -4 -2.209 -4 0 C
-4 2.209 -2.209 4 0 4 C
2.209 4 4 2.209 4 0 C
cp
S
GR
GS
[0.75 0 0 0.75 182.8305 226.125] CT
1 0 0 RC
10.0 ML
N
4 0 M
4 -2.209 2.209 -4 0 -4 C
-2.209 -4 -4 -2.209 -4 0 C
-4 2.209 -2.209 4 0 4 C
2.209 4 4 2.209 4 0 C
cp
S
GR
GS
[0.75 0 0 0.75 0 0] CT
1 0 0 RC
1 LJ
0.667 LW
N
73 301.5 M
103.576 301.5 L
103.576 290.027 L
143.53 290.027 L
143.53 311.147 L
191.046 311.147 L
191.046 301.5 L
243.774 301.5 L
S
GR
GS
[0.75 0 0 0.75 197.30489 226.125] CT
0 1 0 RC
10.0 ML
N
4 0 M
4 -2.209 2.209 -4 0 -4 C
-2.209 -4 -4 -2.209 -4 0 C
-4 2.209 -2.209 4 0 4 C
2.209 4 4 2.209 4 0 C
cp
S
GR
GS
[0.75 0 0 0.75 216.08045 264.87385] CT
0 1 0 RC
10.0 ML
N
4 0 M
4 -2.209 2.209 -4 0 -4 C
-2.209 -4 -4 -2.209 -4 0 C
-4 2.209 -2.209 4 0 4 C
2.209 4 4 2.209 4 0 C
cp
S
GR
GS
[0.75 0 0 0.75 234.85602 226.125] CT
0 1 0 RC
10.0 ML
N
4 0 M
4 -2.209 2.209 -4 0 -4 C
-2.209 -4 -4 -2.209 -4 0 C
-4 2.209 -2.209 4 0 4 C
2.209 4 4 2.209 4 0 C
cp
S
GR
GS
[0.75 0 0 0.75 249.33039 226.125] CT
0 1 0 RC
10.0 ML
N
4 0 M
4 -2.209 2.209 -4 0 -4 C
-2.209 -4 -4 -2.209 -4 0 C
-4 2.209 -2.209 4 0 4 C
2.209 4 4 2.209 4 0 C
cp
S
GR
GS
[0.75 0 0 0.75 182.8305 226.125] CT
1 0 0 RC
10.0 ML
N
4 0 M
4 -2.209 2.209 -4 0 -4 C
-2.209 -4 -4 -2.209 -4 0 C
-4 2.209 -2.209 4 0 4 C
2.209 4 4 2.209 4 0 C
cp
S
GR
GS
[0.75 0 0 0.75 197.30489 226.125] CT
1 0 0 RC
10.0 ML
N
4 0 M
4 -2.209 2.209 -4 0 -4 C
-2.209 -4 -4 -2.209 -4 0 C
-4 2.209 -2.209 4 0 4 C
2.209 4 4 2.209 4 0 C
cp
S
GR
GS
[0.75 0 0 0.75 197.30489 274.10815] CT
1 0 0 RC
10.0 ML
N
4 0 M
4 -2.209 2.209 -4 0 -4 C
-2.209 -4 -4 -2.209 -4 0 C
-4 2.209 -2.209 4 0 4 C
2.209 4 4 2.209 4 0 C
cp
S
GR
GS
[0.75 0 0 0.75 216.08045 274.10815] CT
1 0 0 RC
10.0 ML
N
4 0 M
4 -2.209 2.209 -4 0 -4 C
-2.209 -4 -4 -2.209 -4 0 C
-4 2.209 -2.209 4 0 4 C
2.209 4 4 2.209 4 0 C
cp
S
GR
GS
[0.75 0 0 0.75 216.08045 178.14187] CT
1 0 0 RC
10.0 ML
N
4 0 M
4 -2.209 2.209 -4 0 -4 C
-2.209 -4 -4 -2.209 -4 0 C
-4 2.209 -2.209 4 0 4 C
2.209 4 4 2.209 4 0 C
cp
S
GR
GS
[0.75 0 0 0.75 234.85602 178.14187] CT
1 0 0 RC
10.0 ML
N
4 0 M
4 -2.209 2.209 -4 0 -4 C
-2.209 -4 -4 -2.209 -4 0 C
-4 2.209 -2.209 4 0 4 C
2.209 4 4 2.209 4 0 C
cp
S
GR
GS
[0.75 0 0 0.75 234.85602 226.125] CT
1 0 0 RC
10.0 ML
N
4 0 M
4 -2.209 2.209 -4 0 -4 C
-2.209 -4 -4 -2.209 -4 0 C
-4 2.209 -2.209 4 0 4 C
2.209 4 4 2.209 4 0 C
cp
S
GR
GS
[0.75 0 0 0.75 249.33039 226.125] CT
1 0 0 RC
10.0 ML
N
4 0 M
4 -2.209 2.209 -4 0 -4 C
-2.209 -4 -4 -2.209 -4 0 C
-4 2.209 -2.209 4 0 4 C
2.209 4 4 2.209 4 0 C
cp
S
GR
GS
[0.75 0 0 0.75 0 0] CT
1 0 0 RC
1 LJ
0.667 LW
N
243.774 301.5 M
263.073 301.5 L
263.073 365.478 L
288.107 365.478 L
288.107 237.522 L
313.141 237.522 L
313.141 301.5 L
332.441 301.5 L
S
GR
GS
[0.75 0 0 0.75 288.87659 226.125] CT
0 1 0 RC
10.0 ML
N
4 0 M
4 -2.209 2.209 -4 0 -4 C
-2.209 -4 -4 -2.209 -4 0 C
-4 2.209 -2.209 4 0 4 C
2.209 4 4 2.209 4 0 C
cp
S
GR
GS
[0.75 0 0 0.75 324.51375 215.03499] CT
0 1 0 RC
10.0 ML
N
4 0 M
4 -2.209 2.209 -4 0 -4 C
-2.209 -4 -4 -2.209 -4 0 C
-4 2.209 -2.209 4 0 4 C
2.209 4 4 2.209 4 0 C
cp
S
GR
GS
[0.75 0 0 0.75 354.47907 226.125] CT
0 1 0 RC
10.0 ML
N
4 0 M
4 -2.209 2.209 -4 0 -4 C
-2.209 -4 -4 -2.209 -4 0 C
-4 2.209 -2.209 4 0 4 C
2.209 4 4 2.209 4 0 C
cp
S
GR
GS
[0.75 0 0 0.75 377.41088 226.125] CT
0 1 0 RC
10.0 ML
N
4 0 M
4 -2.209 2.209 -4 0 -4 C
-2.209 -4 -4 -2.209 -4 0 C
-4 2.209 -2.209 4 0 4 C
2.209 4 4 2.209 4 0 C
cp
S
GR
GS
[0.75 0 0 0.75 249.33039 226.125] CT
1 0 0 RC
10.0 ML
N
4 0 M
4 -2.209 2.209 -4 0 -4 C
-2.209 -4 -4 -2.209 -4 0 C
-4 2.209 -2.209 4 0 4 C
2.209 4 4 2.209 4 0 C
cp
S
GR
GS
[0.75 0 0 0.75 288.87659 226.125] CT
1 0 0 RC
10.0 ML
N
4 0 M
4 -2.209 2.209 -4 0 -4 C
-2.209 -4 -4 -2.209 -4 0 C
-4 2.209 -2.209 4 0 4 C
2.209 4 4 2.209 4 0 C
cp
S
GR
GS
[0.75 0 0 0.75 288.87659 218.88979] CT
1 0 0 RC
10.0 ML
N
4 0 M
4 -2.209 2.209 -4 0 -4 C
-2.209 -4 -4 -2.209 -4 0 C
-4 2.209 -2.209 4 0 4 C
2.209 4 4 2.209 4 0 C
cp
S
GR
GS
[0.75 0 0 0.75 324.51375 218.88979] CT
1 0 0 RC
10.0 ML
N
4 0 M
4 -2.209 2.209 -4 0 -4 C
-2.209 -4 -4 -2.209 -4 0 C
-4 2.209 -2.209 4 0 4 C
2.209 4 4 2.209 4 0 C
cp
S
GR
GS
[0.75 0 0 0.75 324.51375 234.7297] CT
1 0 0 RC
10.0 ML
N
4 0 M
4 -2.209 2.209 -4 0 -4 C
-2.209 -4 -4 -2.209 -4 0 C
-4 2.209 -2.209 4 0 4 C
2.209 4 4 2.209 4 0 C
cp
S
GR
GS
[0.75 0 0 0.75 354.47907 234.7297] CT
1 0 0 RC
10.0 ML
N
4 0 M
4 -2.209 2.209 -4 0 -4 C
-2.209 -4 -4 -2.209 -4 0 C
-4 2.209 -2.209 4 0 4 C
2.209 4 4 2.209 4 0 C
cp
S
GR
GS
[0.75 0 0 0.75 354.47907 226.125] CT
1 0 0 RC
10.0 ML
N
4 0 M
4 -2.209 2.209 -4 0 -4 C
-2.209 -4 -4 -2.209 -4 0 C
-4 2.209 -2.209 4 0 4 C
2.209 4 4 2.209 4 0 C
cp
S
GR
GS
[0.75 0 0 0.75 377.41088 226.125] CT
1 0 0 RC
10.0 ML
N
4 0 M
4 -2.209 2.209 -4 0 -4 C
-2.209 -4 -4 -2.209 -4 0 C
-4 2.209 -2.209 4 0 4 C
2.209 4 4 2.209 4 0 C
cp
S
GR
GS
[0.75 0 0 0.75 0 0] CT
1 0 0 RC
1 LJ
0.667 LW
N
332.441 301.5 M
385.169 301.5 L
385.169 291.853 L
432.685 291.853 L
432.685 312.973 L
472.639 312.973 L
472.639 301.5 L
503.215 301.5 L
S
GR
GS
[0.75 0 0 0.75 0 0] CT
0 1 0 RC
1 LJ
0.667 LW
N
73 301.5 M
103.576 301.5 L
103.576 301.5 L
103.885 301.385 L
104.195 301.271 L
104.505 301.156 L
104.815 301.042 L
105.124 300.927 L
105.434 300.812 L
105.744 300.698 L
106.054 300.583 L
106.363 300.468 L
106.673 300.354 L
106.983 300.239 L
107.292 300.124 L
107.602 300.01 L
107.912 299.895 L
108.222 299.781 L
108.531 299.666 L
108.841 299.551 L
109.151 299.437 L
109.46 299.322 L
109.77 299.207 L
110.08 299.093 L
110.39 298.978 L
110.699 298.864 L
111.009 298.749 L
111.319 298.634 L
111.628 298.52 L
111.938 298.405 L
112.248 298.29 L
112.558 298.176 L
112.867 298.061 L
113.177 297.947 L
113.487 297.832 L
113.796 297.717 L
114.106 297.603 L
114.416 297.488 L
114.726 297.373 L
115.035 297.259 L
115.345 297.144 L
115.655 297.03 L
115.965 296.915 L
116.274 296.8 L
116.584 296.686 L
116.894 296.571 L
117.203 296.456 L
117.513 296.342 L
117.823 296.227 L
118.133 296.113 L
118.442 295.998 L
118.752 295.883 L
119.062 295.769 L
119.371 295.654 L
119.681 295.539 L
119.991 295.425 L
120.301 295.31 L
120.61 295.196 L
120.92 295.081 L
121.23 294.966 L
121.539 294.852 L
121.849 294.737 L
122.159 294.622 L
122.469 294.508 L
122.778 294.393 L
123.088 294.279 L
123.398 294.164 L
123.707 294.049 L
124.017 293.935 L
124.327 293.82 L
124.637 293.705 L
124.946 293.591 L
125.256 293.476 L
125.566 293.362 L
125.876 293.247 L
126.185 293.132 L
126.495 293.018 L
126.805 292.903 L
127.114 292.788 L
127.424 292.674 L
127.734 292.559 L
128.044 292.445 L
128.353 292.33 L
128.663 292.215 L
128.973 292.101 L
129.282 291.986 L
129.592 291.871 L
129.902 291.757 L
130.212 291.642 L
130.521 291.528 L
130.831 291.413 L
131.141 291.298 L
131.45 291.184 L
131.76 291.069 L
132.07 290.954 L
132.38 290.84 L
132.689 290.725 L
132.999 290.611 L
133.309 290.496 L
133.618 290.381 L
133.928 290.267 L
134.238 290.152 L
134.548 290.037 L
134.857 289.923 L
135.167 289.808 L
135.477 289.694 L
135.787 289.579 L
136.096 289.464 L
136.406 289.35 L
136.716 289.235 L
137.025 289.12 L
137.335 289.006 L
137.645 288.891 L
137.955 288.777 L
138.264 288.662 L
138.574 288.547 L
138.884 288.433 L
139.193 288.318 L
139.503 288.203 L
139.813 288.089 L
140.123 287.974 L
140.432 287.86 L
140.742 287.745 L
141.052 287.63 L
141.361 287.516 L
141.671 287.401 L
141.981 287.286 L
142.291 287.172 L
142.6 287.057 L
142.91 286.943 L
143.22 286.828 L
143.53 286.713 L
143.838 286.809 L
144.147 286.905 L
144.455 287.001 L
144.764 287.097 L
145.072 287.193 L
145.381 287.289 L
145.689 287.385 L
145.998 287.481 L
146.306 287.577 L
146.615 287.673 L
146.924 287.77 L
147.232 287.866 L
147.541 287.962 L
147.849 288.058 L
148.158 288.154 L
148.466 288.25 L
148.775 288.346 L
149.083 288.442 L
149.392 288.538 L
149.7 288.634 L
150.009 288.73 L
150.318 288.826 L
150.626 288.922 L
150.935 289.018 L
151.243 289.114 L
151.552 289.21 L
151.86 289.306 L
152.169 289.402 L
152.477 289.498 L
152.786 289.594 L
153.094 289.69 L
153.403 289.786 L
153.712 289.882 L
154.02 289.978 L
154.329 290.074 L
154.637 290.17 L
154.946 290.266 L
155.254 290.362 L
155.563 290.458 L
155.871 290.554 L
156.18 290.65 L
156.488 290.746 L
156.797 290.842 L
157.106 290.938 L
157.414 291.034 L
157.723 291.13 L
158.031 291.226 L
158.34 291.322 L
158.648 291.418 L
158.957 291.514 L
159.265 291.61 L
159.574 291.706 L
159.882 291.802 L
160.191 291.898 L
160.5 291.994 L
160.808 292.09 L
161.117 292.186 L
161.425 292.282 L
161.734 292.378 L
162.042 292.474 L
162.351 292.57 L
162.659 292.666 L
162.968 292.762 L
163.277 292.858 L
163.585 292.954 L
163.894 293.05 L
164.202 293.146 L
164.511 293.243 L
164.819 293.339 L
165.128 293.435 L
165.436 293.531 L
165.745 293.627 L
166.053 293.723 L
166.362 293.819 L
166.671 293.915 L
166.979 294.011 L
167.288 294.107 L
167.596 294.203 L
167.905 294.299 L
168.213 294.395 L
168.522 294.491 L
168.83 294.587 L
169.139 294.683 L
169.447 294.779 L
169.756 294.875 L
170.065 294.971 L
170.373 295.067 L
170.682 295.163 L
170.99 295.259 L
171.299 295.355 L
171.607 295.451 L
171.916 295.547 L
172.224 295.643 L
172.533 295.739 L
172.841 295.835 L
173.15 295.931 L
173.459 296.027 L
173.767 296.123 L
174.076 296.219 L
174.384 296.315 L
174.693 296.411 L
175.001 296.507 L
175.31 296.603 L
175.618 296.699 L
175.927 296.795 L
176.235 296.891 L
176.544 296.987 L
176.853 297.083 L
177.161 297.179 L
177.47 297.275 L
177.778 297.371 L
178.087 297.467 L
178.395 297.563 L
178.704 297.659 L
179.012 297.755 L
179.321 297.851 L
179.629 297.947 L
179.938 298.043 L
180.247 298.139 L
180.555 298.235 L
180.864 298.331 L
181.172 298.427 L
181.481 298.523 L
181.789 298.619 L
182.098 298.715 L
182.406 298.812 L
182.715 298.908 L
183.023 299.004 L
183.332 299.1 L
183.641 299.196 L
183.949 299.292 L
184.258 299.388 L
184.566 299.484 L
184.875 299.58 L
185.183 299.676 L
185.492 299.772 L
185.8 299.868 L
186.109 299.964 L
186.418 300.06 L
186.726 300.156 L
187.035 300.252 L
187.343 300.348 L
187.652 300.444 L
187.96 300.54 L
188.269 300.636 L
188.577 300.732 L
188.886 300.828 L
189.194 300.924 L
189.503 301.02 L
189.812 301.116 L
190.12 301.212 L
190.429 301.308 L
190.737 301.404 L
191.046 301.5 L
191.046 301.5 L
243.774 301.5 L
263.073 301.5 L
263.073 301.5 L
263.382 302.138 L
263.691 302.776 L
264 303.414 L
264.309 304.051 L
264.618 304.689 L
264.928 305.327 L
265.237 305.965 L
265.546 306.603 L
265.855 307.241 L
266.164 307.878 L
266.473 308.516 L
266.782 309.154 L
267.091 309.792 L
267.4 310.43 L
267.709 311.068 L
268.018 311.705 L
268.327 312.343 L
268.636 312.981 L
268.945 313.619 L
269.254 314.257 L
269.564 314.895 L
269.873 315.533 L
270.182 316.17 L
270.491 316.808 L
270.8 317.446 L
271.109 318.084 L
271.418 318.722 L
271.727 319.36 L
272.036 319.997 L
272.345 320.635 L
272.654 321.273 L
272.963 321.911 L
273.272 322.549 L
273.581 323.187 L
273.89 323.824 L
274.199 324.462 L
274.509 325.1 L
274.818 325.738 L
275.127 326.376 L
275.436 327.014 L
275.745 327.651 L
276.054 328.289 L
276.363 328.927 L
276.672 329.565 L
276.981 330.203 L
277.29 330.841 L
277.599 331.479 L
277.908 332.116 L
278.217 332.754 L
278.526 333.392 L
278.835 334.03 L
279.144 334.668 L
279.453 335.306 L
279.763 335.943 L
280.072 336.581 L
280.381 337.219 L
280.69 337.857 L
280.999 338.495 L
281.308 339.133 L
281.617 339.77 L
281.926 340.408 L
282.235 341.046 L
282.544 341.684 L
282.853 342.322 L
283.162 342.96 L
283.471 343.598 L
283.78 344.235 L
284.089 344.873 L
284.398 345.511 L
284.708 346.149 L
285.017 346.787 L
285.326 347.425 L
285.635 348.062 L
285.944 348.7 L
286.253 349.338 L
286.562 349.976 L
286.871 350.614 L
287.18 351.252 L
287.489 351.889 L
287.798 352.527 L
288.107 353.165 L
288.416 352.527 L
288.725 351.889 L
289.034 351.252 L
289.344 350.614 L
289.653 349.976 L
289.962 349.338 L
290.271 348.7 L
290.58 348.062 L
290.889 347.425 L
291.198 346.787 L
291.507 346.149 L
291.816 345.511 L
292.125 344.873 L
292.434 344.235 L
292.743 343.598 L
293.052 342.96 L
293.361 342.322 L
293.67 341.684 L
293.979 341.046 L
294.289 340.408 L
294.598 339.77 L
294.907 339.133 L
295.216 338.495 L
295.525 337.857 L
295.834 337.219 L
296.143 336.581 L
296.452 335.943 L
296.761 335.306 L
297.07 334.668 L
297.379 334.03 L
297.688 333.392 L
297.997 332.754 L
298.306 332.116 L
298.615 331.479 L
298.924 330.841 L
299.234 330.203 L
299.543 329.565 L
299.852 328.927 L
300.161 328.289 L
300.47 327.651 L
300.779 327.014 L
301.088 326.376 L
301.397 325.738 L
301.706 325.1 L
302.015 324.462 L
302.324 323.824 L
302.633 323.187 L
302.942 322.549 L
303.251 321.911 L
303.56 321.273 L
303.869 320.635 L
304.179 319.997 L
304.488 319.36 L
304.797 318.722 L
305.106 318.084 L
305.415 317.446 L
305.724 316.808 L
306.033 316.17 L
306.342 315.533 L
306.651 314.895 L
306.96 314.257 L
307.269 313.619 L
307.578 312.981 L
307.887 312.343 L
308.196 311.705 L
308.505 311.068 L
308.814 310.43 L
309.124 309.792 L
309.433 309.154 L
309.742 308.516 L
310.051 307.878 L
310.36 307.241 L
310.669 306.603 L
310.978 305.965 L
311.287 305.327 L
311.596 304.689 L
311.905 304.051 L
312.214 303.414 L
312.523 302.776 L
312.832 302.138 L
313.141 301.5 L
313.141 301.5 L
332.441 301.5 L
385.169 301.5 L
385.169 301.5 L
385.477 301.404 L
385.786 301.308 L
386.094 301.212 L
386.403 301.116 L
386.712 301.02 L
387.02 300.924 L
387.329 300.828 L
387.637 300.732 L
387.946 300.636 L
388.254 300.54 L
388.563 300.444 L
388.871 300.348 L
389.18 300.252 L
389.488 300.156 L
389.797 300.06 L
390.106 299.964 L
390.414 299.868 L
390.723 299.772 L
391.031 299.676 L
391.34 299.58 L
391.648 299.484 L
391.957 299.388 L
392.265 299.292 L
392.574 299.196 L
392.882 299.1 L
393.191 299.004 L
393.5 298.908 L
393.808 298.812 L
394.117 298.715 L
394.425 298.619 L
394.734 298.523 L
395.042 298.427 L
395.351 298.331 L
395.659 298.235 L
395.968 298.139 L
396.276 298.043 L
396.585 297.947 L
396.894 297.851 L
397.202 297.755 L
397.511 297.659 L
397.819 297.563 L
398.128 297.467 L
398.436 297.371 L
398.745 297.275 L
399.053 297.179 L
399.362 297.083 L
399.671 296.987 L
399.979 296.891 L
400.288 296.795 L
400.596 296.699 L
400.905 296.603 L
401.213 296.507 L
401.522 296.411 L
401.83 296.315 L
402.139 296.219 L
402.447 296.123 L
402.756 296.027 L
403.065 295.931 L
403.373 295.835 L
403.682 295.739 L
403.99 295.643 L
404.299 295.547 L
404.607 295.451 L
404.916 295.355 L
405.224 295.259 L
405.533 295.163 L
405.841 295.067 L
406.15 294.971 L
406.459 294.875 L
406.767 294.779 L
407.076 294.683 L
407.384 294.587 L
407.693 294.491 L
408.001 294.395 L
408.31 294.299 L
408.618 294.203 L
408.927 294.107 L
409.235 294.011 L
409.544 293.915 L
409.853 293.819 L
410.161 293.723 L
410.47 293.627 L
410.778 293.531 L
411.087 293.435 L
411.395 293.339 L
411.704 293.243 L
412.012 293.146 L
412.321 293.05 L
412.629 292.954 L
412.938 292.858 L
413.247 292.762 L
413.555 292.666 L
413.864 292.57 L
414.172 292.474 L
414.481 292.378 L
414.789 292.282 L
415.098 292.186 L
415.406 292.09 L
415.715 291.994 L
416.023 291.898 L
416.332 291.802 L
416.641 291.706 L
416.949 291.61 L
417.258 291.514 L
417.566 291.418 L
417.875 291.322 L
418.183 291.226 L
418.492 291.13 L
418.8 291.034 L
419.109 290.938 L
419.418 290.842 L
419.726 290.746 L
420.035 290.65 L
420.343 290.554 L
420.652 290.458 L
420.96 290.362 L
421.269 290.266 L
421.577 290.17 L
421.886 290.074 L
422.194 289.978 L
422.503 289.882 L
422.812 289.786 L
423.12 289.69 L
423.429 289.594 L
423.737 289.498 L
424.046 289.402 L
424.354 289.306 L
424.663 289.21 L
424.971 289.114 L
425.28 289.018 L
425.588 288.922 L
425.897 288.826 L
426.206 288.73 L
426.514 288.634 L
426.823 288.538 L
427.131 288.442 L
427.44 288.346 L
427.748 288.25 L
428.057 288.154 L
428.365 288.058 L
428.674 287.962 L
428.982 287.866 L
429.291 287.77 L
429.6 287.673 L
429.908 287.577 L
430.217 287.481 L
430.525 287.385 L
430.834 287.289 L
431.142 287.193 L
431.451 287.097 L
431.759 287.001 L
432.068 286.905 L
432.376 286.809 L
432.685 286.713 L
432.995 286.828 L
433.304 286.943 L
433.614 287.057 L
433.924 287.172 L
434.234 287.286 L
434.543 287.401 L
434.853 287.516 L
435.163 287.63 L
435.472 287.745 L
435.782 287.86 L
436.092 287.974 L
436.402 288.089 L
436.711 288.203 L
437.021 288.318 L
437.331 288.433 L
437.641 288.547 L
437.95 288.662 L
438.26 288.777 L
438.57 288.891 L
438.879 289.006 L
439.189 289.12 L
439.499 289.235 L
439.809 289.35 L
440.118 289.464 L
440.428 289.579 L
440.738 289.694 L
441.047 289.808 L
441.357 289.923 L
441.667 290.037 L
441.977 290.152 L
442.286 290.267 L
442.596 290.381 L
442.906 290.496 L
443.215 290.611 L
443.525 290.725 L
443.835 290.84 L
444.145 290.954 L
444.454 291.069 L
444.764 291.184 L
445.074 291.298 L
445.383 291.413 L
445.693 291.528 L
446.003 291.642 L
446.313 291.757 L
446.622 291.871 L
446.932 291.986 L
447.242 292.101 L
447.552 292.215 L
447.861 292.33 L
448.171 292.445 L
448.481 292.559 L
448.79 292.674 L
449.1 292.788 L
449.41 292.903 L
449.72 293.018 L
450.029 293.132 L
450.339 293.247 L
450.649 293.362 L
450.958 293.476 L
451.268 293.591 L
451.578 293.705 L
451.888 293.82 L
452.197 293.935 L
452.507 294.049 L
452.817 294.164 L
453.126 294.279 L
453.436 294.393 L
453.746 294.508 L
454.056 294.622 L
454.365 294.737 L
454.675 294.852 L
454.985 294.966 L
455.294 295.081 L
455.604 295.196 L
455.914 295.31 L
456.224 295.425 L
456.533 295.539 L
456.843 295.654 L
457.153 295.769 L
457.463 295.883 L
457.772 295.998 L
458.082 296.113 L
458.392 296.227 L
458.701 296.342 L
459.011 296.456 L
459.321 296.571 L
459.631 296.686 L
459.94 296.8 L
460.25 296.915 L
460.56 297.03 L
460.869 297.144 L
461.179 297.259 L
461.489 297.373 L
461.799 297.488 L
462.108 297.603 L
462.418 297.717 L
462.728 297.832 L
463.037 297.947 L
463.347 298.061 L
463.657 298.176 L
463.967 298.29 L
464.276 298.405 L
464.586 298.52 L
464.896 298.634 L
465.206 298.749 L
465.515 298.864 L
465.825 298.978 L
466.135 299.093 L
466.444 299.207 L
466.754 299.322 L
467.064 299.437 L
467.374 299.551 L
467.683 299.666 L
467.993 299.781 L
468.303 299.895 L
468.612 300.01 L
468.922 300.124 L
469.232 300.239 L
469.542 300.354 L
469.851 300.468 L
470.161 300.583 L
470.471 300.698 L
470.78 300.812 L
471.09 300.927 L
471.4 301.042 L
471.71 301.156 L
472.019 301.271 L
472.329 301.385 L
472.639 301.5 L
472.639 301.5 L
503.215 301.5 L
S
GR
GS
[0.75 0 0 0.75 0 0] CT
1 GC
N
496 278 M
496 239 L
348 239 L
348 278 L
cp
f
GR
GS
[0.75 0 0 0.75 296.25 192] CT
/Helvetica 10.8 F
GS
[1 0 0 1 0 0] CT
0 0 moveto 
1 -1 scale
(Sharpness [rad.m) t 
GR
GR
GS
[0.75 0 0 0.75 360.75 188.25] CT
/Helvetica 8.64 F
GS
[1 0 0 1 0 0] CT
0 0 moveto 
1 -1 scale
(-2) t 
GR
GR
GS
[0.75 0 0 0.75 366.75 192] CT
/Helvetica 10.8 F
GS
[1 0 0 1 0 0] CT
0 0 moveto 
1 -1 scale
(]) t 
GR
GR
GS
[0.75 0 0 0.75 0 0] CT
1 0 0 RC
1 LJ
0.667 LW
N
352 249.636 M
392 249.636 L
S
GR
GS
[0.75 0 0 0.75 296.25 204.75] CT
/Helvetica 10.8 F
GS
[1 0 0 1 0 0] CT
0 0 moveto 
1 -1 scale
(Curvature [rad.m) t 
GR
GR
GS
[0.75 0 0 0.75 357 201] CT
/Helvetica 8.64 F
GS
[1 0 0 1 0 0] CT
0 0 moveto 
1 -1 scale
(-1) t 
GR
GR
GS
[0.75 0 0 0.75 363 204.75] CT
/Helvetica 10.8 F
GS
[1 0 0 1 0 0] CT
0 0 moveto 
1 -1 scale
(]) t 
GR
GR
GS
[0.75 0 0 0.75 0 0] CT
0 1 0 RC
1 LJ
0.667 LW
N
352 267.364 M
392 267.364 L
S
GR
GS
[0.75 0 0 0.75 0 0] CT
0.149 GC
10.0 ML
0.667 LW
N
348 278 M
348 239 L
496 239 L
496 278 L
cp
S
GR
%%Trailer
%%Pages: 1
%%EOF
